# This file uses centimeters as units for non-parametric coordinates.

mtllib obj_membrane_00.mtl
g default
v -0.995361 -3.398375 0.995361
v -0.000000 -3.398375 1.407653
v 0.995361 -3.398375 0.995361
v 1.407653 -3.398375 0.000000
v -1.407653 -3.398375 -0.000000
v -1.839187 -2.601004 1.839187
v -0.000000 -2.601004 2.601004
v 1.839187 -2.601004 1.839187
v 2.601004 -2.601004 0.000000
v -2.601004 -2.601004 -0.000000
v -2.403014 -1.407653 2.403014
v -0.000000 -1.407653 3.398374
v 2.403014 -1.407653 2.403014
v 3.398374 -1.407653 0.000000
v -3.398375 -1.407653 -0.000000
v -2.601004 0.000000 2.601004
v -0.000000 0.000000 3.678374
v 2.601004 0.000000 2.601004
v 3.678374 0.000000 0.000000
v -3.678375 0.000000 -0.000000
v -2.403014 1.407653 2.403014
v -0.000000 1.407653 3.398374
v 2.403014 1.407653 2.403014
v 3.398374 1.407653 0.000000
v -3.398375 1.407653 -0.000000
v -1.839187 2.601004 1.839187
v -0.000000 2.601004 2.601004
v 1.839187 2.601004 1.839187
v 2.601004 2.601004 0.000000
v -2.601004 2.601004 -0.000000
v -0.995361 3.398375 0.995361
v -0.000000 3.398375 1.407653
v 0.995361 3.398375 0.995361
v 1.407653 3.398375 0.000000
v -1.407653 3.398375 -0.000000
v 0.000000 -3.678374 0.000000
v 0.000000 3.678374 0.000000
v -0.874032 -2.984131 0.874032
v -0.000000 -2.984131 1.236068
v -0.000000 -2.283955 2.283955
v -1.615000 -2.283955 1.615000
v 0.874032 -2.984131 0.874032
v 1.615000 -2.283955 1.615000
v 1.236068 -2.984131 -0.000000
v 2.283955 -2.283955 -0.000000
v -1.236068 -2.984131 -0.000000
v -2.283955 -2.283955 -0.000000
v -0.000000 -1.236068 2.984130
v -2.110099 -1.236068 2.110099
v 2.110099 -1.236068 2.110099
v 2.984130 -1.236068 -0.000000
v -2.984131 -1.236068 -0.000000
v -0.000000 0.000000 3.230000
v -2.283955 0.000000 2.283955
v 2.283955 0.000000 2.283955
v 3.230000 0.000000 -0.000000
v -3.230000 0.000000 -0.000000
v -0.000000 1.236068 2.984130
v -2.110099 1.236068 2.110099
v 2.110099 1.236068 2.110099
v 2.984130 1.236068 -0.000000
v -2.984131 1.236068 -0.000000
v -0.000000 2.283955 2.283955
v -1.615000 2.283955 1.615000
v 1.615000 2.283955 1.615000
v 2.283955 2.283955 -0.000000
v -2.283955 2.283955 -0.000000
v -0.000000 2.984131 1.236068
v -0.874032 2.984131 0.874032
v 0.874032 2.984131 0.874032
v 1.236068 2.984131 -0.000000
v -1.236068 2.984131 -0.000000
v -0.000000 -3.230000 -0.000000
v -0.000000 3.230000 -0.000000
v 1.251207 -3.020682 -0.000000
v -0.000000 -3.269563 -0.000000
v -1.251208 -3.020682 -0.000000
v -2.311930 -2.311930 -0.000000
v -3.020682 -1.251207 -0.000000
v -3.269563 0.000000 -0.000000
v -3.020682 1.251207 -0.000000
v -2.311930 2.311930 -0.000000
v -1.251208 3.020682 -0.000000
v -0.000000 3.269563 -0.000000
v 1.251207 3.020682 -0.000000
v 2.311930 2.311930 -0.000000
v 3.020681 1.251207 -0.000000
v 3.269563 0.000000 -0.000000
v 3.020681 -1.251207 -0.000000
v 2.311930 -2.311930 -0.000000
v 1.389261 -3.353972 -0.000000
v -0.000000 -3.630313 -0.000000
v -1.389261 -3.353972 -0.000000
v -2.567019 -2.567019 -0.000000
v -3.353972 -1.389261 -0.000000
v -3.630313 0.000000 -0.000000
v -3.353972 1.389261 -0.000000
v -2.567019 2.567019 -0.000000
v -1.389261 3.353972 -0.000000
v -0.000000 3.630313 -0.000000
v 1.389261 3.353972 -0.000000
v 2.567019 2.567019 -0.000000
v 3.353972 1.389261 -0.000000
v 3.630313 0.000000 -0.000000
v 3.353972 -1.389261 -0.000000
v 2.567019 -2.567019 -0.000000
v 1.399880 -3.379609 -0.000000
v -0.000000 -3.658063 -0.000000
v -1.399880 -3.379609 -0.000000
v -2.586641 -2.586641 -0.000000
v -3.379609 -1.399880 -0.000000
v -3.658062 0.000000 -0.000000
v -3.379609 1.399880 -0.000000
v -2.586641 2.586641 -0.000000
v -1.399880 3.379609 -0.000000
v -0.000000 3.658063 -0.000000
v 1.399880 3.379609 -0.000000
v 2.586641 2.586641 -0.000000
v 3.379609 1.399880 -0.000000
v 3.658062 0.000000 -0.000000
v 3.379609 -1.399880 -0.000000
v 2.586641 -2.586641 -0.000000
v 1.244323 -3.004063 -0.000000
v 2.299210 -2.299211 -0.000000
v 3.004062 -1.244324 -0.000000
v 3.251574 0.000000 -0.000000
v 3.004062 1.244324 -0.000000
v 2.299210 2.299211 -0.000000
v 1.244323 3.004063 -0.000000
v -0.000000 3.251575 -0.000000
v -1.244324 3.004063 -0.000000
v -2.299211 2.299211 -0.000000
v -3.004063 1.244324 -0.000000
v -3.251575 0.000000 -0.000000
v -3.004063 -1.244324 -0.000000
v -2.299211 -2.299211 -0.000000
v -1.244324 -3.004063 -0.000000
v -0.000000 -3.251575 -0.000000
v 1.230386 -2.984131 0.013717
v 2.273456 -2.283955 0.025346
v 2.970413 -1.236068 0.033116
v 3.215153 0.000000 0.035844
v 2.970413 1.236068 0.033116
v 2.273456 2.283955 0.025346
v 1.230386 2.984131 0.013717
v -0.000000 3.226142 0.019399
v -1.230386 2.984131 0.013717
v -2.273457 2.283955 0.025346
v -2.970414 1.236068 0.033116
v -3.215154 0.000000 0.035845
v -2.970414 -1.236068 0.033116
v -2.273457 -2.283955 0.025346
v -1.230386 -2.984131 0.013717
v -0.000000 -3.226142 0.019399
v 1.400667 -3.398375 0.016866
v -0.000000 -3.673629 0.023853
v -1.400667 -3.398375 0.016866
v -2.588094 -2.601004 0.031165
v -3.381508 -1.407653 0.040719
v -3.660118 0.000000 0.044074
v -3.381508 1.407653 0.040719
v -2.588094 2.601004 0.031165
v -1.400667 3.398375 0.016866
v -0.000000 3.673629 0.023853
v 1.400667 3.398375 0.016866
v 2.588094 2.601004 0.031165
v 3.381508 1.407653 0.040719
v 3.660117 0.000000 0.044074
v 3.381508 -1.407653 0.040719
v 2.588094 -2.601004 0.031165
vt 0.130983 0.590617
vt 0.140730 0.614149
vt 0.081203 0.653923
vt 0.063193 0.635913
vt 0.358699 0.635913
vt 0.340688 0.653923
vt 0.281162 0.614149
vt 0.290909 0.590617
vt 0.041429 0.713449
vt 0.017898 0.703702
vt 0.403994 0.703702
vt 0.380463 0.713449
vt 0.027462 0.783666
vt 0.001992 0.783666
vt 0.419900 0.783666
vt 0.394430 0.783665
vt 0.041429 0.853882
vt 0.017898 0.863629
vt 0.403994 0.863629
vt 0.380463 0.853882
vt 0.081203 0.913408
vt 0.063193 0.931418
vt 0.358699 0.931418
vt 0.340688 0.913408
vt 0.140730 0.953182
vt 0.130983 0.976714
vt 0.290909 0.976714
vt 0.281162 0.953182
vt 0.210946 0.574712
vt 0.210946 0.600182
vt 0.210946 0.967149
vt 0.210946 0.992619
vt 0.801955 0.395060
vt 0.839006 0.457170
vt 0.744065 0.466827
vt 0.743826 0.404024
vt 0.648057 0.454599
vt 0.685397 0.391628
vt 0.558671 0.414028
vt 0.642568 0.354564
vt 0.843893 0.362784
vt 0.922839 0.417465
vt 0.860954 0.523164
vt 0.744403 0.528626
vt 0.627059 0.521135
vt 0.506405 0.498185
vt 0.976811 0.495558
vt 0.868399 0.591798
vt 0.744338 0.590828
vt 0.620278 0.589858
vt 0.490668 0.593370
vt 0.998008 0.588286
vt 0.861618 0.660521
vt 0.744274 0.653030
vt 0.627722 0.658492
vt 0.511865 0.686098
vt 0.982272 0.683471
vt 0.840620 0.727057
vt 0.744611 0.714829
vt 0.649670 0.724486
vt 0.565838 0.764191
vt 0.930005 0.767628
vt 0.803280 0.790028
vt 0.744851 0.777632
vt 0.686722 0.786596
vt 0.644783 0.818872
vt 0.846109 0.827092
vt 0.746551 0.333393
vt 0.742125 0.848263
vt 0.225273 0.072213
vt 0.291475 0.082421
vt 0.291203 0.153947
vt 0.183076 0.142949
vt 0.358020 0.068304
vt 0.400546 0.140021
vt 0.406797 0.026092
vt 0.502345 0.093816
vt 0.177510 0.035455
vt 0.087601 0.097730
vt 0.290819 0.224329
vt 0.158080 0.218108
vt 0.424460 0.215797
vt 0.561870 0.189661
vt 0.026133 0.186669
vt 0.290892 0.295169
vt 0.149602 0.296274
vt 0.432183 0.294065
vt 0.579792 0.298065
vt 0.001992 0.292276
vt 0.290966 0.366010
vt 0.157325 0.374542
vt 0.423704 0.372231
vt 0.555651 0.403671
vt 0.019914 0.400679
vt 0.290581 0.436392
vt 0.181239 0.450318
vt 0.398708 0.447391
vt 0.494183 0.492610
vt 0.079440 0.496524
vt 0.290309 0.507918
vt 0.223765 0.522035
vt 0.356510 0.518126
vt 0.404273 0.554885
vt 0.174988 0.564247
vt 0.288372 0.001981
vt 0.293412 0.588358
vt 0.139870 0.612072
vt 0.210946 0.597935
vt 0.282022 0.612072
vt 0.342278 0.652334
vt 0.382539 0.712589
vt 0.396677 0.783665
vt 0.382539 0.854742
vt 0.342278 0.914997
vt 0.282022 0.955258
vt 0.210946 0.969396
vt 0.139870 0.955258
vt 0.079614 0.914997
vt 0.039353 0.854742
vt 0.025215 0.783666
vt 0.039353 0.712589
vt 0.079614 0.652334
vt 0.132028 0.593140
vt 0.210946 0.577442
vt 0.289864 0.593140
vt 0.356768 0.637843
vt 0.401472 0.704747
vt 0.417170 0.783666
vt 0.401472 0.862584
vt 0.356768 0.929488
vt 0.289864 0.974191
vt 0.210946 0.989889
vt 0.132028 0.974191
vt 0.065124 0.929488
vt 0.020420 0.862584
vt 0.004722 0.783666
vt 0.020420 0.704747
vt 0.065124 0.637843
vt 0.131424 0.591683
vt 0.210946 0.575865
vt 0.290468 0.591683
vt 0.357883 0.636729
vt 0.402928 0.704144
vt 0.418746 0.783666
vt 0.402928 0.863187
vt 0.357883 0.930602
vt 0.290468 0.975648
vt 0.210946 0.991466
vt 0.131424 0.975648
vt 0.064009 0.930602
vt 0.018964 0.863187
vt 0.003146 0.783666
vt 0.018964 0.704144
vt 0.064009 0.636729
vt 0.140261 0.613017
vt 0.080337 0.653057
vt 0.040297 0.712980
vt 0.026237 0.783666
vt 0.040297 0.854351
vt 0.080337 0.914275
vt 0.140261 0.954314
vt 0.210946 0.968375
vt 0.281631 0.954314
vt 0.341555 0.914275
vt 0.381595 0.854351
vt 0.395655 0.783665
vt 0.381595 0.712980
vt 0.341555 0.653057
vt 0.281631 0.613017
vt 0.210946 0.598956
vt 0.643240 0.355145
vt 0.560074 0.414665
vt 0.508299 0.498545
vt 0.492702 0.593315
vt 0.513684 0.685665
vt 0.567154 0.763568
vt 0.645442 0.818365
vt 0.742168 0.847155
vt 0.845437 0.826511
vt 0.928602 0.766991
vt 0.980378 0.683111
vt 0.995974 0.588342
vt 0.974993 0.495991
vt 0.921523 0.418088
vt 0.843235 0.363291
vt 0.746508 0.334501
vt 0.405970 0.026808
vt 0.288424 0.003344
vt 0.178320 0.036078
vt 0.089219 0.098496
vt 0.028369 0.187202
vt 0.004493 0.292343
vt 0.022243 0.400236
vt 0.081165 0.495741
vt 0.175814 0.563531
vt 0.293360 0.586995
vt 0.403463 0.554262
vt 0.492565 0.491844
vt 0.553415 0.403139
vt 0.577291 0.297997
vt 0.559542 0.190104
vt 0.500620 0.094599
vn 0.224263 0.810291 -0.541419
vn 0.224263 0.810291 -0.541419
vn 0.224263 0.810291 -0.541419
vn 0.224263 0.810291 -0.541419
vn -0.224263 0.810291 -0.541419
vn -0.224263 0.810291 -0.541419
vn -0.224263 0.810291 -0.541419
vn -0.224263 0.810291 -0.541419
vn -0.541419 0.810291 -0.224263
vn -0.541419 0.810291 -0.224263
vn -0.541420 0.810292 -0.224258
vn -0.541420 0.810292 -0.224258
vn 0.541418 0.810291 -0.224266
vn 0.541418 0.810291 -0.224266
vn 0.541419 0.810291 -0.224263
vn 0.541419 0.810291 -0.224263
vn 0.325634 0.525289 -0.786151
vn 0.325634 0.525289 -0.786151
vn 0.325634 0.525289 -0.786151
vn 0.325634 0.525289 -0.786151
vn -0.325634 0.525289 -0.786151
vn -0.325634 0.525289 -0.786151
vn -0.325634 0.525289 -0.786151
vn -0.325634 0.525289 -0.786151
vn -0.786151 0.525289 -0.325634
vn -0.786151 0.525289 -0.325634
vn -0.786153 0.525290 -0.325629
vn -0.786153 0.525290 -0.325629
vn 0.786152 0.525290 -0.325631
vn 0.786152 0.525290 -0.325631
vn 0.786151 0.525289 -0.325634
vn 0.786151 0.525289 -0.325635
vn 0.376381 0.180745 -0.908663
vn 0.376381 0.180745 -0.908663
vn 0.376381 0.180745 -0.908663
vn 0.376381 0.180745 -0.908663
vn -0.376381 0.180745 -0.908663
vn -0.376381 0.180745 -0.908663
vn -0.376381 0.180745 -0.908663
vn -0.376381 0.180745 -0.908663
vn -0.908663 0.180745 -0.376381
vn -0.908663 0.180745 -0.376381
vn -0.908664 0.180745 -0.376380
vn -0.908664 0.180745 -0.376380
vn 0.908665 0.180745 -0.376375
vn 0.908665 0.180745 -0.376375
vn 0.908663 0.180745 -0.376381
vn 0.908663 0.180745 -0.376381
vn 0.376381 -0.180745 -0.908663
vn 0.376381 -0.180745 -0.908663
vn 0.376381 -0.180745 -0.908663
vn 0.376381 -0.180745 -0.908663
vn -0.376381 -0.180745 -0.908663
vn -0.376381 -0.180745 -0.908663
vn -0.376381 -0.180745 -0.908663
vn -0.376381 -0.180745 -0.908663
vn -0.908663 -0.180745 -0.376381
vn -0.908663 -0.180745 -0.376381
vn -0.908664 -0.180745 -0.376380
vn -0.908664 -0.180745 -0.376380
vn 0.908665 -0.180745 -0.376375
vn 0.908665 -0.180745 -0.376375
vn 0.908663 -0.180745 -0.376381
vn 0.908663 -0.180745 -0.376381
vn 0.325634 -0.525289 -0.786151
vn 0.325634 -0.525289 -0.786151
vn 0.325634 -0.525289 -0.786151
vn 0.325634 -0.525289 -0.786151
vn -0.325634 -0.525289 -0.786151
vn -0.325634 -0.525289 -0.786151
vn -0.325634 -0.525289 -0.786151
vn -0.325634 -0.525289 -0.786151
vn -0.786151 -0.525289 -0.325634
vn -0.786151 -0.525289 -0.325634
vn -0.786153 -0.525290 -0.325629
vn -0.786153 -0.525290 -0.325629
vn 0.786152 -0.525290 -0.325632
vn 0.786152 -0.525290 -0.325632
vn 0.786151 -0.525289 -0.325635
vn 0.786151 -0.525289 -0.325634
vn 0.224263 -0.810291 -0.541419
vn 0.224263 -0.810291 -0.541419
vn 0.224263 -0.810291 -0.541419
vn 0.224263 -0.810291 -0.541419
vn -0.224263 -0.810291 -0.541419
vn -0.224263 -0.810291 -0.541419
vn -0.224263 -0.810291 -0.541419
vn -0.224263 -0.810291 -0.541419
vn -0.541419 -0.810291 -0.224263
vn -0.541419 -0.810291 -0.224263
vn -0.541420 -0.810293 -0.224252
vn -0.541420 -0.810293 -0.224252
vn 0.541419 -0.810292 -0.224259
vn 0.541419 -0.810292 -0.224259
vn 0.541419 -0.810291 -0.224263
vn 0.541419 -0.810291 -0.224263
vn 0.138628 0.980675 -0.138054
vn 0.137995 0.980778 -0.137957
vn 0.192290 0.970408 -0.146057
vn 0.192290 0.970408 -0.146057
vn -0.137995 0.980778 -0.137957
vn -0.138628 0.980675 -0.138053
vn -0.192290 0.970408 -0.146061
vn -0.192290 0.970408 -0.146061
vn 0.192290 -0.970408 -0.146061
vn 0.137995 -0.980778 -0.137957
vn 0.138628 -0.980675 -0.138054
vn 0.192290 -0.970408 -0.146061
vn -0.192290 -0.970408 -0.146061
vn -0.192290 -0.970408 -0.146061
vn -0.138628 -0.980675 -0.138053
vn -0.137995 -0.980778 -0.137957
vn -0.224263 -0.810291 0.541419
vn -0.224263 -0.810291 0.541419
vn -0.224263 -0.810291 0.541419
vn -0.224263 -0.810291 0.541419
vn 0.224263 -0.810291 0.541419
vn 0.224263 -0.810291 0.541419
vn 0.224263 -0.810291 0.541419
vn 0.224263 -0.810291 0.541419
vn 0.541419 -0.810291 0.224263
vn 0.541419 -0.810291 0.224263
vn 0.541418 -0.810290 0.224270
vn 0.541418 -0.810290 0.224270
vn -0.541419 -0.810291 0.224263
vn -0.541419 -0.810291 0.224263
vn -0.541419 -0.810291 0.224263
vn -0.541419 -0.810291 0.224263
vn -0.325634 -0.525289 0.786151
vn -0.325634 -0.525289 0.786151
vn -0.325634 -0.525289 0.786151
vn -0.325634 -0.525289 0.786151
vn 0.325634 -0.525289 0.786151
vn 0.325634 -0.525289 0.786151
vn 0.325634 -0.525289 0.786151
vn 0.325634 -0.525289 0.786151
vn 0.786151 -0.525289 0.325634
vn 0.786151 -0.525289 0.325634
vn 0.786150 -0.525288 0.325638
vn 0.786150 -0.525288 0.325638
vn -0.786149 -0.525288 0.325642
vn -0.786151 -0.525289 0.325635
vn -0.786151 -0.525289 0.325635
vn -0.786149 -0.525288 0.325642
vn -0.376380 -0.180744 0.908663
vn -0.376380 -0.180744 0.908664
vn -0.376380 -0.180744 0.908663
vn -0.376380 -0.180744 0.908663
vn 0.376380 -0.180744 0.908664
vn 0.376380 -0.180744 0.908663
vn 0.376380 -0.180744 0.908663
vn 0.376380 -0.180744 0.908663
vn 0.908664 -0.180744 0.376380
vn 0.908664 -0.180744 0.376380
vn 0.908663 -0.180744 0.376382
vn 0.908663 -0.180744 0.376382
vn -0.908659 -0.180744 0.376391
vn -0.908663 -0.180744 0.376381
vn -0.908663 -0.180744 0.376381
vn -0.908659 -0.180744 0.376391
vn -0.376380 0.180744 0.908663
vn -0.376380 0.180744 0.908663
vn -0.376380 0.180744 0.908664
vn -0.376380 0.180744 0.908663
vn 0.376380 0.180744 0.908663
vn 0.376380 0.180744 0.908663
vn 0.376380 0.180744 0.908663
vn 0.376380 0.180745 0.908664
vn 0.908664 0.180744 0.376380
vn 0.908664 0.180744 0.376380
vn 0.908663 0.180744 0.376382
vn 0.908663 0.180744 0.376382
vn -0.908659 0.180744 0.376391
vn -0.908663 0.180744 0.376381
vn -0.908663 0.180744 0.376381
vn -0.908659 0.180744 0.376391
vn -0.325634 0.525289 0.786151
vn -0.325634 0.525289 0.786151
vn -0.325634 0.525289 0.786151
vn -0.325634 0.525289 0.786151
vn 0.325634 0.525289 0.786151
vn 0.325634 0.525289 0.786151
vn 0.325634 0.525289 0.786151
vn 0.325634 0.525289 0.786151
vn 0.786151 0.525289 0.325634
vn 0.786151 0.525289 0.325634
vn 0.786150 0.525288 0.325638
vn 0.786150 0.525288 0.325638
vn -0.786149 0.525288 0.325642
vn -0.786151 0.525289 0.325635
vn -0.786151 0.525289 0.325635
vn -0.786149 0.525288 0.325642
vn -0.224263 0.810291 0.541419
vn -0.224263 0.810291 0.541419
vn -0.224263 0.810291 0.541419
vn -0.224263 0.810291 0.541419
vn 0.224263 0.810291 0.541419
vn 0.224263 0.810291 0.541419
vn 0.224263 0.810291 0.541419
vn 0.224263 0.810291 0.541419
vn 0.541419 0.810291 0.224263
vn 0.541419 0.810291 0.224263
vn 0.541418 0.810290 0.224268
vn 0.541418 0.810290 0.224269
vn -0.541419 0.810291 0.224263
vn -0.541419 0.810291 0.224263
vn -0.541419 0.810291 0.224263
vn -0.541419 0.810291 0.224263
vn 0.192232 -0.970419 0.146062
vn 0.192232 -0.970419 0.146062
vn 0.138681 -0.980666 0.138062
vn 0.137997 -0.980778 0.137957
vn -0.137997 -0.980778 0.137957
vn -0.138681 -0.980666 0.138062
vn -0.192232 -0.970419 0.146062
vn -0.192232 -0.970419 0.146062
vn 0.192232 0.970419 0.146062
vn 0.137997 0.980778 0.137957
vn 0.138681 0.980666 0.138062
vn 0.192232 0.970419 0.146062
vn -0.192232 0.970419 0.146062
vn -0.192232 0.970419 0.146062
vn -0.138681 0.980666 0.138062
vn -0.137997 0.980778 0.137957
vn 0.000000 -0.000000 -1.000000
vn 0.000000 -0.000000 -1.000000
vn 0.000000 -0.000000 -1.000000
vn 0.000000 -0.000000 -1.000000
vn -0.000000 -0.000000 -1.000000
vn -0.000000 -0.000000 -1.000000
vn -0.000000 -0.000000 -1.000000
vn -0.000000 -0.000000 -1.000000
vn 0.000000 -0.000000 -1.000000
vn 0.000000 -0.000000 -1.000000
vn 0.000000 -0.000000 -1.000000
vn 0.000000 -0.000000 -1.000000
vn -0.000000 -0.000000 -1.000000
vn -0.000000 -0.000000 -1.000000
vn -0.000000 -0.000000 -1.000000
vn -0.000000 -0.000000 -1.000000
vn 0.000000 -0.000000 -1.000000
vn 0.000000 -0.000000 -1.000000
vn 0.000000 -0.000000 -1.000000
vn 0.000000 -0.000000 -1.000000
vn -0.000000 -0.000000 -1.000000
vn -0.000000 -0.000000 -1.000000
vn -0.000000 -0.000000 -1.000000
vn -0.000000 -0.000000 -1.000000
vn 0.000000 0.000000 -1.000000
vn 0.000000 0.000000 -1.000000
vn 0.000000 0.000000 -1.000000
vn 0.000000 0.000000 -1.000000
vn -0.000000 0.000000 -1.000000
vn -0.000000 0.000000 -1.000000
vn -0.000000 0.000000 -1.000000
vn -0.000000 0.000000 -1.000000
vn 0.000000 0.000000 -1.000000
vn 0.000000 0.000000 -1.000000
vn 0.000000 0.000000 -1.000000
vn 0.000000 0.000000 -1.000000
vn -0.000000 0.000000 -1.000000
vn -0.000000 0.000000 -1.000000
vn -0.000000 0.000000 -1.000000
vn -0.000000 0.000000 -1.000000
vn 0.000000 0.000000 -1.000000
vn 0.000000 0.000000 -1.000000
vn 0.000000 0.000000 -1.000000
vn 0.000000 0.000000 -1.000000
vn -0.000000 0.000000 -1.000000
vn -0.000000 0.000000 -1.000000
vn -0.000000 0.000000 -1.000000
vn -0.000000 0.000000 -1.000000
vn 0.000000 -0.000000 -1.000000
vn 0.000000 -0.000000 -1.000000
vn 0.000000 -0.000000 -1.000000
vn 0.000000 -0.000000 -1.000000
vn -0.000000 -0.000000 -1.000000
vn -0.000000 -0.000000 -1.000000
vn -0.000000 -0.000000 -1.000000
vn -0.000000 -0.000000 -1.000000
vn 0.000000 0.000000 -1.000000
vn 0.000000 0.000000 -1.000000
vn 0.000000 0.000000 -1.000000
vn 0.000000 0.000000 -1.000000
vn -0.000000 0.000000 -1.000000
vn -0.000000 0.000000 -1.000000
vn -0.000000 0.000000 -1.000000
vn -0.000000 0.000000 -1.000000
vn 0.000000 -0.000000 -1.000000
vn 0.000000 -0.000000 -1.000000
vn -0.000000 -0.000000 -1.000000
vn -0.000000 -0.000000 -1.000000
vn -0.000000 -0.000000 -1.000000
vn -0.000000 -0.000000 -1.000000
vn -0.000000 -0.000000 -1.000000
vn -0.000000 -0.000000 -1.000000
vn -0.000000 -0.000000 -1.000000
vn -0.000000 -0.000000 -1.000000
vn -0.000000 0.000000 -1.000000
vn -0.000000 0.000000 -1.000000
vn -0.000000 0.000000 -1.000000
vn -0.000000 0.000000 -1.000000
vn -0.000000 0.000000 -1.000000
vn -0.000000 0.000000 -1.000000
vn -0.000000 0.000000 -1.000000
vn -0.000000 0.000000 -1.000000
vn 0.000000 0.000000 -1.000000
vn 0.000000 0.000000 -1.000000
vn 0.000000 0.000000 -1.000000
vn 0.000000 0.000000 -1.000000
vn 0.000000 0.000000 -1.000000
vn 0.000000 0.000000 -1.000000
vn 0.000000 0.000000 -1.000000
vn 0.000000 0.000000 -1.000000
vn 0.000000 -0.000000 -1.000000
vn 0.000000 -0.000000 -1.000000
vn 0.000000 -0.000000 -1.000000
vn 0.000000 -0.000000 -1.000000
vn 0.000000 -0.000000 -1.000000
vn 0.000000 -0.000000 -1.000000
vn 0.000000 -0.000000 -1.000000
vn 0.000000 -0.000000 -1.000000
vn -0.000000 -0.000000 -1.000000
vn -0.000000 -0.000000 -1.000000
vn -0.000000 -0.000000 -1.000000
vn -0.000000 -0.000000 -1.000000
vn -0.000000 -0.000000 -1.000000
vn -0.000000 -0.000000 -1.000000
vn -0.000000 -0.000000 -1.000000
vn -0.000000 -0.000000 -1.000000
vn -0.000000 0.000000 -1.000000
vn -0.000000 0.000000 -1.000000
vn -0.000000 0.000000 -1.000000
vn -0.000000 0.000000 -1.000000
vn -0.000000 0.000000 -1.000000
vn -0.000000 0.000000 -1.000000
vn -0.000000 0.000000 -1.000000
vn -0.000000 0.000000 -1.000000
vn 0.000000 0.000000 -1.000000
vn 0.000000 0.000000 -1.000000
vn 0.000000 0.000000 -1.000000
vn 0.000000 0.000000 -1.000000
vn 0.000000 0.000000 -1.000000
vn 0.000000 0.000000 -1.000000
vn 0.000000 0.000000 -1.000000
vn 0.000000 0.000000 -1.000000
vn 0.000000 -0.000000 -1.000000
vn 0.000000 -0.000000 -1.000000
vn 0.000000 -0.000000 -1.000000
vn 0.000000 -0.000000 -1.000000
vn 0.000000 -0.000000 -1.000000
vn 0.000000 -0.000000 -1.000000
vn 0.000000 -0.000000 -1.000000
vn 0.000000 -0.000000 -1.000000
vn -0.000000 -0.000000 -1.000000
vn -0.000000 -0.000000 -1.000000
vn -0.000000 -0.000000 -1.000000
vn -0.000000 -0.000000 -1.000000
vn -0.000000 -0.000000 -1.000000
vn -0.000000 -0.000000 -1.000000
vn -0.000000 -0.000000 -1.000000
vn -0.000000 -0.000000 -1.000000
vn -0.000000 0.000000 -1.000000
vn -0.000000 0.000000 -1.000000
vn -0.000000 0.000000 -1.000000
vn -0.000000 0.000000 -1.000000
vn -0.000000 0.000000 -1.000000
vn -0.000000 0.000000 -1.000000
vn -0.000000 0.000000 -1.000000
vn -0.000000 0.000000 -1.000000
vn 0.000000 0.000000 -1.000000
vn 0.000000 0.000000 -1.000000
vn 0.000000 0.000000 -1.000000
vn 0.000000 0.000000 -1.000000
vn 0.000000 0.000000 -1.000000
vn 0.000000 0.000000 -1.000000
vn 0.000000 0.000000 -1.000000
vn 0.000000 0.000000 -1.000000
vn 0.000000 -0.000000 -1.000000
vn 0.000000 -0.000000 -1.000000
vn 0.000000 -0.000000 -1.000000
vn 0.000000 -0.000000 -1.000000
vn 0.000000 -0.000000 -1.000000
vn 0.000000 -0.000000 -1.000000
vn 0.000000 -0.000000 -1.000000
vn 0.000000 -0.000000 -1.000000
vn 0.000000 -0.000000 -1.000000
vn 0.000000 -0.000000 -1.000000
vn 0.000000 -0.000000 -1.000000
vn 0.000000 -0.000000 -1.000000
vn 0.000000 0.000000 -1.000000
vn 0.000000 0.000000 -1.000000
vn 0.000000 0.000000 -1.000000
vn 0.000000 0.000000 -1.000000
vn 0.000000 0.000000 -1.000000
vn 0.000000 0.000000 -1.000000
vn 0.000000 0.000000 -1.000000
vn 0.000000 0.000000 -1.000000
vn -0.000000 0.000000 -1.000000
vn -0.000000 0.000000 -1.000000
vn -0.000000 0.000000 -1.000000
vn -0.000000 0.000000 -1.000000
vn -0.000000 0.000000 -1.000000
vn -0.000000 0.000000 -1.000000
vn -0.000000 0.000000 -1.000000
vn -0.000000 0.000000 -1.000000
vn -0.000000 -0.000000 -1.000000
vn -0.000000 -0.000000 -1.000000
vn -0.000000 -0.000000 -1.000000
vn -0.000000 -0.000000 -1.000000
vn -0.000000 -0.000000 -1.000000
vn -0.000000 -0.000000 -1.000000
vn -0.000000 -0.000000 -1.000000
vn -0.000000 -0.000000 -1.000000
vn 0.000000 -0.000000 -1.000000
vn 0.000000 -0.000000 -1.000000
vn -0.541419 0.810291 -0.224263
vn -0.541419 0.810291 -0.224263
vn -0.786151 0.525289 -0.325634
vn -0.786151 0.525289 -0.325634
vn -0.908663 0.180745 -0.376381
vn -0.908663 0.180745 -0.376381
vn -0.908663 -0.180745 -0.376381
vn -0.908663 -0.180745 -0.376381
vn -0.786151 -0.525289 -0.325635
vn -0.786151 -0.525289 -0.325635
vn -0.541419 -0.810291 -0.224263
vn -0.541419 -0.810291 -0.224263
vn -0.136888 -0.980957 -0.137788
vn -0.136888 -0.980957 -0.137788
vn 0.136888 -0.980957 -0.137788
vn 0.136888 -0.980957 -0.137788
vn 0.541419 -0.810291 -0.224263
vn 0.541419 -0.810291 -0.224263
vn 0.786151 -0.525289 -0.325635
vn 0.786151 -0.525289 -0.325635
vn 0.908663 -0.180745 -0.376381
vn 0.908663 -0.180745 -0.376381
vn 0.908663 0.180745 -0.376381
vn 0.908663 0.180745 -0.376381
vn 0.786151 0.525289 -0.325635
vn 0.786151 0.525289 -0.325635
vn 0.541419 0.810291 -0.224263
vn 0.541419 0.810291 -0.224263
vn 0.136888 0.980957 -0.137788
vn 0.136888 0.980957 -0.137788
vn -0.136888 0.980957 -0.137788
vn -0.136888 0.980957 -0.137788
vn 0.136802 -0.980971 0.137774
vn 0.136802 -0.980971 0.137774
vn -0.136802 -0.980971 0.137774
vn -0.136802 -0.980971 0.137774
vn -0.541419 -0.810291 0.224263
vn -0.541419 -0.810291 0.224263
vn -0.786151 -0.525289 0.325634
vn -0.786151 -0.525289 0.325634
vn -0.908664 -0.180744 0.376381
vn -0.908663 -0.180744 0.376381
vn -0.908663 0.180744 0.376381
vn -0.908664 0.180744 0.376381
vn -0.786151 0.525289 0.325634
vn -0.786151 0.525289 0.325634
vn -0.541419 0.810291 0.224263
vn -0.541419 0.810291 0.224263
vn -0.136802 0.980971 0.137774
vn -0.136802 0.980971 0.137774
vn 0.136802 0.980971 0.137774
vn 0.136802 0.980971 0.137774
vn 0.541419 0.810291 0.224263
vn 0.541419 0.810291 0.224263
vn 0.786151 0.525289 0.325634
vn 0.786151 0.525289 0.325634
vn 0.908664 0.180744 0.376380
vn 0.908664 0.180744 0.376380
vn 0.908664 -0.180744 0.376380
vn 0.908664 -0.180744 0.376380
vn 0.786151 -0.525289 0.325634
vn 0.786151 -0.525289 0.325634
vn 0.541419 -0.810291 0.224263
vn 0.541419 -0.810291 0.224263
s off
g membrane
usemtl phong1SG
f 38/33/1 41/34/2 40/35/3 39/36/4
f 39/36/5 40/35/6 43/37/7 42/38/8
s 1
f 139/171/9 140/172/10 45/39/11 44/40/12
s 2
f 46/41/13 47/42/14 152/184/15 153/185/16
s off
f 41/34/17 49/43/18 48/44/19 40/35/20
f 40/35/21 48/44/22 50/45/23 43/37/24
s 3
f 140/172/25 141/173/26 51/46/27 45/39/28
s 4
f 47/42/29 52/47/30 151/183/31 152/184/32
s off
f 49/43/33 54/48/34 53/49/35 48/44/36
f 48/44/37 53/49/38 55/50/39 50/45/40
s 5
f 141/173/41 142/174/42 56/51/43 51/46/44
s 6
f 52/47/45 57/52/46 150/182/47 151/183/48
s off
f 54/48/49 59/53/50 58/54/51 53/49/52
f 53/49/53 58/54/54 60/55/55 55/50/56
s 7
f 142/174/57 143/175/58 61/56/59 56/51/60
s 8
f 57/52/61 62/57/62 149/181/63 150/182/64
s off
f 59/53/65 64/58/66 63/59/67 58/54/68
f 58/54/69 63/59/70 65/60/71 60/55/72
s 9
f 143/175/73 144/176/74 66/61/75 61/56/76
s 10
f 62/57/77 67/62/78 148/180/79 149/181/80
s off
f 64/58/81 69/63/82 68/64/83 63/59/84
f 63/59/85 68/64/86 70/65/87 65/60/88
s 11
f 144/176/89 145/177/90 71/66/91 66/61/92
s 12
f 67/62/93 72/67/94 147/179/95 148/180/96
s 13
f 153/185/97 154/186/98 73/68/99 46/41/100
s 14
f 154/186/101 139/171/102 44/40/103 73/68/104
s 15
f 74/69/105 146/178/106 147/179/107 72/67/108
s 16
f 74/69/109 71/66/110 145/177/111 146/178/112
s off
f 1/70/113 2/71/114 7/72/115 6/73/116
f 2/71/117 3/74/118 8/75/119 7/72/120
s 17
f 170/202/121 155/187/122 4/76/123 9/77/124
s 18
f 5/78/125 157/189/126 158/190/127 10/79/128
s off
f 6/73/129 7/72/130 12/80/131 11/81/132
f 7/72/133 8/75/134 13/82/135 12/80/136
s 19
f 169/201/137 170/202/138 9/77/139 14/83/140
s 20
f 10/79/141 158/190/142 159/191/143 15/84/144
s off
f 11/81/145 12/80/146 17/85/147 16/86/148
f 12/80/149 13/82/150 18/87/151 17/85/152
s 21
f 168/200/153 169/201/154 14/83/155 19/88/156
s 22
f 15/84/157 159/191/158 160/192/159 20/89/160
s off
f 16/86/161 17/85/162 22/90/163 21/91/164
f 17/85/165 18/87/166 23/92/167 22/90/168
s 23
f 167/199/169 168/200/170 19/88/171 24/93/172
s 24
f 20/89/173 160/192/174 161/193/175 25/94/176
s off
f 21/91/177 22/90/178 27/95/179 26/96/180
f 22/90/181 23/92/182 28/97/183 27/95/184
s 25
f 166/198/185 167/199/186 24/93/187 29/98/188
s 26
f 25/94/189 161/193/190 162/194/191 30/99/192
s off
f 26/96/193 27/95/194 32/100/195 31/101/196
f 27/95/197 28/97/198 33/102/199 32/100/200
s 27
f 165/197/201 166/198/202 29/98/203 34/103/204
s 28
f 30/99/205 162/194/206 163/195/207 35/104/208
s 29
f 36/105/209 4/76/210 155/187/211 156/188/212
s 30
f 156/188/213 157/189/214 5/78/215 36/105/216
s 31
f 37/106/217 164/196/218 165/197/219 34/103/220
s 32
f 37/106/221 35/104/222 163/195/223 164/196/224
s 33
f 90/122/225 75/107/226 123/155/227 124/156/228
s 34
f 77/109/229 78/110/230 136/168/231 137/169/232
s 35
f 89/121/233 90/122/234 124/156/235 125/157/236
s 36
f 78/110/237 79/111/238 135/167/239 136/168/240
s 37
f 88/120/241 89/121/242 125/157/243 126/158/244
s 38
f 79/111/245 80/112/246 134/166/247 135/167/248
s 39
f 87/119/249 88/120/250 126/158/251 127/159/252
s 40
f 80/112/253 81/113/254 133/165/255 134/166/256
s 41
f 86/118/257 87/119/258 127/159/259 128/160/260
s 42
f 81/113/261 82/114/262 132/164/263 133/165/264
s 43
f 85/117/265 86/118/266 128/160/267 129/161/268
s 44
f 82/114/269 83/115/270 131/163/271 132/164/272
s 45
f 75/107/273 76/108/274 138/170/275 123/155/276
s 46
f 76/108/277 77/109/278 137/169/279 138/170/280
s 47
f 84/116/281 85/117/282 129/161/283 130/162/284
s 48
f 83/115/285 84/116/286 130/162/287 131/163/288
s 45
f 91/123/289 92/124/290 76/108/274 75/107/273
s 46
f 92/124/291 93/125/292 77/109/278 76/108/277
s 34
f 93/125/293 94/126/294 78/110/230 77/109/229
s 36
f 94/126/295 95/127/296 79/111/238 78/110/237
s 38
f 95/127/297 96/128/298 80/112/246 79/111/245
s 40
f 96/128/299 97/129/300 81/113/254 80/112/253
s 42
f 97/129/301 98/130/302 82/114/262 81/113/261
s 44
f 98/130/303 99/131/304 83/115/270 82/114/269
s 48
f 99/131/305 100/132/306 84/116/286 83/115/285
s 47
f 100/132/307 101/133/308 85/117/282 84/116/281
s 43
f 101/133/309 102/134/310 86/118/266 85/117/265
s 41
f 102/134/311 103/135/312 87/119/258 86/118/257
s 39
f 103/135/313 104/136/314 88/120/250 87/119/249
s 37
f 104/136/315 105/137/316 89/121/242 88/120/241
s 35
f 105/137/317 106/138/318 90/122/234 89/121/233
s 33
f 106/138/319 91/123/320 75/107/226 90/122/225
s 45
f 107/139/321 108/140/322 92/124/290 91/123/289
s 46
f 108/140/323 109/141/324 93/125/292 92/124/291
s 34
f 109/141/325 110/142/326 94/126/294 93/125/293
s 36
f 110/142/327 111/143/328 95/127/296 94/126/295
s 38
f 111/143/329 112/144/330 96/128/298 95/127/297
s 40
f 112/144/331 113/145/332 97/129/300 96/128/299
s 42
f 113/145/333 114/146/334 98/130/302 97/129/301
s 44
f 114/146/335 115/147/336 99/131/304 98/130/303
s 48
f 115/147/337 116/148/338 100/132/306 99/131/305
s 47
f 116/148/339 117/149/340 101/133/308 100/132/307
s 43
f 117/149/341 118/150/342 102/134/310 101/133/309
s 41
f 118/150/343 119/151/344 103/135/312 102/134/311
s 39
f 119/151/345 120/152/346 104/136/314 103/135/313
s 37
f 120/152/347 121/153/348 105/137/316 104/136/315
s 35
f 121/153/349 122/154/350 106/138/318 105/137/317
s 33
f 122/154/351 107/139/352 91/123/320 106/138/319
s 45
f 36/29/353 108/140/322 107/139/321 4/1/354
s 46
f 5/8/355 109/141/324 108/140/323 36/29/356
s 34
f 10/5/357 110/142/326 109/141/325 5/8/358
s 36
f 15/11/359 111/143/328 110/142/327 10/5/360
s 38
f 20/15/361 112/144/330 111/143/329 15/11/362
s 40
f 25/19/363 113/145/332 112/144/331 20/15/364
s 42
f 30/23/365 114/146/334 113/145/333 25/19/366
s 44
f 35/27/367 115/147/336 114/146/335 30/23/368
s 48
f 37/32/369 116/148/338 115/147/337 35/27/370
s 47
f 34/26/371 117/149/340 116/148/339 37/32/372
s 43
f 29/22/373 118/150/342 117/149/341 34/26/374
s 41
f 24/18/375 119/151/344 118/150/343 29/22/376
s 39
f 19/14/377 120/152/346 119/151/345 24/18/378
s 37
f 14/10/379 121/153/348 120/152/347 19/14/380
s 35
f 9/4/381 122/154/350 121/153/349 14/10/382
s 33
f 4/1/383 107/139/352 122/154/351 9/4/384
f 124/156/228 123/155/227 44/2/385 45/3/386
s 35
f 125/157/236 124/156/235 45/3/387 51/9/388
s 37
f 126/158/244 125/157/243 51/9/389 56/13/390
s 39
f 127/159/252 126/158/251 56/13/391 61/17/392
s 41
f 128/160/260 127/159/259 61/17/393 66/21/394
s 43
f 129/161/268 128/160/267 66/21/395 71/25/396
s 47
f 130/162/284 129/161/283 71/25/397 74/31/398
s 48
f 131/163/288 130/162/287 74/31/399 72/28/400
s 44
f 132/164/272 131/163/271 72/28/401 67/24/402
s 42
f 133/165/264 132/164/263 67/24/403 62/20/404
s 40
f 134/166/256 133/165/255 62/20/405 57/16/406
s 38
f 135/167/248 134/166/247 57/16/407 52/12/408
s 36
f 136/168/240 135/167/239 52/12/409 47/6/410
s 34
f 137/169/232 136/168/231 47/6/411 46/7/412
s 46
f 138/170/280 137/169/279 46/7/413 73/30/414
s 45
f 123/155/276 138/170/275 73/30/415 44/2/416
s 1
f 42/38/417 43/37/418 140/172/10 139/171/9
s 3
f 43/37/419 50/45/420 141/173/26 140/172/25
s 5
f 50/45/421 55/50/422 142/174/42 141/173/41
s 7
f 55/50/423 60/55/424 143/175/58 142/174/57
s 9
f 60/55/425 65/60/426 144/176/74 143/175/73
s 11
f 65/60/427 70/65/428 145/177/90 144/176/89
s 16
f 146/178/112 145/177/111 70/65/429 68/64/430
s 15
f 147/179/107 146/178/106 68/64/431 69/63/432
s 12
f 148/180/96 147/179/95 69/63/433 64/58/434
s 10
f 149/181/80 148/180/79 64/58/435 59/53/436
s 8
f 150/182/64 149/181/63 59/53/437 54/48/438
s 6
f 151/183/48 150/182/47 54/48/439 49/43/440
s 4
f 152/184/32 151/183/31 49/43/441 41/34/442
s 2
f 153/185/16 152/184/15 41/34/443 38/33/444
s 13
f 38/33/445 39/36/446 154/186/98 153/185/97
s 14
f 42/38/447 139/171/102 154/186/101 39/36/448
s 29
f 156/188/212 155/187/211 3/74/449 2/71/450
s 30
f 1/70/451 157/189/214 156/188/213 2/71/452
s 18
f 158/190/127 157/189/126 1/70/453 6/73/454
s 20
f 159/191/143 158/190/142 6/73/455 11/81/456
s 22
f 160/192/159 159/191/158 11/81/457 16/86/458
s 24
f 161/193/175 160/192/174 16/86/459 21/91/460
s 26
f 162/194/191 161/193/190 21/91/461 26/96/462
s 28
f 163/195/207 162/194/206 26/96/463 31/101/464
s 32
f 164/196/224 163/195/223 31/101/465 32/100/466
s 31
f 165/197/219 164/196/218 32/100/467 33/102/468
s 27
f 28/97/469 166/198/202 165/197/201 33/102/470
s 25
f 23/92/471 167/199/186 166/198/185 28/97/472
s 23
f 18/87/473 168/200/170 167/199/169 23/92/474
s 21
f 13/82/475 169/201/154 168/200/153 18/87/476
s 19
f 8/75/477 170/202/138 169/201/137 13/82/478
s 17
f 3/74/479 155/187/122 170/202/121 8/75/480
