# This file uses centimeters as units for non-parametric coordinates.

mtllib obj_rna_00.mtl
g default
v 0.535355 -0.864645 0.000000
v 0.500000 -0.850000 0.000000
v 0.464645 -0.864645 0.000000
v 0.450000 -0.900000 0.000000
v 0.464645 -0.935355 -0.000000
v 0.500000 -0.950000 -0.000000
v 0.535355 -0.935355 -0.000000
v 0.550000 -0.900000 0.000000
v 0.378553 -0.789645 0.378553
v 0.353553 -0.775000 0.353553
v 0.328553 -0.789645 0.328553
v 0.318198 -0.825000 0.318198
v 0.328553 -0.860355 0.328553
v 0.353553 -0.875000 0.353553
v 0.378553 -0.860355 0.378553
v 0.388909 -0.825000 0.388909
v -0.000000 -0.714645 0.535355
v -0.000000 -0.700000 0.500000
v -0.000000 -0.714645 0.464645
v -0.000000 -0.750000 0.450000
v -0.000000 -0.785355 0.464645
v -0.000000 -0.800000 0.500000
v -0.000000 -0.785355 0.535355
v -0.000000 -0.750000 0.550000
v -0.378553 -0.639645 0.378553
v -0.353553 -0.625000 0.353553
v -0.328553 -0.639645 0.328553
v -0.318198 -0.675000 0.318198
v -0.328553 -0.710355 0.328553
v -0.353553 -0.725000 0.353553
v -0.378553 -0.710355 0.378553
v -0.388909 -0.675000 0.388909
v -0.535355 -0.564645 -0.000000
v -0.500000 -0.550000 -0.000000
v -0.464645 -0.564645 -0.000000
v -0.450000 -0.600000 -0.000000
v -0.464645 -0.635355 -0.000000
v -0.500000 -0.650000 -0.000000
v -0.535355 -0.635355 -0.000000
v -0.550000 -0.600000 -0.000000
v -0.378553 -0.489645 -0.378553
v -0.353553 -0.475000 -0.353553
v -0.328553 -0.489645 -0.328553
v -0.318198 -0.525000 -0.318198
v -0.328553 -0.560355 -0.328553
v -0.353553 -0.575000 -0.353553
v -0.378553 -0.560355 -0.378553
v -0.388909 -0.525000 -0.388909
v 0.000000 -0.414645 -0.535355
v 0.000000 -0.400000 -0.500000
v 0.000000 -0.414645 -0.464645
v 0.000000 -0.450000 -0.450000
v 0.000000 -0.485355 -0.464645
v 0.000000 -0.500000 -0.500000
v 0.000000 -0.485355 -0.535355
v 0.000000 -0.450000 -0.550000
v 0.378553 -0.339645 -0.378553
v 0.353553 -0.325000 -0.353553
v 0.328553 -0.339645 -0.328553
v 0.318198 -0.375000 -0.318198
v 0.328553 -0.410355 -0.328553
v 0.353553 -0.425000 -0.353553
v 0.378553 -0.410355 -0.378553
v 0.388909 -0.375000 -0.388909
v 0.535355 -0.264645 -0.000000
v 0.500000 -0.250000 -0.000000
v 0.464645 -0.264645 -0.000000
v 0.450000 -0.300000 -0.000000
v 0.464645 -0.335355 -0.000000
v 0.500000 -0.350000 -0.000000
v 0.535355 -0.335355 -0.000000
v 0.550000 -0.300000 -0.000000
v 0.378554 -0.189645 0.378553
v 0.353554 -0.175000 0.353553
v 0.328554 -0.189645 0.328553
v 0.318198 -0.225000 0.318198
v 0.328554 -0.260355 0.328553
v 0.353554 -0.275000 0.353553
v 0.378554 -0.260355 0.378553
v 0.388909 -0.225000 0.388909
v 0.000000 -0.114645 0.535355
v 0.000000 -0.100000 0.500000
v 0.000000 -0.114645 0.464645
v 0.000000 -0.150000 0.450000
v 0.000000 -0.185355 0.464645
v 0.000000 -0.200000 0.500000
v 0.000000 -0.185355 0.535355
v 0.000000 -0.150000 0.550000
v -0.378553 -0.039645 0.378554
v -0.353553 -0.025000 0.353554
v -0.328553 -0.039645 0.328553
v -0.318198 -0.075000 0.318198
v -0.328553 -0.110355 0.328553
v -0.353553 -0.125000 0.353554
v -0.378553 -0.110355 0.378554
v -0.388909 -0.075000 0.388909
v -0.535355 0.035355 -0.000000
v -0.500000 0.050000 -0.000000
v -0.464645 0.035355 -0.000000
v -0.450000 -0.000000 -0.000000
v -0.464645 -0.035355 -0.000000
v -0.500000 -0.050000 -0.000000
v -0.535355 -0.035355 -0.000000
v -0.550000 -0.000000 -0.000000
v -0.378553 0.110355 -0.378554
v -0.353553 0.125000 -0.353554
v -0.328553 0.110355 -0.328553
v -0.318198 0.075000 -0.318198
v -0.328553 0.039645 -0.328553
v -0.353553 0.025000 -0.353554
v -0.378553 0.039645 -0.378554
v -0.388909 0.075000 -0.388909
v 0.000000 0.185355 -0.535355
v 0.000000 0.200000 -0.500000
v 0.000000 0.185355 -0.464645
v 0.000000 0.150000 -0.450000
v 0.000000 0.114645 -0.464645
v 0.000000 0.100000 -0.500000
v 0.000000 0.114645 -0.535355
v 0.000000 0.150000 -0.550000
v 0.378554 0.260355 -0.378553
v 0.353554 0.275000 -0.353553
v 0.328554 0.260355 -0.328553
v 0.318198 0.225000 -0.318198
v 0.328554 0.189645 -0.328553
v 0.353554 0.175000 -0.353553
v 0.378554 0.189645 -0.378553
v 0.388909 0.225000 -0.388908
v 0.535355 0.335355 0.000001
v 0.500000 0.350000 0.000001
v 0.464645 0.335355 0.000001
v 0.450000 0.300000 0.000001
v 0.464645 0.264645 0.000001
v 0.500000 0.250000 0.000001
v 0.535355 0.264645 0.000001
v 0.550000 0.300000 0.000001
v 0.378553 0.410355 0.378554
v 0.353553 0.425000 0.353554
v 0.328553 0.410355 0.328554
v 0.318198 0.375000 0.318199
v 0.328553 0.339645 0.328554
v 0.353553 0.325000 0.353554
v 0.378553 0.339645 0.378554
v 0.388908 0.375000 0.388909
v -0.000001 0.485355 0.535355
v -0.000001 0.500000 0.500000
v -0.000001 0.485355 0.464645
v -0.000001 0.450000 0.450000
v -0.000001 0.414645 0.464645
v -0.000001 0.400000 0.500000
v -0.000001 0.414645 0.535355
v -0.000001 0.450000 0.550000
v -0.378554 0.560355 0.378553
v -0.353554 0.575000 0.353553
v -0.328554 0.560355 0.328553
v -0.318199 0.525000 0.318197
v -0.328554 0.489645 0.328553
v -0.353554 0.475000 0.353553
v -0.378554 0.489645 0.378553
v -0.388910 0.525000 0.388908
v -0.535355 0.635355 -0.000001
v -0.500000 0.650000 -0.000001
v -0.464645 0.635355 -0.000001
v -0.450000 0.600000 -0.000001
v -0.464645 0.564645 -0.000001
v -0.500000 0.550000 -0.000001
v -0.535355 0.564645 -0.000001
v -0.550000 0.600000 -0.000001
v -0.378552 0.710355 -0.378554
v -0.353552 0.725000 -0.353554
v -0.328552 0.710355 -0.328554
v -0.318197 0.675000 -0.318199
v -0.328552 0.639645 -0.328554
v -0.353552 0.625000 -0.353554
v -0.378552 0.639645 -0.378554
v -0.388908 0.675000 -0.388910
v 0.000002 0.785355 -0.535355
v 0.000002 0.800000 -0.500000
v 0.000001 0.785355 -0.464645
v 0.000001 0.750000 -0.450000
v 0.000001 0.714644 -0.464645
v 0.000002 0.700000 -0.500000
v 0.000002 0.714644 -0.535355
v 0.000002 0.750000 -0.550000
v 0.378555 0.860355 -0.378552
v 0.353555 0.875000 -0.353552
v 0.328555 0.860355 -0.328552
v 0.318199 0.825000 -0.318197
v 0.328555 0.789644 -0.328552
v 0.353555 0.775000 -0.353552
v 0.378555 0.789644 -0.378552
v 0.388910 0.825000 -0.388907
v 0.535355 0.935355 0.000002
v 0.500000 0.950000 0.000002
v 0.464645 0.935355 0.000002
v 0.450000 0.900000 0.000002
v 0.464645 0.864644 0.000002
v 0.500000 0.850000 0.000002
v 0.535355 0.864644 0.000002
v 0.550000 0.900000 0.000002
v 0.500000 -0.900000 0.000000
v 0.500000 0.900000 0.000002
v 0.530923 0.933235 -0.010699
v 0.495860 0.947880 -0.009992
v 0.460798 0.933235 -0.009286
v 0.446274 0.897880 -0.008993
v 0.460798 0.862524 -0.009286
v 0.495860 0.847880 -0.009992
v 0.530923 0.862524 -0.010699
v 0.545446 0.897880 -0.010992
v 0.529917 -0.862043 0.013130
v 0.494921 -0.847399 0.012263
v 0.459924 -0.862043 0.011396
v 0.445429 -0.897399 0.011036
v 0.459924 -0.932754 0.011396
v 0.494921 -0.947399 0.012263
v 0.529917 -0.932754 0.013130
v 0.544413 -0.897399 0.013489
v 0.532835 -0.863439 0.006085
v 0.497646 -0.848794 0.005683
v 0.462457 -0.863439 0.005282
v 0.447881 -0.898794 0.005115
v 0.462457 -0.934150 0.005282
v 0.497646 -0.948794 0.005683
v 0.532835 -0.934150 0.006085
v 0.547410 -0.898794 0.006252
v 0.533283 0.934364 -0.005001
v 0.547871 0.899009 -0.005138
v 0.533283 0.863653 -0.005001
v 0.498065 0.849009 -0.004670
v 0.462846 0.863653 -0.004340
v 0.448258 0.899009 -0.004203
v 0.462846 0.934364 -0.004340
v 0.498065 0.949009 -0.004670
vt 0.249025 0.880553
vt 0.256890 0.861567
vt 0.249025 0.842580
vt 0.230039 0.834716
vt 0.211052 0.842580
vt 0.203188 0.861567
vt 0.211052 0.880553
vt 0.230039 0.888418
vt 0.005119 0.011289
vt 0.024056 0.020388
vt 0.043393 0.026230
vt 0.063237 0.025182
vt 0.082107 0.017887
vt 0.100603 0.008504
vt 0.120319 0.002137
vt 0.141277 0.001773
vt 0.161428 0.007450
vt 0.002570 0.227289
vt 0.022045 0.229140
vt 0.041572 0.227564
vt 0.062349 0.223375
vt 0.083191 0.218949
vt 0.102907 0.216912
vt 0.122250 0.218301
vt 0.142624 0.221332
vt 0.163045 0.224246
vt 0.002973 0.431259
vt 0.022257 0.432862
vt 0.041576 0.431073
vt 0.061942 0.426730
vt 0.082318 0.422387
vt 0.101659 0.420601
vt 0.120982 0.422175
vt 0.141428 0.425343
vt 0.161877 0.428505
vt 0.001992 0.635283
vt 0.021344 0.636625
vt 0.041054 0.634550
vt 0.061876 0.630083
vt 0.082631 0.625847
vt 0.102152 0.624239
vt 0.121654 0.626027
vt 0.142099 0.629515
vt 0.162446 0.633113
vt 0.174125 0.011583
vt 0.193062 0.020683
vt 0.212399 0.026526
vt 0.232242 0.025477
vt 0.251112 0.018182
vt 0.269609 0.008800
vt 0.289325 0.002433
vt 0.310282 0.002069
vt 0.161821 0.849988
vt 0.171573 0.227584
vt 0.191049 0.229436
vt 0.210575 0.227859
vt 0.231353 0.223670
vt 0.252195 0.219244
vt 0.271910 0.217208
vt 0.291254 0.218597
vt 0.311628 0.221628
vt 0.332049 0.224541
vt 0.171976 0.431554
vt 0.191260 0.433157
vt 0.210579 0.431368
vt 0.230946 0.427026
vt 0.251321 0.422683
vt 0.270662 0.420897
vt 0.289985 0.422470
vt 0.310432 0.425638
vt 0.330880 0.428800
vt 0.170996 0.635579
vt 0.190349 0.636921
vt 0.210058 0.634846
vt 0.230880 0.630378
vt 0.251635 0.626143
vt 0.271156 0.624534
vt 0.290659 0.626323
vt 0.311103 0.629810
vt 0.331451 0.633408
vt 0.339106 0.013112
vt 0.358043 0.022212
vt 0.377379 0.028055
vt 0.397223 0.027006
vt 0.416093 0.019712
vt 0.434590 0.010329
vt 0.454306 0.003963
vt 0.475263 0.003598
vt 0.330826 0.850283
vt 0.336554 0.229113
vt 0.356030 0.230965
vt 0.375556 0.229388
vt 0.396333 0.225199
vt 0.417176 0.220774
vt 0.436891 0.218737
vt 0.456235 0.220126
vt 0.476608 0.223157
vt 0.497030 0.226070
vt 0.336957 0.433083
vt 0.356241 0.434687
vt 0.375560 0.432897
vt 0.395927 0.428555
vt 0.416302 0.424212
vt 0.435643 0.422426
vt 0.454966 0.424000
vt 0.475413 0.427167
vt 0.495861 0.430329
vt 0.335977 0.637108
vt 0.355330 0.638450
vt 0.375039 0.636375
vt 0.395861 0.631908
vt 0.416616 0.627672
vt 0.436137 0.626063
vt 0.455640 0.627852
vt 0.476084 0.631339
vt 0.496431 0.634937
vt 0.506099 0.014159
vt 0.525036 0.023259
vt 0.544372 0.029102
vt 0.564216 0.028053
vt 0.583086 0.020758
vt 0.601582 0.011376
vt 0.621299 0.005009
vt 0.642256 0.004645
vt 0.495807 0.851813
vt 0.503547 0.230160
vt 0.523022 0.232012
vt 0.542549 0.230435
vt 0.563326 0.226246
vt 0.584169 0.221820
vt 0.603884 0.219784
vt 0.623228 0.221173
vt 0.643601 0.224204
vt 0.664022 0.227117
vt 0.503950 0.434130
vt 0.523234 0.435733
vt 0.542553 0.433944
vt 0.562920 0.429602
vt 0.583295 0.425259
vt 0.602636 0.423473
vt 0.621959 0.425047
vt 0.642406 0.428214
vt 0.662854 0.431376
vt 0.502970 0.638155
vt 0.522323 0.639497
vt 0.542032 0.637422
vt 0.562854 0.632954
vt 0.583609 0.628719
vt 0.603130 0.627110
vt 0.622632 0.628899
vt 0.643077 0.632386
vt 0.663424 0.635984
vt 0.673091 0.014642
vt 0.692028 0.023742
vt 0.711365 0.029585
vt 0.731209 0.028536
vt 0.750078 0.021241
vt 0.768575 0.011859
vt 0.788291 0.005492
vt 0.809249 0.005128
vt 0.662800 0.852860
vt 0.670540 0.230643
vt 0.690015 0.232495
vt 0.709542 0.230918
vt 0.730319 0.226729
vt 0.751162 0.222303
vt 0.770877 0.220267
vt 0.790220 0.221656
vt 0.810594 0.224687
vt 0.831015 0.227600
vt 0.670943 0.434613
vt 0.690227 0.436216
vt 0.709545 0.434427
vt 0.729913 0.430085
vt 0.750288 0.425742
vt 0.769628 0.423956
vt 0.788952 0.425530
vt 0.809398 0.428697
vt 0.829847 0.431859
vt 0.669963 0.638638
vt 0.689315 0.639980
vt 0.709025 0.637905
vt 0.729847 0.633437
vt 0.750602 0.629202
vt 0.770123 0.627593
vt 0.789625 0.629382
vt 0.810069 0.632869
vt 0.830417 0.636467
vt 0.840084 0.012828
vt 0.859021 0.021927
vt 0.878358 0.027770
vt 0.898202 0.026722
vt 0.917071 0.019427
vt 0.935568 0.010045
vt 0.955284 0.003678
vt 0.976241 0.003314
vt 0.829793 0.853343
vt 0.837533 0.228829
vt 0.857008 0.230680
vt 0.876535 0.229103
vt 0.897312 0.224915
vt 0.918154 0.220489
vt 0.937870 0.218453
vt 0.957213 0.219842
vt 0.977587 0.222873
vt 0.998008 0.225786
vt 0.837936 0.432799
vt 0.857220 0.434402
vt 0.876538 0.432613
vt 0.896905 0.428270
vt 0.917280 0.423928
vt 0.936621 0.422141
vt 0.955944 0.423715
vt 0.976391 0.426882
vt 0.996840 0.430045
vt 0.836956 0.636823
vt 0.856308 0.638166
vt 0.876017 0.636091
vt 0.896839 0.631623
vt 0.917595 0.627388
vt 0.937115 0.625779
vt 0.956618 0.627567
vt 0.977062 0.631055
vt 0.997410 0.634653
vt 0.840787 0.852441
vt 0.860501 0.846117
vt 0.878939 0.836809
vt 0.897743 0.829621
vt 0.917544 0.828691
vt 0.936868 0.834631
vt 0.955799 0.843839
vt 0.975813 0.850670
vt 0.996786 0.851528
vt 0.044060 0.842580
vt 0.036195 0.861567
vt 0.044060 0.880553
vt 0.063046 0.888418
vt 0.082033 0.880553
vt 0.089897 0.861567
vt 0.082033 0.842580
vt 0.063046 0.834716
vt 0.230039 0.861567
vt 0.063046 0.861567
vt 0.808820 0.852484
vt 0.673794 0.854255
vt 0.996393 0.008990
vt 0.788806 0.845653
vt 0.769875 0.836446
vt 0.750551 0.830506
vt 0.730751 0.831436
vt 0.711946 0.838623
vt 0.693508 0.847931
vt 0.641828 0.852001
vt 0.506802 0.853772
vt 0.829400 0.010805
vt 0.621813 0.845170
vt 0.602882 0.835963
vt 0.583558 0.830023
vt 0.563758 0.830953
vt 0.544953 0.838140
vt 0.526516 0.847448
vt 0.474835 0.850954
vt 0.339809 0.852725
vt 0.662407 0.010322
vt 0.454820 0.844123
vt 0.435889 0.834916
vt 0.416566 0.828976
vt 0.396765 0.829906
vt 0.377961 0.837093
vt 0.359523 0.846401
vt 0.309854 0.849425
vt 0.174828 0.851196
vt 0.495415 0.009275
vt 0.289840 0.842594
vt 0.270908 0.833386
vt 0.251585 0.827446
vt 0.231784 0.828376
vt 0.212980 0.835564
vt 0.194542 0.844872
vt 0.140849 0.849129
vt 0.005823 0.850900
vt 0.330434 0.007746
vt 0.120835 0.842298
vt 0.101903 0.833091
vt 0.082580 0.827151
vt 0.062779 0.828081
vt 0.043975 0.835268
vt 0.025537 0.844576
vt 0.996803 0.845398
vt 0.840679 0.846346
vt 0.860383 0.840238
vt 0.878856 0.831135
vt 0.897718 0.824024
vt 0.917545 0.823001
vt 0.936875 0.828728
vt 0.955822 0.837725
vt 0.975848 0.844462
vt 0.161484 0.014969
vt 0.005031 0.018781
vt 0.023987 0.027628
vt 0.043330 0.033213
vt 0.063206 0.032056
vt 0.082144 0.024860
vt 0.100683 0.015733
vt 0.120386 0.009635
vt 0.141323 0.009389
vt 0.161454 0.010935
vt 0.005078 0.014761
vt 0.024024 0.023744
vt 0.043364 0.029467
vt 0.063223 0.028368
vt 0.082124 0.021119
vt 0.100640 0.011855
vt 0.120350 0.005612
vt 0.141298 0.005303
vt 0.996794 0.848662
vt 0.840737 0.849591
vt 0.975830 0.847767
vt 0.955810 0.840981
vt 0.936871 0.831871
vt 0.917545 0.826031
vt 0.897731 0.827005
vt 0.878900 0.834156
vt 0.860446 0.843368
vn 0.437768 0.899083 -0.002883
vn 0.438833 0.898565 -0.002335
vn 0.377065 0.911569 0.163901
vn 0.383648 0.911543 0.147998
vn -0.301326 0.897447 -0.322168
vn -0.300598 0.897773 -0.321938
vn -0.148795 0.910638 -0.385484
vn -0.131509 0.910505 -0.392029
vn -0.831034 0.356545 -0.426918
vn -0.831047 0.356515 -0.426916
vn -0.626207 0.381522 -0.679931
vn -0.552009 0.381083 -0.741661
vn -0.889627 -0.356126 -0.285900
vn -0.889578 -0.356295 -0.285841
vn -0.733675 -0.380972 -0.562655
vn -0.670969 -0.380923 -0.636159
vn -0.442728 -0.896550 0.013773
vn -0.441574 -0.897110 0.014373
vn -0.391328 -0.909740 -0.138694
vn -0.384663 -0.909773 -0.156039
vn 0.306119 -0.899713 0.311139
vn 0.306813 -0.899399 0.311363
vn 0.141027 -0.912261 0.384566
vn 0.156879 -0.912381 0.378088
vn 0.836360 -0.356800 0.416168
vn 0.836355 -0.356813 0.416168
vn 0.567591 -0.381544 0.729565
vn 0.629737 -0.381895 0.676452
vn 0.885731 0.356597 0.297185
vn 0.885769 0.356468 0.297227
vn 0.667387 0.381387 0.639640
vn 0.721312 0.381452 0.578103
vn 0.153114 0.912030 0.380471
vn 0.168973 0.912003 0.373762
vn 0.164021 0.910267 -0.380145
vn 0.180953 0.910237 -0.372457
vn 0.031061 0.381211 -0.923966
vn 0.127326 0.381072 -0.915736
vn -0.127326 -0.381073 -0.915736
vn -0.031061 -0.381211 -0.923966
vn -0.180953 -0.910237 -0.372457
vn -0.164021 -0.910268 -0.380145
vn -0.168973 -0.912003 0.373762
vn -0.153114 -0.912030 0.380471
vn -0.107735 -0.381533 0.918055
vn -0.026124 -0.381635 0.923944
vn 0.026124 0.381635 0.923944
vn 0.107735 0.381533 0.918055
vn -0.160766 0.912030 0.377301
vn -0.144808 0.912003 0.383772
vn 0.384783 0.910268 -0.152822
vn 0.391320 0.910237 -0.135414
vn 0.675306 0.381211 -0.631379
vn 0.737556 0.381072 -0.557490
vn 0.557490 -0.381072 -0.737556
vn 0.631379 -0.381211 -0.675306
vn 0.135414 -0.910237 -0.391320
vn 0.152823 -0.910268 -0.384783
vn -0.383772 -0.912003 0.144808
vn -0.377302 -0.912030 0.160766
vn -0.725344 -0.381533 0.572983
vn -0.671799 -0.381635 0.634854
vn -0.634854 0.381635 0.671799
vn -0.572983 0.381533 0.725344
vn -0.380471 0.912030 0.153115
vn -0.373762 0.912003 0.168974
vn 0.380145 0.910268 0.164020
vn 0.372457 0.910238 0.180952
vn 0.923966 0.381211 0.031061
vn 0.915736 0.381072 0.127326
vn 0.915736 -0.381072 -0.127327
vn 0.923966 -0.381211 -0.031062
vn 0.372457 -0.910238 -0.180952
vn 0.380145 -0.910268 -0.164020
vn -0.373762 -0.912003 -0.168974
vn -0.380471 -0.912030 -0.153115
vn -0.918055 -0.381533 -0.107735
vn -0.923944 -0.381636 -0.026124
vn -0.923944 0.381635 0.026124
vn -0.918056 0.381533 0.107735
vn -0.377302 0.912030 -0.160765
vn -0.383772 0.912003 -0.144807
vn 0.152823 0.910268 0.384783
vn 0.135414 0.910238 0.391319
vn 0.631379 0.381211 0.675307
vn 0.557490 0.381072 0.737557
vn 0.737556 -0.381072 0.557490
vn 0.675306 -0.381211 0.631379
vn 0.391320 -0.910237 0.135414
vn 0.384783 -0.910268 0.152823
vn -0.144808 -0.912003 -0.383772
vn -0.160766 -0.912030 -0.377302
vn -0.572983 -0.381534 -0.725344
vn -0.634854 -0.381636 -0.671799
vn -0.671799 0.381636 -0.634854
vn -0.725343 0.381533 -0.572983
vn -0.153114 0.912030 -0.380471
vn -0.168974 0.912003 -0.373762
vn -0.164021 0.910268 0.380144
vn -0.180952 0.910238 0.372456
vn -0.031061 0.381211 0.923966
vn -0.127326 0.381072 0.915736
vn 0.127326 -0.381072 0.915736
vn 0.031061 -0.381210 0.923966
vn 0.180952 -0.910238 0.372456
vn 0.164021 -0.910268 0.380144
vn 0.168974 -0.912003 -0.373762
vn 0.153114 -0.912030 -0.380470
vn 0.107735 -0.381533 -0.918055
vn 0.026124 -0.381636 -0.923944
vn -0.026124 0.381636 -0.923944
vn -0.107735 0.381533 -0.918055
vn 0.160765 0.912030 -0.377301
vn 0.144807 0.912003 -0.383772
vn -0.384783 0.910268 0.152822
vn -0.391319 0.910238 0.135414
vn -0.675306 0.381211 0.631379
vn -0.737556 0.381072 0.557490
vn -0.557489 -0.381072 0.737557
vn -0.631379 -0.381211 0.675307
vn -0.135414 -0.910238 0.391319
vn -0.152822 -0.910268 0.384783
vn 0.383772 -0.912003 -0.144807
vn 0.377301 -0.912030 -0.160765
vn 0.725343 -0.381533 -0.572983
vn 0.671799 -0.381636 -0.634854
vn 0.634854 0.381635 -0.671800
vn 0.572983 0.381532 -0.725344
vn 0.380470 0.912030 -0.153114
vn 0.373761 0.912004 -0.168974
vn -0.380144 0.910268 -0.164021
vn -0.372457 0.910238 -0.180953
vn -0.923966 0.381211 -0.031061
vn -0.915736 0.381072 -0.127326
vn -0.915736 -0.381072 0.127327
vn -0.923966 -0.381211 0.031062
vn -0.372456 -0.910238 0.180953
vn -0.380144 -0.910268 0.164021
vn 0.373761 -0.912004 0.168973
vn 0.380470 -0.912030 0.153114
vn 0.918055 -0.381533 0.107735
vn 0.923944 -0.381635 0.026124
vn 0.923944 0.381635 -0.026125
vn 0.918056 0.381532 -0.107736
vn 0.377301 0.912030 0.160765
vn 0.383772 0.912003 0.144807
vn -0.152823 0.910268 -0.384783
vn -0.135414 0.910238 -0.391319
vn -0.631379 0.381211 -0.675306
vn -0.557490 0.381073 -0.737556
vn -0.737557 -0.381073 -0.557489
vn -0.675307 -0.381211 -0.631378
vn -0.391319 -0.910238 -0.135414
vn -0.384783 -0.910268 -0.152823
vn 0.144807 -0.912004 0.383771
vn 0.160765 -0.912030 0.377301
vn 0.572983 -0.381533 0.725343
vn 0.634855 -0.381636 0.671799
vn 0.671800 0.381636 0.634854
vn 0.725344 0.381533 0.572983
vn 0.153115 0.912030 0.380470
vn 0.168974 0.912003 0.373762
vn 0.164020 0.910268 -0.380144
vn 0.180952 0.910238 -0.372456
vn 0.031061 0.381211 -0.923966
vn 0.127326 0.381073 -0.915736
vn -0.127327 -0.381073 -0.915736
vn -0.031062 -0.381211 -0.923966
vn -0.180953 -0.910238 -0.372456
vn -0.164021 -0.910268 -0.380144
vn -0.168973 -0.912003 0.373762
vn -0.153114 -0.912030 0.380470
vn -0.107735 -0.381533 0.918055
vn -0.026124 -0.381636 0.923944
vn 0.026124 0.381636 0.923944
vn 0.107735 0.381533 0.918055
vn -0.160765 0.912030 0.377302
vn -0.144807 0.912003 0.383772
vn 0.384783 0.910268 -0.152823
vn 0.391319 0.910238 -0.135414
vn 0.675306 0.381211 -0.631379
vn 0.737556 0.381073 -0.557490
vn 0.557489 -0.381073 -0.737556
vn 0.631379 -0.381211 -0.675306
vn 0.135414 -0.910238 -0.391319
vn 0.152822 -0.910268 -0.384783
vn -0.383772 -0.912003 0.144807
vn -0.377301 -0.912030 0.160765
vn -0.725343 -0.381534 0.572983
vn -0.671799 -0.381636 0.634854
vn -0.634854 0.381636 0.671799
vn -0.572982 0.381534 0.725344
vn -0.380471 0.912030 0.153114
vn -0.373762 0.912003 0.168974
vn 0.380145 0.910268 0.164021
vn 0.372457 0.910237 0.180953
vn 0.923966 0.381212 0.031061
vn 0.915735 0.381073 0.127326
vn 0.915735 -0.381073 -0.127326
vn 0.923966 -0.381212 -0.031061
vn 0.372457 -0.910237 -0.180952
vn 0.380145 -0.910268 -0.164021
vn -0.373762 -0.912003 -0.168974
vn -0.380471 -0.912030 -0.153115
vn -0.918055 -0.381533 -0.107735
vn -0.923943 -0.381636 -0.026124
vn -0.923943 0.381636 0.026124
vn -0.918055 0.381534 0.107735
vn -0.377302 0.912030 -0.160765
vn -0.383772 0.912003 -0.144807
vn 0.152822 0.910268 0.384783
vn 0.135414 0.910238 0.391319
vn 0.631379 0.381212 0.675306
vn 0.557489 0.381073 0.737556
vn 0.737556 -0.381073 0.557490
vn 0.675306 -0.381212 0.631379
vn 0.391319 -0.910237 0.135414
vn 0.384783 -0.910268 0.152823
vn -0.144807 -0.912003 -0.383772
vn -0.160765 -0.912030 -0.377302
vn -0.572983 -0.381533 -0.725344
vn -0.634854 -0.381636 -0.671800
vn -0.671799 0.381636 -0.634854
vn -0.725343 0.381533 -0.572983
vn -0.153114 0.912030 -0.380470
vn -0.168973 0.912004 -0.373762
vn -0.164021 0.910268 0.380144
vn -0.180953 0.910238 0.372456
vn -0.031062 0.381211 0.923966
vn -0.127327 0.381072 0.915736
vn 0.127326 -0.381072 0.915736
vn 0.031061 -0.381211 0.923966
vn 0.180952 -0.910237 0.372457
vn 0.164021 -0.910268 0.380144
vn 0.168974 -0.912003 -0.373762
vn 0.153114 -0.912030 -0.380470
vn 0.107736 -0.381533 -0.918055
vn 0.026125 -0.381636 -0.923944
vn -0.026124 0.381636 -0.923944
vn -0.107735 0.381533 -0.918055
vn 0.160766 0.912030 -0.377301
vn 0.144808 0.912003 -0.383772
vn -0.384783 0.910268 0.152822
vn -0.391319 0.910238 0.135413
vn -0.675307 0.381210 0.631379
vn -0.737557 0.381072 0.557489
vn -0.557491 -0.381072 0.737556
vn -0.631380 -0.381210 0.675306
vn -0.135414 -0.910238 0.391319
vn -0.152823 -0.910268 0.384782
vn 0.383772 -0.912003 -0.144807
vn 0.377302 -0.912030 -0.160765
vn 0.725344 -0.381534 -0.572982
vn 0.671800 -0.381636 -0.634854
vn 0.634855 0.381636 -0.671799
vn 0.572984 0.381534 -0.725343
vn 0.380471 0.912030 -0.153114
vn 0.373762 0.912003 -0.168973
vn -0.380144 0.910268 -0.164021
vn -0.372456 0.910238 -0.180953
vn -0.923966 0.381211 -0.031062
vn -0.915736 0.381072 -0.127327
vn -0.915736 -0.381073 0.127325
vn -0.923966 -0.381211 0.031060
vn -0.372457 -0.910237 0.180952
vn -0.380145 -0.910268 0.164020
vn 0.373762 -0.912003 0.168974
vn 0.380470 -0.912030 0.153115
vn 0.918055 -0.381533 0.107736
vn 0.923943 -0.381636 0.026125
vn 0.923944 0.381636 -0.026123
vn 0.918055 0.381534 -0.107734
vn 0.377301 0.912030 0.160766
vn 0.383771 0.912003 0.144808
vn -0.152822 0.910268 -0.384783
vn -0.135413 0.910237 -0.391320
vn -0.631378 0.381211 -0.675307
vn -0.557488 0.381073 -0.737557
vn -0.737555 -0.381074 -0.557490
vn -0.675305 -0.381212 -0.631380
vn -0.391319 -0.910237 -0.135415
vn -0.384783 -0.910268 -0.152823
vn 0.144807 -0.912004 0.383771
vn 0.160765 -0.912030 0.377301
vn 0.572982 -0.381533 0.725344
vn 0.634853 -0.381636 0.671800
vn 0.671798 0.381636 0.634856
vn 0.725342 0.381533 0.572984
vn 0.153113 0.912030 0.380471
vn 0.168973 0.912003 0.373762
vn 0.164021 0.910268 -0.380144
vn 0.180953 0.910238 -0.372456
vn 0.031063 0.381211 -0.923966
vn 0.127328 0.381072 -0.915736
vn -0.127324 -0.381072 -0.915736
vn -0.031059 -0.381211 -0.923966
vn -0.180952 -0.910238 -0.372457
vn -0.164020 -0.910268 -0.380144
vn -0.168974 -0.912004 0.373761
vn -0.153115 -0.912030 0.380470
vn -0.107737 -0.381533 0.918055
vn -0.026126 -0.381636 0.923944
vn 0.026122 0.381636 0.923944
vn 0.107733 0.381533 0.918056
vn -0.160766 0.912030 0.377301
vn -0.144808 0.912003 0.383771
vn 0.384783 0.910268 -0.152821
vn 0.391320 0.910237 -0.135412
vn 0.675308 0.381211 -0.631378
vn 0.737558 0.381072 -0.557488
vn 0.557492 -0.381072 -0.737555
vn 0.631381 -0.381210 -0.675305
vn 0.135415 -0.910238 -0.391319
vn 0.152823 -0.910268 -0.384782
vn -0.383772 -0.912003 0.144806
vn -0.377302 -0.912030 0.160764
vn -0.725344 -0.381535 0.572981
vn -0.671800 -0.381637 0.634853
vn -0.634856 0.381637 0.671797
vn -0.572984 0.381534 0.725342
vn -0.380472 0.912030 0.153113
vn -0.373763 0.912003 0.168972
vn 0.380144 0.910268 0.164022
vn 0.372457 0.910237 0.180954
vn 0.923966 0.381211 0.031064
vn 0.915735 0.381073 0.127329
vn 0.915736 -0.381073 -0.127324
vn 0.923966 -0.381211 -0.031059
vn 0.372458 -0.910237 -0.180952
vn 0.380145 -0.910268 -0.164020
vn -0.373762 -0.912003 -0.168974
vn -0.380471 -0.912030 -0.153115
vn -0.918055 -0.381534 -0.107737
vn -0.923943 -0.381637 -0.026126
vn -0.923943 0.381636 0.026121
vn -0.918055 0.381534 0.107732
vn -0.377301 0.912030 -0.160766
vn -0.383771 0.912003 -0.144808
vn 0.152822 0.910268 0.384783
vn 0.135413 0.910238 0.391319
vn 0.631377 0.381212 0.675308
vn 0.557488 0.381073 0.737557
vn 0.737554 -0.381073 0.557492
vn 0.675304 -0.381212 0.631381
vn 0.391319 -0.910237 0.135416
vn 0.384783 -0.910267 0.152825
vn -0.144806 -0.912003 -0.383774
vn -0.160764 -0.912029 -0.377303
vn -0.572981 -0.381534 -0.725345
vn -0.634852 -0.381636 -0.671801
vn -0.671797 0.381635 -0.634857
vn -0.725342 0.381533 -0.572985
vn -0.153113 0.912029 -0.380472
vn -0.168972 0.912003 -0.373763
vn -0.164022 0.910268 0.380144
vn -0.180953 0.910237 0.372457
vn -0.031064 0.381211 0.923966
vn -0.127329 0.381072 0.915735
vn 0.127324 -0.381073 0.915736
vn 0.031058 -0.381211 0.923966
vn 0.180951 -0.910237 0.372458
vn 0.164019 -0.910268 0.380146
vn 0.168975 -0.912003 -0.373763
vn 0.153116 -0.912029 -0.380471
vn 0.107738 -0.381533 -0.918055
vn 0.026127 -0.381636 -0.923943
vn -0.026121 0.381636 -0.923944
vn -0.107732 0.381534 -0.918056
vn 0.157605 0.912317 -0.377941
vn 0.141732 0.912215 -0.384417
vn -0.384691 0.909863 0.155439
vn -0.391333 0.909831 0.138081
vn -0.671786 0.380976 0.635264
vn -0.734410 0.380991 0.561684
vn -0.553039 -0.381083 0.740894
vn -0.627183 -0.381466 0.679062
vn -0.132237 -0.910458 0.391893
vn -0.149547 -0.910573 0.385349
vn 0.383678 -0.911628 -0.147399
vn 0.377115 -0.911654 -0.163313
vn 0.722075 -0.381468 -0.577139
vn 0.668218 -0.381434 -0.638743
vn 0.630702 0.381849 -0.675578
vn 0.568605 0.381545 -0.728774
vn 0.306907 0.899357 -0.311392
vn 0.306334 0.899616 -0.311208
vn 0.359857 0.873446 -0.328017
vn 0.360109 0.873313 -0.328094
vn -0.441540 0.897126 -0.014394
vn -0.442488 0.896667 -0.013900
vn -0.384281 0.922185 -0.043625
vn -0.383808 0.922371 -0.043862
vn -0.889576 0.356307 0.285833
vn -0.889615 0.356169 0.285882
vn -0.886489 0.366805 0.282121
vn -0.886469 0.366873 0.282095
vn -0.831061 -0.356488 0.426913
vn -0.831050 -0.356511 0.426914
vn -0.835547 -0.346432 0.426436
vn -0.835551 -0.346422 0.426435
vn -0.300826 -0.897672 0.322008
vn -0.301428 -0.897402 0.322198
vn -0.358439 -0.869562 0.339681
vn -0.358175 -0.869700 0.339607
vn 0.438609 -0.898675 0.002451
vn 0.437733 -0.899100 0.002902
vn 0.383904 -0.922884 0.030057
vn 0.384339 -0.922709 0.029851
vn 0.885760 -0.356505 -0.297211
vn 0.885728 -0.356610 -0.297177
vn 0.883049 -0.365505 -0.294330
vn 0.883065 -0.365453 -0.294346
vn 0.836367 0.356787 -0.416164
vn 0.836371 0.356778 -0.416164
vn 0.840039 0.348235 -0.416013
vn 0.840037 0.348239 -0.416013
vn 0.016095 0.154274 -0.987897
vn 0.124796 0.099746 -0.987156
vn -0.000000 0.000000 -1.000000
vn -0.098710 0.106578 -0.989392
vn -0.141400 -0.006822 -0.989929
vn -0.091017 -0.113327 -0.989380
vn 0.016576 -0.149096 -0.988684
vn 0.113652 -0.103416 -0.988124
vn 0.157199 -0.007525 -0.987538
vn -0.000004 -0.000000 1.000000
vn 0.092690 0.084330 0.992118
vn 0.013607 0.122193 0.992413
vn -0.075232 0.093694 0.992755
vn -0.117815 0.005684 0.993019
vn -0.082395 -0.088937 0.992624
vn 0.013313 -0.127908 0.991697
vn 0.102425 -0.081882 0.991365
vn 0.128237 0.006138 0.991725
vn 0.384223 0.922756 -0.029909
vn 0.384753 0.922543 -0.029647
vn -0.358109 0.869729 -0.339602
vn -0.357788 0.869899 -0.339505
vn -0.835515 0.346496 -0.426444
vn -0.835521 0.346484 -0.426444
vn -0.886511 -0.366727 -0.282151
vn -0.886487 -0.366809 -0.282122
vn -0.384727 -0.922010 0.043391
vn -0.384150 -0.922237 0.043686
vn 0.359496 -0.873638 0.327901
vn 0.359803 -0.873475 0.327999
vn 0.840014 -0.348289 0.416018
vn 0.840012 -0.348294 0.416018
vn 0.883064 0.365451 0.294353
vn 0.883084 0.365388 0.294371
s 1
g RNA
usemtl phong1SG
f 211/299/1 212/300/2 10/19/3 9/18/4
f 212/300/5 213/301/6 11/20/7 10/19/8
f 213/301/9 214/302/10 12/21/11 11/20/12
f 214/302/13 215/303/14 13/22/15 12/21/16
f 215/303/17 216/304/18 14/23/19 13/22/20
f 216/304/21 217/305/22 15/24/23 14/23/24
f 217/305/25 218/306/26 16/25/27 15/24/28
f 218/306/29 211/298/30 9/26/31 16/25/32
f 9/18/4 10/19/3 18/28/33 17/27/34
f 10/19/8 11/20/7 19/29/35 18/28/36
f 11/20/12 12/21/11 20/30/37 19/29/38
f 12/21/16 13/22/15 21/31/39 20/30/40
f 13/22/20 14/23/19 22/32/41 21/31/42
f 14/23/24 15/24/23 23/33/43 22/32/44
f 15/24/28 16/25/27 24/34/45 23/33/46
f 16/25/32 9/26/31 17/35/47 24/34/48
f 17/27/34 18/28/33 26/37/49 25/36/50
f 18/28/36 19/29/35 27/38/51 26/37/52
f 19/29/38 20/30/37 28/39/53 27/38/54
f 20/30/40 21/31/39 29/40/55 28/39/56
f 21/31/42 22/32/41 30/41/57 29/40/58
f 22/32/44 23/33/43 31/42/59 30/41/60
f 23/33/46 24/34/45 32/43/61 31/42/62
f 24/34/48 17/35/47 25/44/63 32/43/64
f 25/36/50 26/37/49 34/288/65 33/281/66
f 26/37/52 27/38/51 35/287/67 34/288/68
f 27/38/54 28/39/53 36/286/69 35/287/70
f 28/39/56 29/40/55 37/285/71 36/286/72
f 29/40/58 30/41/57 38/284/73 37/285/74
f 30/41/60 31/42/59 39/283/75 38/284/76
f 31/42/62 32/43/61 40/280/77 39/283/78
f 32/43/64 25/44/63 33/53/79 40/280/80
f 33/45/66 34/46/65 42/55/81 41/54/82
f 34/46/68 35/47/67 43/56/83 42/55/84
f 35/47/70 36/48/69 44/57/85 43/56/86
f 36/48/72 37/49/71 45/58/87 44/57/88
f 37/49/74 38/50/73 46/59/89 45/58/90
f 38/50/76 39/51/75 47/60/91 46/59/92
f 39/51/78 40/52/77 48/61/93 47/60/94
f 40/52/80 33/282/79 41/62/95 48/61/96
f 41/54/82 42/55/81 50/64/97 49/63/98
f 42/55/84 43/56/83 51/65/99 50/64/100
f 43/56/86 44/57/85 52/66/101 51/65/102
f 44/57/88 45/58/87 53/67/103 52/66/104
f 45/58/90 46/59/89 54/68/105 53/67/106
f 46/59/92 47/60/91 55/69/107 54/68/108
f 47/60/94 48/61/93 56/70/109 55/69/110
f 48/61/96 41/62/95 49/71/111 56/70/112
f 49/63/98 50/64/97 58/73/113 57/72/114
f 50/64/100 51/65/99 59/74/115 58/73/116
f 51/65/102 52/66/101 60/75/117 59/74/118
f 52/66/104 53/67/103 61/76/119 60/75/120
f 53/67/106 54/68/105 62/77/121 61/76/122
f 54/68/108 55/69/107 63/78/123 62/77/124
f 55/69/110 56/70/109 64/79/125 63/78/126
f 56/70/112 49/71/111 57/80/127 64/79/128
f 57/72/114 58/73/113 66/279/129 65/272/130
f 58/73/116 59/74/115 67/278/131 66/279/132
f 59/74/118 60/75/117 68/277/133 67/278/134
f 60/75/120 61/76/119 69/276/135 68/277/136
f 61/76/122 62/77/121 70/275/137 69/276/138
f 62/77/124 63/78/123 71/274/139 70/275/140
f 63/78/126 64/79/125 72/271/141 71/274/142
f 64/79/128 57/80/127 65/89/143 72/271/144
f 65/81/130 66/82/129 74/91/145 73/90/146
f 66/82/132 67/83/131 75/92/147 74/91/148
f 67/83/134 68/84/133 76/93/149 75/92/150
f 68/84/136 69/85/135 77/94/151 76/93/152
f 69/85/138 70/86/137 78/95/153 77/94/154
f 70/86/140 71/87/139 79/96/155 78/95/156
f 71/87/142 72/88/141 80/97/157 79/96/158
f 72/88/144 65/273/143 73/98/159 80/97/160
f 73/90/146 74/91/145 82/100/161 81/99/162
f 74/91/148 75/92/147 83/101/163 82/100/164
f 75/92/150 76/93/149 84/102/165 83/101/166
f 76/93/152 77/94/151 85/103/167 84/102/168
f 77/94/154 78/95/153 86/104/169 85/103/170
f 78/95/156 79/96/155 87/105/171 86/104/172
f 79/96/158 80/97/157 88/106/173 87/105/174
f 80/97/160 73/98/159 81/107/175 88/106/176
f 81/99/162 82/100/161 90/109/177 89/108/178
f 82/100/164 83/101/163 91/110/179 90/109/180
f 83/101/166 84/102/165 92/111/181 91/110/182
f 84/102/168 85/103/167 93/112/183 92/111/184
f 85/103/170 86/104/169 94/113/185 93/112/186
f 86/104/172 87/105/171 95/114/187 94/113/188
f 87/105/174 88/106/173 96/115/189 95/114/190
f 88/106/176 81/107/175 89/116/191 96/115/192
f 89/108/178 90/109/177 98/270/193 97/263/194
f 90/109/180 91/110/179 99/269/195 98/270/196
f 91/110/182 92/111/181 100/268/197 99/269/198
f 92/111/184 93/112/183 101/267/199 100/268/200
f 93/112/186 94/113/185 102/266/201 101/267/202
f 94/113/188 95/114/187 103/265/203 102/266/204
f 95/114/190 96/115/189 104/262/205 103/265/206
f 96/115/192 89/116/191 97/125/207 104/262/208
f 97/117/194 98/118/193 106/127/209 105/126/210
f 98/118/196 99/119/195 107/128/211 106/127/212
f 99/119/198 100/120/197 108/129/213 107/128/214
f 100/120/200 101/121/199 109/130/215 108/129/216
f 101/121/202 102/122/201 110/131/217 109/130/218
f 102/122/204 103/123/203 111/132/219 110/131/220
f 103/123/206 104/124/205 112/133/221 111/132/222
f 104/124/208 97/264/207 105/134/223 112/133/224
f 105/126/210 106/127/209 114/136/225 113/135/226
f 106/127/212 107/128/211 115/137/227 114/136/228
f 107/128/214 108/129/213 116/138/229 115/137/230
f 108/129/216 109/130/215 117/139/231 116/138/232
f 109/130/218 110/131/217 118/140/233 117/139/234
f 110/131/220 111/132/219 119/141/235 118/140/236
f 111/132/222 112/133/221 120/142/237 119/141/238
f 112/133/224 105/134/223 113/143/239 120/142/240
f 113/135/226 114/136/225 122/145/241 121/144/242
f 114/136/228 115/137/227 123/146/243 122/145/244
f 115/137/230 116/138/229 124/147/245 123/146/246
f 116/138/232 117/139/231 125/148/247 124/147/248
f 117/139/234 118/140/233 126/149/249 125/148/250
f 118/140/236 119/141/235 127/150/251 126/149/252
f 119/141/238 120/142/237 128/151/253 127/150/254
f 120/142/240 113/143/239 121/152/255 128/151/256
f 121/144/242 122/145/241 130/261/257 129/254/258
f 122/145/244 123/146/243 131/260/259 130/261/260
f 123/146/246 124/147/245 132/259/261 131/260/262
f 124/147/248 125/148/247 133/258/263 132/259/264
f 125/148/250 126/149/249 134/257/265 133/258/266
f 126/149/252 127/150/251 135/256/267 134/257/268
f 127/150/254 128/151/253 136/253/269 135/256/270
f 128/151/256 121/152/255 129/161/271 136/253/272
f 129/153/258 130/154/257 138/163/273 137/162/274
f 130/154/260 131/155/259 139/164/275 138/163/276
f 131/155/262 132/156/261 140/165/277 139/164/278
f 132/156/264 133/157/263 141/166/279 140/165/280
f 133/157/266 134/158/265 142/167/281 141/166/282
f 134/158/268 135/159/267 143/168/283 142/167/284
f 135/159/270 136/160/269 144/169/285 143/168/286
f 136/160/272 129/255/271 137/170/287 144/169/288
f 137/162/274 138/163/273 146/172/289 145/171/290
f 138/163/276 139/164/275 147/173/291 146/172/292
f 139/164/278 140/165/277 148/174/293 147/173/294
f 140/165/280 141/166/279 149/175/295 148/174/296
f 141/166/282 142/167/281 150/176/297 149/175/298
f 142/167/284 143/168/283 151/177/299 150/176/300
f 143/168/286 144/169/285 152/178/301 151/177/302
f 144/169/288 137/170/287 145/179/303 152/178/304
f 145/171/290 146/172/289 154/181/305 153/180/306
f 146/172/292 147/173/291 155/182/307 154/181/308
f 147/173/294 148/174/293 156/183/309 155/182/310
f 148/174/296 149/175/295 157/184/311 156/183/312
f 149/175/298 150/176/297 158/185/313 157/184/314
f 150/176/300 151/177/299 159/186/315 158/185/316
f 151/177/302 152/178/301 160/187/317 159/186/318
f 152/178/304 145/179/303 153/188/319 160/187/320
f 153/180/306 154/181/305 162/252/321 161/245/322
f 154/181/308 155/182/307 163/251/323 162/252/324
f 155/182/310 156/183/309 164/250/325 163/251/326
f 156/183/312 157/184/311 165/249/327 164/250/328
f 157/184/314 158/185/313 166/248/329 165/249/330
f 158/185/316 159/186/315 167/247/331 166/248/332
f 159/186/318 160/187/317 168/244/333 167/247/334
f 160/187/320 153/188/319 161/197/335 168/244/336
f 161/189/322 162/190/321 170/199/337 169/198/338
f 162/190/324 163/191/323 171/200/339 170/199/340
f 163/191/326 164/192/325 172/201/341 171/200/342
f 164/192/328 165/193/327 173/202/343 172/201/344
f 165/193/330 166/194/329 174/203/345 173/202/346
f 166/194/332 167/195/331 175/204/347 174/203/348
f 167/195/334 168/196/333 176/205/349 175/204/350
f 168/196/336 161/246/335 169/206/351 176/205/352
f 169/198/338 170/199/337 178/208/353 177/207/354
f 170/199/340 171/200/339 179/209/355 178/208/356
f 171/200/342 172/201/341 180/210/357 179/209/358
f 172/201/344 173/202/343 181/211/359 180/210/360
f 173/202/346 174/203/345 182/212/361 181/211/362
f 174/203/348 175/204/347 183/213/363 182/212/364
f 175/204/350 176/205/349 184/214/365 183/213/366
f 176/205/352 169/206/351 177/215/367 184/214/368
f 177/207/354 178/208/353 186/217/369 185/216/370
f 178/208/356 179/209/355 187/218/371 186/217/372
f 179/209/358 180/210/357 188/219/373 187/218/374
f 180/210/360 181/211/359 189/220/375 188/219/376
f 181/211/362 182/212/361 190/221/377 189/220/378
f 182/212/364 183/213/363 191/222/379 190/221/380
f 183/213/366 184/214/365 192/223/381 191/222/382
f 184/214/368 177/215/367 185/224/383 192/223/384
f 203/290/385 204/291/386 234/324/387 227/317/388
f 204/291/389 205/292/390 233/323/391 234/324/392
f 205/292/393 206/293/394 232/322/395 233/323/396
f 206/293/397 207/294/398 231/321/399 232/322/400
f 207/294/401 208/295/402 230/320/403 231/321/404
f 208/295/405 209/296/406 229/319/407 230/320/408
f 209/296/409 210/297/410 228/318/411 229/319/412
f 210/297/413 203/289/414 227/316/415 228/318/416
f 2/2/417 1/1/418 201/242/419 3/3/420
f 4/4/421 3/3/420 201/242/419 5/5/422
f 6/6/423 5/5/422 201/242/419 7/7/424
f 8/8/425 7/7/424 201/242/419 1/1/418
f 202/243/426 193/240/427 194/239/428 195/238/429
f 202/243/426 195/238/429 196/237/430 197/236/431
f 202/243/426 197/236/431 198/235/432 199/234/433
f 202/243/426 199/234/433 200/241/434 193/240/427
f 185/216/370 186/217/369 204/291/386 203/290/385
f 186/217/372 187/218/371 205/292/390 204/291/389
f 187/218/374 188/219/373 206/293/394 205/292/393
f 188/219/376 189/220/375 207/294/398 206/293/397
f 189/220/378 190/221/377 208/295/402 207/294/401
f 190/221/380 191/222/379 209/296/406 208/295/405
f 191/222/382 192/223/381 210/297/410 209/296/409
f 192/223/384 185/224/383 203/289/414 210/297/413
f 219/308/435 220/309/436 212/300/2 211/299/1
f 220/309/437 221/310/438 213/301/6 212/300/5
f 221/310/439 222/311/440 214/302/10 213/301/9
f 222/311/441 223/312/442 215/303/14 214/302/13
f 223/312/443 224/313/444 216/304/18 215/303/17
f 224/313/445 225/314/446 217/305/22 216/304/21
f 225/314/447 226/315/448 218/306/26 217/305/25
f 226/315/449 219/307/450 211/298/30 218/306/29
f 1/9/418 2/10/417 220/309/436 219/308/435
f 2/10/417 3/11/420 221/310/438 220/309/437
f 3/11/420 4/12/421 222/311/440 221/310/439
f 4/12/421 5/13/422 223/312/442 222/311/441
f 5/13/422 6/14/423 224/313/444 223/312/443
f 6/14/423 7/15/424 225/314/446 224/313/445
f 7/15/424 8/16/425 226/315/448 225/314/447
f 8/16/425 1/17/418 219/307/450 226/315/449
f 228/318/416 227/316/415 193/233/427 200/232/434
f 229/319/412 228/318/411 200/232/434 199/231/433
f 230/320/408 229/319/407 199/231/433 198/230/432
f 231/321/404 230/320/403 198/230/432 197/229/431
f 232/322/400 231/321/399 197/229/431 196/228/430
f 233/323/396 232/322/395 196/228/430 195/227/429
f 234/324/392 233/323/391 195/227/429 194/226/428
f 227/317/388 234/324/387 194/226/428 193/225/427
