# This file uses centimeters as units for non-parametric coordinates.

mtllib vem35_tcell_membrane.mtl
g default
v 0.000000 -9.238795 -3.826834
v -2.705980 -9.238795 -2.705980
v -3.826834 -9.238795 0.000000
v 3.826835 -9.238795 0.000000
v 2.705981 -9.238795 -2.705981
v 0.000000 -7.071068 -7.071067
v -4.999999 -7.071068 -4.999999
v -7.071067 -7.071068 0.000000
v 7.071068 -7.071068 0.000000
v 5.000000 -7.071068 -5.000000
v 0.000000 -3.826834 -9.238794
v -6.532814 -3.826834 -6.532814
v -9.238794 -3.826834 0.000000
v 9.238794 -3.826834 0.000000
v 6.532815 -3.826834 -6.532815
v 0.000000 0.000000 -9.999998
v -7.071067 0.000000 -7.071067
v -9.999998 0.000000 0.000000
v 10.000000 0.000000 0.000000
v 7.071068 0.000000 -7.071068
v 0.000000 3.826834 -9.238794
v -6.532814 3.826834 -6.532814
v -9.238794 3.826834 0.000000
v 9.238794 3.826834 0.000000
v 6.532815 3.826834 -6.532815
v 0.000000 7.071068 -7.071067
v -4.999999 7.071068 -4.999999
v -7.071067 7.071068 0.000000
v 7.071068 7.071068 0.000000
v 5.000000 7.071068 -5.000000
v 0.000000 9.238795 -3.826834
v -2.705980 9.238795 -2.705980
v -3.826834 9.238795 0.000000
v 3.826835 9.238795 0.000000
v 2.705981 9.238795 -2.705981
v 0.000000 -10.000000 0.000000
v 0.000000 10.000000 0.000000
v 0.000000 -8.642363 -3.579784
v -2.531289 -8.642363 -2.531289
v -4.677212 -6.614578 -4.677212
v 0.000000 -6.614578 -6.614578
v -3.579784 -8.642363 -0.000000
v -6.614578 -6.614578 0.000000
v 3.579785 -8.642363 0.000000
v 2.531290 -8.642363 -2.531290
v 4.677213 -6.614578 -4.677213
v 6.614579 -6.614578 0.000000
v -6.111073 -3.579784 -6.111073
v 0.000000 -3.579784 -8.642361
v -8.642361 -3.579784 0.000000
v 6.111074 -3.579784 -6.111074
v 8.642362 -3.579784 0.000000
v -6.614578 0.000000 -6.614578
v 0.000000 0.000000 -9.354424
v -9.354424 0.000000 0.000000
v 6.614579 0.000000 -6.614579
v 9.354426 0.000000 0.000000
v -6.111073 3.579784 -6.111073
v 0.000000 3.579784 -8.642361
v -8.642361 3.579784 0.000000
v 6.111074 3.579784 -6.111074
v 8.642362 3.579784 0.000000
v -4.677212 6.614578 -4.677212
v 0.000000 6.614578 -6.614578
v -6.614578 6.614578 0.000000
v 4.677213 6.614578 -4.677213
v 6.614579 6.614578 0.000000
v -2.531289 8.642363 -2.531289
v 0.000000 8.642363 -3.579784
v -3.579784 8.642363 -0.000000
v 2.531290 8.642363 -2.531290
v 3.579785 8.642363 0.000000
v 0.000000 -9.354427 0.000000
v 0.000000 9.354427 0.000000
v -3.813040 -9.205491 0.000000
v 0.000000 -9.963952 0.000000
v 3.813040 -9.205491 0.000000
v 7.045578 -7.045578 0.000000
v 9.205491 -3.813039 0.000000
v 9.963952 0.000000 0.000000
v 9.205491 3.813039 0.000000
v 7.045578 7.045578 0.000000
v 3.813040 9.205491 0.000000
v 0.000000 9.963952 0.000000
v -3.813040 9.205491 0.000000
v -7.045577 7.045578 0.000000
v -9.205490 3.813039 0.000000
v -9.963950 0.000000 0.000000
v -9.205490 -3.813039 0.000000
v -7.045577 -7.045578 0.000000
v -3.593695 -8.675945 -0.000000
v -6.640281 -6.640282 0.000000
v -8.675943 -3.593694 0.000000
v -9.390774 0.000000 0.000000
v -8.675943 3.593694 0.000000
v -6.640281 6.640282 0.000000
v -3.593695 8.675945 -0.000000
v 0.000000 9.390778 0.000000
v 3.593695 8.675945 0.000000
v 6.640283 6.640282 0.000000
v 8.675944 3.593694 0.000000
v 9.390777 0.000000 0.000000
v 8.675944 -3.593694 0.000000
v 6.640283 -6.640282 0.000000
v 3.593695 -8.675945 0.000000
v 0.000000 -9.390778 0.000000
v -3.555333 -8.642363 -0.059030
v -6.569398 -6.614578 -0.109073
v -8.583332 -3.579784 -0.142510
v -9.290531 0.000000 -0.154252
v -8.583332 3.579784 -0.142510
v -6.569398 6.614578 -0.109073
v -3.555333 8.642363 -0.059030
v 0.000000 9.337822 -0.083481
v 3.555334 8.642363 -0.059030
v 6.569399 6.614578 -0.109074
v 8.583331 3.579784 -0.142511
v 9.290532 0.000000 -0.154253
v 8.583331 -3.579784 -0.142511
v 6.569399 -6.614578 -0.109074
v 3.555334 -8.642363 -0.059030
v 0.000000 -9.337822 -0.083481
v -3.811573 -9.238795 -0.036845
v 0.000000 -9.989635 -0.052105
v 3.811573 -9.238795 -0.036844
v 7.042869 -7.071068 -0.068079
v 9.201950 -3.826834 -0.088949
v 9.960120 0.000000 -0.096277
v 9.201950 3.826834 -0.088949
v 7.042869 7.071068 -0.068079
v 3.811573 9.238795 -0.036844
v 0.000000 9.989635 -0.052106
v -3.811573 9.238795 -0.036845
v -7.042868 7.071068 -0.068080
v -9.201949 3.826834 -0.088951
v -9.960118 0.000000 -0.096280
v -9.201949 -3.826834 -0.088951
v -7.042868 -7.071068 -0.068080
vt 0.734191 0.397988
vt 0.734440 0.463172
vt 0.127666 0.578342
vt 0.132695 0.590484
vt 0.634792 0.450480
vt 0.673547 0.385122
vt 0.542018 0.408372
vt 0.629095 0.346653
vt 0.070913 0.631766
vt 0.061619 0.622473
vt 0.838052 0.355186
vt 0.919990 0.411940
vt 0.832980 0.453149
vt 0.794524 0.388685
vt 0.349526 0.622473
vt 0.340233 0.631766
vt 0.734790 0.527314
vt 0.612998 0.519538
vt 0.487771 0.495719
vt 0.976008 0.492993
vt 0.278450 0.590484
vt 0.283480 0.578342
vt 0.855759 0.521644
vt 0.734723 0.591873
vt 0.605960 0.590867
vt 0.471438 0.594512
vt 0.029631 0.693548
vt 0.017489 0.688519
vt 0.998008 0.589236
vt 0.863486 0.592880
vt 0.734656 0.656432
vt 0.613687 0.662102
vt 0.393657 0.688519
vt 0.381514 0.693548
vt 0.493439 0.690755
vt 0.981675 0.688028
vt 0.856448 0.664208
vt 0.735006 0.720574
vt 0.015135 0.766426
vt 0.001992 0.766426
vt 0.636467 0.730598
vt 0.549457 0.771808
vt 0.927428 0.775374
vt 0.409153 0.766426
vt 0.396011 0.766426
vt 0.029631 0.839303
vt 0.017489 0.844333
vt 0.834654 0.733266
vt 0.284015 0.080303
vt 0.348844 0.066549
vt 0.390275 0.136418
vt 0.283750 0.149986
vt 0.396364 0.025425
vt 0.489451 0.091404
vt 0.172987 0.034547
vt 0.219519 0.070358
vt 0.178409 0.139271
vt 0.085395 0.095218
vt 0.413573 0.210242
vt 0.283376 0.218554
vt 0.547442 0.184779
vt 0.154058 0.212494
vt 0.025511 0.181864
vt 0.421097 0.286493
vt 0.283447 0.287569
vt 0.564902 0.290389
vt 0.145798 0.288645
vt 0.001992 0.284749
vt 0.412836 0.362645
vt 0.283519 0.356584
vt 0.541383 0.393275
vt 0.153322 0.364896
vt 0.019452 0.390359
vt 0.388484 0.435867
vt 0.283144 0.425152
vt 0.481499 0.479921
vt 0.176619 0.438719
vt 0.077443 0.483734
vt 0.347374 0.504780
vt 0.282878 0.494834
vt 0.393905 0.540591
vt 0.218049 0.508588
vt 0.170529 0.549712
vt 0.280991 0.001936
vt 0.285902 0.573201
vt 0.349526 0.910379
vt 0.061619 0.910379
vt 0.070913 0.901086
vt 0.381514 0.839303
vt 0.340233 0.901086
vt 0.132695 0.942368
vt 0.393657 0.844333
vt 0.127666 0.954510
vt 0.283480 0.954510
vt 0.735255 0.785758
vt 0.674923 0.795062
vt 0.631395 0.828561
vt 0.840351 0.837093
vt 0.795899 0.798624
vt 0.737021 0.324680
vt 0.732427 0.859066
vt 0.205573 0.970007
vt 0.205573 0.956864
vt 0.205573 0.575988
vt 0.205573 0.562845
vt 0.278450 0.942368
vt 0.127947 0.579020
vt 0.205573 0.563579
vt 0.283199 0.579020
vt 0.349007 0.622992
vt 0.392979 0.688800
vt 0.408419 0.766426
vt 0.392979 0.844052
vt 0.349007 0.909860
vt 0.283199 0.953832
vt 0.205573 0.969273
vt 0.127947 0.953832
vt 0.062138 0.909860
vt 0.018167 0.844052
vt 0.002726 0.766426
vt 0.018167 0.688800
vt 0.062138 0.622992
vt 0.132412 0.589800
vt 0.070389 0.631243
vt 0.028947 0.693265
vt 0.014395 0.766426
vt 0.028947 0.839586
vt 0.070389 0.901609
vt 0.132412 0.943051
vt 0.205573 0.957604
vt 0.278733 0.943051
vt 0.340756 0.901609
vt 0.382198 0.839586
vt 0.396751 0.766426
vt 0.382198 0.693265
vt 0.340756 0.631243
vt 0.278733 0.589800
vt 0.205573 0.575248
vt 0.630132 0.347550
vt 0.544182 0.409354
vt 0.490691 0.496274
vt 0.474575 0.594427
vt 0.496243 0.690087
vt 0.551486 0.770847
vt 0.632411 0.827780
vt 0.732493 0.857356
vt 0.839315 0.836196
vt 0.925264 0.774392
vt 0.978755 0.687472
vt 0.994871 0.589321
vt 0.973203 0.493661
vt 0.917961 0.412901
vt 0.837037 0.355967
vt 0.736955 0.326390
vt 0.395717 0.025985
vt 0.281032 0.003003
vt 0.173620 0.035035
vt 0.086661 0.095818
vt 0.027261 0.182281
vt 0.003950 0.284802
vt 0.021275 0.390013
vt 0.078794 0.483121
vt 0.171176 0.549152
vt 0.285861 0.572134
vt 0.393272 0.540104
vt 0.480232 0.479322
vt 0.539633 0.392858
vt 0.562944 0.290336
vt 0.545619 0.185125
vt 0.488100 0.092016
vn 0.224263 0.810291 0.541419
vn 0.224263 0.810291 0.541419
vn 0.224263 0.810291 0.541419
vn 0.224263 0.810291 0.541419
vn 0.541419 0.810291 0.224263
vn 0.541419 0.810291 0.224263
vn 0.541419 0.810291 0.224265
vn 0.541419 0.810291 0.224265
vn -0.541419 0.810291 0.224262
vn -0.541419 0.810291 0.224262
vn -0.541419 0.810291 0.224263
vn -0.541419 0.810291 0.224263
vn -0.224263 0.810291 0.541419
vn -0.224263 0.810291 0.541419
vn -0.224263 0.810291 0.541419
vn -0.224263 0.810291 0.541419
vn 0.325634 0.525289 0.786151
vn 0.325634 0.525289 0.786151
vn 0.325634 0.525289 0.786151
vn 0.325634 0.525289 0.786151
vn 0.786151 0.525289 0.325634
vn 0.786151 0.525289 0.325634
vn 0.786151 0.525289 0.325634
vn 0.786151 0.525289 0.325634
vn -0.786151 0.525289 0.325636
vn -0.786151 0.525289 0.325636
vn -0.786151 0.525289 0.325634
vn -0.786151 0.525289 0.325634
vn -0.325634 0.525289 0.786151
vn -0.325634 0.525289 0.786151
vn -0.325634 0.525289 0.786151
vn -0.325634 0.525289 0.786151
vn 0.376380 0.180744 0.908664
vn 0.376380 0.180744 0.908664
vn 0.376380 0.180744 0.908664
vn 0.376380 0.180744 0.908663
vn 0.908663 0.180744 0.376381
vn 0.908663 0.180744 0.376381
vn 0.908665 0.180744 0.376378
vn 0.908665 0.180744 0.376378
vn -0.908662 0.180744 0.376383
vn -0.908662 0.180744 0.376383
vn -0.908663 0.180745 0.376381
vn -0.908663 0.180745 0.376381
vn -0.376380 0.180744 0.908664
vn -0.376380 0.180744 0.908664
vn -0.376380 0.180744 0.908664
vn -0.376380 0.180744 0.908664
vn 0.376380 -0.180744 0.908664
vn 0.376380 -0.180744 0.908664
vn 0.376380 -0.180744 0.908663
vn 0.376380 -0.180744 0.908664
vn 0.908663 -0.180744 0.376381
vn 0.908663 -0.180744 0.376381
vn 0.908665 -0.180744 0.376378
vn 0.908665 -0.180744 0.376378
vn -0.908662 -0.180744 0.376383
vn -0.908662 -0.180744 0.376383
vn -0.908663 -0.180745 0.376380
vn -0.908663 -0.180745 0.376381
vn -0.376380 -0.180744 0.908664
vn -0.376380 -0.180744 0.908664
vn -0.376380 -0.180744 0.908664
vn -0.376380 -0.180744 0.908664
vn 0.325634 -0.525289 0.786151
vn 0.325634 -0.525289 0.786151
vn 0.325634 -0.525289 0.786151
vn 0.325634 -0.525289 0.786151
vn 0.786151 -0.525289 0.325634
vn 0.786151 -0.525289 0.325634
vn 0.786152 -0.525290 0.325632
vn 0.786152 -0.525290 0.325632
vn -0.786151 -0.525289 0.325635
vn -0.786151 -0.525289 0.325635
vn -0.786151 -0.525289 0.325634
vn -0.786151 -0.525289 0.325634
vn -0.325634 -0.525289 0.786151
vn -0.325634 -0.525289 0.786151
vn -0.325634 -0.525289 0.786151
vn -0.325634 -0.525289 0.786151
vn 0.224263 -0.810291 0.541419
vn 0.224263 -0.810291 0.541419
vn 0.224263 -0.810291 0.541419
vn 0.224263 -0.810291 0.541419
vn 0.541419 -0.810291 0.224263
vn 0.541419 -0.810291 0.224263
vn 0.541419 -0.810290 0.224265
vn 0.541419 -0.810291 0.224265
vn -0.541419 -0.810291 0.224263
vn -0.541419 -0.810291 0.224263
vn -0.541419 -0.810291 0.224263
vn -0.541419 -0.810291 0.224263
vn -0.224263 -0.810291 0.541419
vn -0.224263 -0.810291 0.541419
vn -0.224263 -0.810291 0.541419
vn -0.224263 -0.810291 0.541419
vn 0.138011 0.980775 0.137959
vn 0.138952 0.980622 0.138103
vn 0.191945 0.970484 0.146010
vn 0.191945 0.970484 0.146010
vn -0.138952 0.980622 0.138103
vn -0.138011 0.980775 0.137959
vn -0.191945 0.970484 0.146004
vn -0.191945 0.970484 0.146004
vn 0.191945 -0.970483 0.146011
vn 0.191945 -0.970483 0.146011
vn 0.138952 -0.980622 0.138103
vn 0.138011 -0.980775 0.137959
vn -0.191945 -0.970484 0.146010
vn -0.138011 -0.980775 0.137959
vn -0.138952 -0.980622 0.138103
vn -0.191945 -0.970484 0.146010
vn -0.224263 -0.810291 -0.541419
vn -0.224263 -0.810291 -0.541419
vn -0.224263 -0.810291 -0.541419
vn -0.224263 -0.810291 -0.541419
vn -0.541419 -0.810291 -0.224263
vn -0.541419 -0.810291 -0.224263
vn -0.541420 -0.810292 -0.224260
vn -0.541420 -0.810292 -0.224260
vn 0.541419 -0.810290 -0.224266
vn 0.541419 -0.810291 -0.224263
vn 0.541419 -0.810291 -0.224263
vn 0.541419 -0.810290 -0.224266
vn 0.224263 -0.810291 -0.541419
vn 0.224263 -0.810291 -0.541419
vn 0.224263 -0.810291 -0.541419
vn 0.224263 -0.810291 -0.541419
vn -0.325634 -0.525289 -0.786151
vn -0.325634 -0.525289 -0.786151
vn -0.325634 -0.525289 -0.786151
vn -0.325634 -0.525289 -0.786151
vn -0.786151 -0.525289 -0.325635
vn -0.786151 -0.525289 -0.325635
vn -0.786152 -0.525289 -0.325633
vn -0.786152 -0.525289 -0.325633
vn 0.786151 -0.525289 -0.325636
vn 0.786151 -0.525289 -0.325634
vn 0.786151 -0.525289 -0.325634
vn 0.786151 -0.525289 -0.325636
vn 0.325634 -0.525289 -0.786151
vn 0.325634 -0.525289 -0.786151
vn 0.325634 -0.525289 -0.786151
vn 0.325634 -0.525289 -0.786151
vn -0.376381 -0.180744 -0.908663
vn -0.376381 -0.180744 -0.908663
vn -0.376381 -0.180744 -0.908663
vn -0.376381 -0.180744 -0.908663
vn -0.908663 -0.180745 -0.376381
vn -0.908663 -0.180745 -0.376381
vn -0.908664 -0.180745 -0.376380
vn -0.908664 -0.180745 -0.376380
vn 0.908662 -0.180744 -0.376385
vn 0.908663 -0.180745 -0.376381
vn 0.908663 -0.180745 -0.376381
vn 0.908662 -0.180744 -0.376385
vn 0.376381 -0.180744 -0.908663
vn 0.376381 -0.180744 -0.908663
vn 0.376381 -0.180744 -0.908663
vn 0.376381 -0.180744 -0.908663
vn -0.376381 0.180744 -0.908663
vn -0.376381 0.180744 -0.908663
vn -0.376381 0.180744 -0.908663
vn -0.376381 0.180744 -0.908663
vn -0.908663 0.180745 -0.376381
vn -0.908663 0.180745 -0.376381
vn -0.908664 0.180745 -0.376380
vn -0.908664 0.180745 -0.376379
vn 0.908662 0.180745 -0.376385
vn 0.908663 0.180745 -0.376381
vn 0.908663 0.180745 -0.376381
vn 0.908662 0.180745 -0.376385
vn 0.376381 0.180744 -0.908663
vn 0.376381 0.180744 -0.908663
vn 0.376381 0.180744 -0.908663
vn 0.376381 0.180744 -0.908663
vn -0.325634 0.525289 -0.786151
vn -0.325634 0.525289 -0.786151
vn -0.325634 0.525289 -0.786151
vn -0.325634 0.525289 -0.786151
vn -0.786151 0.525289 -0.325635
vn -0.786151 0.525289 -0.325635
vn -0.786152 0.525289 -0.325633
vn -0.786152 0.525289 -0.325633
vn 0.786151 0.525289 -0.325636
vn 0.786151 0.525289 -0.325634
vn 0.786151 0.525289 -0.325634
vn 0.786151 0.525289 -0.325636
vn 0.325634 0.525289 -0.786151
vn 0.325634 0.525289 -0.786151
vn 0.325634 0.525289 -0.786151
vn 0.325634 0.525289 -0.786151
vn -0.224263 0.810291 -0.541419
vn -0.224263 0.810291 -0.541419
vn -0.224263 0.810291 -0.541419
vn -0.224263 0.810291 -0.541419
vn -0.541419 0.810291 -0.224263
vn -0.541419 0.810291 -0.224263
vn -0.541419 0.810291 -0.224262
vn -0.541419 0.810291 -0.224262
vn 0.541419 0.810290 -0.224266
vn 0.541419 0.810291 -0.224263
vn 0.541419 0.810291 -0.224263
vn 0.541419 0.810290 -0.224266
vn 0.224263 0.810291 -0.541419
vn 0.224263 0.810291 -0.541419
vn 0.224263 0.810291 -0.541419
vn 0.224263 0.810291 -0.541419
vn -0.138539 -0.980690 -0.138040
vn -0.137990 -0.980779 -0.137956
vn -0.192383 -0.970387 -0.146074
vn -0.192383 -0.970387 -0.146074
vn 0.137990 -0.980779 -0.137956
vn 0.138539 -0.980690 -0.138040
vn 0.192382 -0.970385 -0.146086
vn 0.192382 -0.970385 -0.146086
vn -0.192383 0.970389 -0.146062
vn -0.137990 0.980779 -0.137956
vn -0.138539 0.980690 -0.138039
vn -0.192383 0.970389 -0.146062
vn 0.192383 0.970386 -0.146084
vn 0.192383 0.970386 -0.146084
vn 0.138539 0.980690 -0.138040
vn 0.137990 0.980779 -0.137956
vn 0.000000 0.000000 1.000000
vn 0.000000 0.000000 1.000000
vn 0.000000 0.000000 1.000000
vn 0.000000 0.000000 1.000000
vn 0.000000 0.000000 1.000000
vn 0.000000 0.000000 1.000000
vn 0.000000 0.000000 1.000000
vn 0.000000 0.000000 1.000000
vn -0.000000 -0.000000 1.000000
vn -0.000000 -0.000000 1.000000
vn -0.000000 -0.000000 1.000000
vn -0.000000 -0.000000 1.000000
vn 0.000000 0.000000 1.000000
vn 0.000000 0.000000 1.000000
vn 0.000000 0.000000 1.000000
vn 0.000000 0.000000 1.000000
vn -0.000000 -0.000000 1.000000
vn -0.000000 -0.000000 1.000000
vn -0.000000 -0.000000 1.000000
vn -0.000000 -0.000000 1.000000
vn 0.000000 0.000000 1.000000
vn 0.000000 0.000000 1.000000
vn 0.000000 0.000000 1.000000
vn 0.000000 0.000000 1.000000
vn -0.000000 0.000000 1.000000
vn -0.000000 0.000000 1.000000
vn -0.000000 0.000000 1.000000
vn -0.000000 0.000000 1.000000
vn 0.000000 0.000000 1.000000
vn 0.000000 0.000000 1.000000
vn 0.000000 0.000000 1.000000
vn 0.000000 0.000000 1.000000
vn -0.000000 0.000000 1.000000
vn -0.000000 0.000000 1.000000
vn -0.000000 0.000000 1.000000
vn -0.000000 0.000000 1.000000
vn 0.000000 0.000000 1.000000
vn 0.000000 0.000000 1.000000
vn 0.000000 0.000000 1.000000
vn 0.000000 0.000000 1.000000
vn 0.000000 -0.000000 1.000000
vn 0.000000 -0.000000 1.000000
vn 0.000000 -0.000000 1.000000
vn 0.000000 -0.000000 1.000000
vn 0.000000 0.000000 1.000000
vn 0.000000 0.000000 1.000000
vn 0.000000 0.000000 1.000000
vn 0.000000 0.000000 1.000000
vn 0.000000 0.000000 1.000000
vn 0.000000 0.000000 1.000000
vn -0.000000 0.000000 1.000000
vn -0.000000 0.000000 1.000000
vn 0.000000 -0.000000 1.000000
vn 0.000000 -0.000000 1.000000
vn 0.000000 -0.000000 1.000000
vn 0.000000 -0.000000 1.000000
vn 0.000000 -0.000000 1.000000
vn 0.000000 -0.000000 1.000000
vn -0.000000 -0.000000 1.000000
vn -0.000000 -0.000000 1.000000
vn 0.000000 0.000000 1.000000
vn 0.000000 0.000000 1.000000
vn 0.000000 0.000000 1.000000
vn 0.000000 0.000000 1.000000
vn -0.000000 -0.000000 1.000000
vn -0.000000 -0.000000 1.000000
vn 0.000000 -0.000000 1.000000
vn 0.000000 -0.000000 1.000000
vn 0.000000 0.000000 1.000000
vn 0.000000 0.000000 1.000000
vn 0.000000 0.000000 1.000000
vn 0.000000 0.000000 1.000000
vn 0.000000 0.000000 1.000000
vn 0.000000 0.000000 1.000000
vn 0.000000 0.000000 1.000000
vn 0.000000 0.000000 1.000000
vn 0.000000 0.000000 1.000000
vn 0.000000 0.000000 1.000000
vn 0.000000 0.000000 1.000000
vn 0.000000 0.000000 1.000000
vn 0.000000 0.000000 1.000000
vn 0.000000 0.000000 1.000000
vn -0.000000 0.000000 1.000000
vn -0.000000 0.000000 1.000000
vn 0.000000 0.000000 1.000000
vn 0.000000 0.000000 1.000000
vn 0.000000 0.000000 1.000000
vn 0.000000 0.000000 1.000000
vn 0.000000 0.000000 1.000000
vn 0.000000 0.000000 1.000000
vn 0.000000 0.000000 1.000000
vn 0.000000 0.000000 1.000000
vn 0.000000 0.000000 1.000000
vn 0.000000 0.000000 1.000000
vn 0.000000 0.000000 1.000000
vn 0.000000 0.000000 1.000000
vn 0.000000 -0.000000 1.000000
vn 0.000000 -0.000000 1.000000
vn 0.000000 -0.000000 1.000000
vn 0.000000 -0.000000 1.000000
vn -0.000000 0.000000 1.000000
vn -0.000000 0.000000 1.000000
vn -0.000000 -0.000000 1.000000
vn -0.000000 -0.000000 1.000000
vn 0.000000 0.000000 1.000000
vn 0.000000 0.000000 1.000000
vn 0.000000 0.000000 1.000000
vn 0.000000 0.000000 1.000000
vn -0.000000 0.000000 1.000000
vn -0.000000 0.000000 1.000000
vn 0.000000 0.000000 1.000000
vn 0.000000 0.000000 1.000000
vn 0.000000 0.000000 1.000000
vn 0.000000 0.000000 1.000000
vn 0.000000 0.000000 1.000000
vn 0.000000 0.000000 1.000000
vn 0.000000 0.000000 1.000000
vn 0.000000 0.000000 1.000000
vn 0.000000 0.000000 1.000000
vn 0.000000 0.000000 1.000000
vn 0.000000 0.000000 1.000000
vn 0.000000 0.000000 1.000000
vn 0.000000 0.000000 1.000000
vn 0.000000 0.000000 1.000000
vn 0.000000 -0.000000 1.000000
vn 0.000000 -0.000000 1.000000
vn -0.000000 -0.000000 1.000000
vn -0.000000 -0.000000 1.000000
vn 0.541419 0.810291 0.224263
vn 0.541419 0.810291 0.224263
vn 0.786151 0.525289 0.325634
vn 0.786151 0.525289 0.325634
vn 0.908663 0.180744 0.376381
vn 0.908663 0.180744 0.376381
vn 0.908663 -0.180744 0.376381
vn 0.908663 -0.180744 0.376381
vn 0.786151 -0.525289 0.325634
vn 0.786151 -0.525289 0.325634
vn 0.541419 -0.810291 0.224263
vn 0.541419 -0.810291 0.224263
vn 0.136369 -0.981040 0.137708
vn 0.136369 -0.981040 0.137708
vn -0.136369 -0.981040 0.137709
vn -0.136369 -0.981040 0.137709
vn -0.541419 -0.810291 0.224263
vn -0.541419 -0.810291 0.224263
vn -0.786151 -0.525289 0.325634
vn -0.786151 -0.525289 0.325634
vn -0.908663 -0.180745 0.376380
vn -0.908664 -0.180745 0.376380
vn -0.908663 0.180745 0.376380
vn -0.908663 0.180745 0.376380
vn -0.786151 0.525289 0.325634
vn -0.786151 0.525289 0.325634
vn -0.541419 0.810291 0.224263
vn -0.541419 0.810291 0.224263
vn -0.136369 0.981040 0.137709
vn -0.136369 0.981040 0.137709
vn 0.136369 0.981040 0.137708
vn 0.136369 0.981040 0.137708
vn -0.137029 -0.980934 -0.137809
vn -0.137029 -0.980934 -0.137809
vn 0.137029 -0.980934 -0.137809
vn 0.137029 -0.980934 -0.137809
vn 0.541419 -0.810291 -0.224263
vn 0.541419 -0.810291 -0.224263
vn 0.786151 -0.525289 -0.325634
vn 0.786151 -0.525289 -0.325634
vn 0.908663 -0.180745 -0.376381
vn 0.908663 -0.180745 -0.376381
vn 0.908663 0.180745 -0.376381
vn 0.908663 0.180745 -0.376381
vn 0.786151 0.525289 -0.325634
vn 0.786151 0.525289 -0.325634
vn 0.541419 0.810291 -0.224263
vn 0.541419 0.810291 -0.224263
vn 0.137029 0.980934 -0.137809
vn 0.137029 0.980934 -0.137809
vn -0.137029 0.980934 -0.137809
vn -0.137029 0.980934 -0.137809
vn -0.541419 0.810291 -0.224263
vn -0.541419 0.810291 -0.224263
vn -0.786151 0.525289 -0.325635
vn -0.786151 0.525289 -0.325635
vn -0.908663 0.180745 -0.376381
vn -0.908663 0.180745 -0.376381
vn -0.908663 -0.180745 -0.376381
vn -0.908663 -0.180745 -0.376381
vn -0.786151 -0.525289 -0.325635
vn -0.786151 -0.525289 -0.325635
vn -0.541419 -0.810291 -0.224263
vn -0.541419 -0.810291 -0.224263
s off
g membrane
usemtl phong1SG
f 38/1/1 41/2/2 40/5/3 39/6/4
s 1
f 107/139/5 108/140/6 43/7/7 42/8/8
s 2
f 44/11/9 47/12/10 120/152/11 121/153/12
s off
f 45/14/13 46/13/14 41/2/15 38/1/16
f 41/2/17 49/17/18 48/18/19 40/5/20
s 3
f 108/140/21 109/141/22 50/19/23 43/7/24
s 4
f 47/12/25 52/20/26 119/151/27 120/152/28
s off
f 46/13/29 51/23/30 49/17/31 41/2/32
f 49/17/33 54/24/34 53/25/35 48/18/36
s 5
f 109/141/37 110/142/38 55/26/39 50/19/40
s 6
f 52/20/41 57/29/42 118/150/43 119/151/44
s off
f 51/23/45 56/30/46 54/24/47 49/17/48
f 54/24/49 59/31/50 58/32/51 53/25/52
s 7
f 110/142/53 111/143/54 60/35/55 55/26/56
s 8
f 57/29/57 62/36/58 117/149/59 118/150/60
s off
f 56/30/61 61/37/62 59/31/63 54/24/64
f 59/31/65 64/38/66 63/41/67 58/32/68
s 9
f 111/143/69 112/144/70 65/42/71 60/35/72
s 10
f 62/36/73 67/43/74 116/148/75 117/149/76
s off
f 61/37/77 66/48/78 64/38/79 59/31/80
f 64/38/81 69/95/82 68/96/83 63/41/84
s 11
f 112/144/85 113/145/86 70/97/87 65/42/88
s 12
f 67/43/89 72/98/90 115/147/91 116/148/92
s off
f 66/48/93 71/99/94 69/95/95 64/38/96
s 13
f 122/154/97 107/139/98 42/8/99 73/100/100
s 14
f 121/153/101 122/154/102 73/100/103 44/11/104
s 15
f 74/101/105 70/97/106 113/145/107 114/146/108
s 16
f 74/101/109 114/146/110 115/147/111 72/98/112
s off
f 1/49/113 2/50/114 7/51/115 6/52/116
s 17
f 138/170/117 123/155/118 3/53/119 8/54/120
s 18
f 4/55/121 125/157/122 126/158/123 9/58/124
s off
f 5/56/125 1/49/126 6/52/127 10/57/128
f 6/52/129 7/51/130 12/59/131 11/60/132
s 19
f 137/169/133 138/170/134 8/54/135 13/61/136
s 20
f 9/58/137 126/158/138 127/159/139 14/63/140
s off
f 10/57/141 6/52/142 11/60/143 15/62/144
f 11/60/145 12/59/146 17/64/147 16/65/148
s 21
f 136/168/149 137/169/150 13/61/151 18/66/152
s 22
f 14/63/153 127/159/154 128/160/155 19/68/156
s off
f 15/62/157 11/60/158 16/65/159 20/67/160
f 16/65/161 17/64/162 22/69/163 21/70/164
s 23
f 135/167/165 136/168/166 18/66/167 23/71/168
s 24
f 19/68/169 128/160/170 129/161/171 24/73/172
s off
f 20/67/173 16/65/174 21/70/175 25/72/176
f 21/70/177 22/69/178 27/74/179 26/75/180
s 25
f 134/166/181 135/167/182 23/71/183 28/76/184
s 26
f 24/73/185 129/161/186 130/162/187 29/78/188
s off
f 25/72/189 21/70/190 26/75/191 30/77/192
f 26/75/193 27/74/194 32/79/195 31/80/196
s 27
f 133/165/197 134/166/198 28/76/199 33/81/200
s 28
f 29/78/201 130/162/202 131/163/203 34/83/204
s off
f 30/77/205 26/75/206 31/80/207 35/82/208
s 29
f 123/155/209 124/156/210 36/84/211 3/53/212
s 30
f 124/156/213 125/157/214 4/55/215 36/84/216
s 31
f 37/85/217 132/164/218 133/165/219 33/81/220
s 32
f 37/85/221 34/83/222 131/163/223 132/164/224
s 33
f 90/122/225 75/107/226 91/123/227 92/124/228
s 34
f 77/109/229 78/110/230 104/136/231 105/137/232
s 35
f 89/121/233 90/122/234 92/124/235 93/125/236
s 36
f 78/110/237 79/111/238 103/135/239 104/136/240
s 37
f 88/120/241 89/121/242 93/125/243 94/126/244
s 38
f 79/111/245 80/112/246 102/134/247 103/135/248
s 39
f 87/119/249 88/120/250 94/126/251 95/127/252
s 40
f 80/112/253 81/113/254 101/133/255 102/134/256
s 41
f 86/118/257 87/119/258 95/127/259 96/128/260
s 42
f 81/113/261 82/114/262 100/132/263 101/133/264
s 43
f 85/117/265 86/118/266 96/128/267 97/129/268
s 44
f 82/114/269 83/115/270 99/131/271 100/132/272
s 45
f 75/107/273 76/108/274 106/138/275 91/123/276
s 46
f 76/108/277 77/109/278 105/137/279 106/138/280
s 47
f 84/116/281 85/117/282 97/129/283 98/130/284
s 48
f 83/115/285 84/116/286 98/130/287 99/131/288
s 45
f 36/105/289 76/108/274 75/107/273 3/3/290
s 46
f 4/22/291 77/109/278 76/108/277 36/105/292
s 34
f 9/15/293 78/110/230 77/109/229 4/22/294
s 36
f 14/33/295 79/111/238 78/110/237 9/15/296
s 38
f 19/44/297 80/112/246 79/111/245 14/33/298
s 40
f 24/92/299 81/113/254 80/112/253 19/44/300
s 42
f 29/86/301 82/114/262 81/113/261 24/92/302
s 44
f 34/94/303 83/115/270 82/114/269 29/86/304
s 48
f 37/102/305 84/116/286 83/115/285 34/94/306
s 47
f 33/93/307 85/117/282 84/116/281 37/102/308
s 43
f 28/87/309 86/118/266 85/117/265 33/93/310
s 41
f 23/47/311 87/119/258 86/118/257 28/87/312
s 39
f 18/40/313 88/120/250 87/119/249 23/47/314
s 37
f 13/28/315 89/121/242 88/120/241 18/40/316
s 35
f 8/10/317 90/122/234 89/121/233 13/28/318
s 33
f 3/3/319 75/107/226 90/122/225 8/10/320
f 92/124/228 91/123/227 42/4/321 43/9/322
s 35
f 93/125/236 92/124/235 43/9/323 50/27/324
s 37
f 94/126/244 93/125/243 50/27/325 55/39/326
s 39
f 95/127/252 94/126/251 55/39/327 60/46/328
s 41
f 96/128/260 95/127/259 60/46/329 65/88/330
s 43
f 97/129/268 96/128/267 65/88/331 70/91/332
s 47
f 98/130/284 97/129/283 70/91/333 74/103/334
s 48
f 99/131/288 98/130/287 74/103/335 72/106/336
s 44
f 100/132/272 99/131/271 72/106/337 67/90/338
s 42
f 101/133/264 100/132/263 67/90/339 62/89/340
s 40
f 102/134/256 101/133/255 62/89/341 57/45/342
s 38
f 103/135/248 102/134/247 57/45/343 52/34/344
s 36
f 104/136/240 103/135/239 52/34/345 47/16/346
s 34
f 105/137/232 104/136/231 47/16/347 44/21/348
s 46
f 106/138/280 105/137/279 44/21/349 73/104/350
s 45
f 91/123/276 106/138/275 73/104/351 42/4/352
s 1
f 39/6/353 40/5/354 108/140/6 107/139/5
s 3
f 40/5/355 48/18/356 109/141/22 108/140/21
s 5
f 48/18/357 53/25/358 110/142/38 109/141/37
s 7
f 53/25/359 58/32/360 111/143/54 110/142/53
s 9
f 58/32/361 63/41/362 112/144/70 111/143/69
s 11
f 63/41/363 68/96/364 113/145/86 112/144/85
s 15
f 114/146/108 113/145/107 68/96/365 69/95/366
s 16
f 115/147/111 114/146/110 69/95/367 71/99/368
s 12
f 116/148/92 115/147/91 71/99/369 66/48/370
s 10
f 117/149/76 116/148/75 66/48/371 61/37/372
s 8
f 118/150/60 117/149/59 61/37/373 56/30/374
s 6
f 119/151/44 118/150/43 56/30/375 51/23/376
s 4
f 120/152/28 119/151/27 51/23/377 46/13/378
s 2
f 121/153/12 120/152/11 46/13/379 45/14/380
s 14
f 45/14/381 38/1/382 122/154/102 121/153/101
s 13
f 39/6/383 107/139/98 122/154/97 38/1/384
s 29
f 2/50/385 1/49/386 124/156/210 123/155/209
s 30
f 5/56/387 125/157/214 124/156/213 1/49/388
s 18
f 126/158/123 125/157/122 5/56/389 10/57/390
s 20
f 127/159/139 126/158/138 10/57/391 15/62/392
s 22
f 128/160/155 127/159/154 15/62/393 20/67/394
s 24
f 129/161/171 128/160/170 20/67/395 25/72/396
s 26
f 130/162/187 129/161/186 25/72/397 30/77/398
s 28
f 131/163/203 130/162/202 30/77/399 35/82/400
s 32
f 132/164/224 131/163/223 35/82/401 31/80/402
s 31
f 133/165/219 132/164/218 31/80/403 32/79/404
s 27
f 27/74/405 134/166/198 133/165/197 32/79/406
s 25
f 22/69/407 135/167/182 134/166/181 27/74/408
s 23
f 17/64/409 136/168/166 135/167/165 22/69/410
s 21
f 12/59/411 137/169/150 136/168/149 17/64/412
s 19
f 7/51/413 138/170/134 137/169/133 12/59/414
s 17
f 2/50/415 123/155/118 138/170/117 7/51/416
