newmtl phong1SG
illum 4
Kd 0.00 1.00 1.00
Ka 0.00 0.00 0.00
Tf 1.00 1.00 1.00
Ni 1.00
Ks 0.11 0.11 0.11
Ns 0.00
newmtl phong2SG
illum 4
Kd 0.50 0.50 0.50
Ka 0.00 0.00 0.00
Tf 1.00 1.00 1.00
Ni 1.00
Ks 0.06 0.06 0.06
Ns 23.06
