# This file uses centimeters as units for non-parametric coordinates.

mtllib vem35_tcell_cytoplasm_01.mtl
g default
v 0.000000 -8.470983 -3.269236
v -2.615192 -8.227319 -2.632789
v -3.512555 -8.486044 -0.007327
v 3.512556 -8.486044 -0.007327
v 2.615193 -8.227320 -2.632789
v 0.000000 -6.501496 -6.025434
v -4.255874 -6.501496 -4.272096
v -6.490356 -6.495108 -0.011471
v 6.490356 -6.495108 -0.011471
v 4.255875 -6.501496 -4.272097
v 0.000000 -3.518584 -7.872610
v -5.560568 -3.518585 -5.581762
v -8.480058 -3.515127 -0.014987
v 8.480059 -3.515127 -0.014987
v 5.560568 -3.518584 -5.581763
v 0.000000 0.000000 -8.521251
v -6.018714 0.000000 -6.041656
v -9.178748 0.000000 -0.016222
v 9.178749 0.000000 -0.016222
v 6.018715 0.000000 -6.041656
v 0.000000 3.518585 -7.872610
v -5.560568 3.518585 -5.581763
v -8.480058 3.515127 -0.014987
v 8.480059 3.515127 -0.014987
v 5.560568 3.518585 -5.581763
v 0.000000 6.501496 -6.025435
v -4.255874 6.501496 -4.272097
v -6.490356 6.495108 -0.011471
v 6.490356 6.495108 -0.011471
v 4.255875 6.501496 -4.272097
v 0.000000 8.470982 -3.269236
v -2.615193 8.227319 -2.632789
v -3.512556 8.486044 -0.007327
v 3.512556 8.486044 -0.007327
v 2.615193 8.227319 -2.632789
v 0.000000 -9.184133 -0.008294
v 0.000000 9.184134 -0.008294
v 0.000001 0.000000 0.000000
v -0.950747 0.950745 0.000000
v -0.514540 1.242209 -0.000000
v 0.000001 1.344559 -0.000000
v 0.514541 1.242209 -0.000000
v 0.950748 0.950745 0.000000
v 1.242211 0.514540 0.000000
v 1.344558 -0.000000 0.000000
v 1.242211 -0.514540 0.000000
v 0.950748 -0.950745 0.000000
v 0.514541 -1.242209 0.000000
v 0.000001 -1.344559 0.000000
v -0.514540 -1.242209 0.000000
v -0.950747 -0.950745 0.000000
v -1.242209 -0.514540 0.000000
v -1.344556 -0.000000 0.000000
v -1.242210 0.514540 0.000000
v -8.024123 -0.000000 0.000000
v -7.413324 -3.070700 0.000000
v -5.673913 -5.673913 0.000000
v -3.070700 -7.413325 0.000000
v 0.000000 -8.024124 0.000000
v 3.070700 -7.413324 0.000000
v 5.673913 -5.673913 0.000000
v 7.413325 -3.070700 0.000000
v 8.024125 0.000000 0.000000
v 7.413325 3.070700 0.000000
v 5.673913 5.673913 0.000000
v 3.070700 7.413325 -0.000000
v 0.000000 8.024125 -0.000000
v -3.070700 7.413324 -0.000000
v -5.673913 5.673913 0.000000
v -7.413324 3.070700 0.000000
v -3.374335 -8.482130 -0.411006
v 0.000000 -9.119605 -0.465291
v 3.374335 -8.482130 -0.411006
v 6.234958 -6.501496 -0.643480
v 8.146365 -3.518585 -0.840747
v 8.817563 0.000000 -0.910018
v 8.146365 3.518585 -0.840747
v 6.234958 6.501496 -0.643480
v 3.374335 8.482131 -0.411006
v 0.000000 9.119605 -0.465291
v -3.374335 8.482130 -0.411006
v -6.234957 6.501496 -0.643481
v -8.146363 3.518585 -0.840748
v -8.817560 0.000000 -0.910019
v -8.146363 -3.518585 -0.840748
v -6.234957 -6.501496 -0.643481
v 1.792152 -0.356481 0.000000
v 4.336402 -1.796197 0.000000
v 7.868463 -1.565135 0.000000
v 4.693687 0.000000 0.000000
v -1.792151 0.356481 0.000000
v -4.336401 1.796197 0.000000
v -7.868462 1.565134 0.000000
v -4.693686 0.000000 0.000000
v -7.868462 -1.565134 0.000000
v -4.336401 -1.796197 0.000000
v -1.792151 -0.356481 0.000000
v -6.670559 -4.457127 0.000000
v -3.318938 -3.318938 0.000000
v -1.519313 -1.015172 0.000000
v 7.868463 1.565135 0.000000
v 4.336402 1.796197 0.000000
v 1.792152 0.356481 0.000000
v -1.565135 -7.868462 0.000000
v 0.000000 -4.693688 0.000000
v -0.356481 -1.792152 0.000000
v -1.796197 -4.336401 0.000000
v 6.670560 4.457127 0.000000
v 1.519315 1.015172 0.000000
v -1.565135 7.868463 -0.000000
v -1.796197 4.336401 -0.000000
v -0.356481 1.792152 -0.000000
v 0.000000 4.693688 -0.000000
v -4.457126 -6.670560 0.000000
v -1.015173 -1.519312 0.000000
v 1.519315 -1.015172 0.000000
v 3.318940 -3.318938 0.000000
v 6.670560 -4.457127 0.000000
v 1.565135 7.868462 -0.000000
v 0.356482 1.792152 -0.000000
v -4.457126 6.670560 0.000000
v -3.318938 3.318938 0.000000
v -1.015173 1.519312 0.000000
v 1.565135 -7.868463 0.000000
v 1.796197 -4.336401 0.000000
v 0.356482 -1.792152 0.000000
v -1.519313 1.015172 0.000000
v -6.670559 4.457127 0.000000
v 4.457127 -6.670560 0.000000
v 1.015174 -1.519312 0.000000
v -0.120949 0.120948 0.000000
v -0.065457 0.158026 -0.000000
v 0.000001 0.171047 -0.000000
v 0.065458 0.158026 -0.000000
v 0.120950 0.120948 0.000000
v 0.158028 0.065457 0.000000
v 0.171047 0.000000 0.000000
v 0.158028 -0.065457 0.000000
v 0.120950 -0.120948 0.000000
v 0.065458 -0.158026 0.000000
v 0.000001 -0.171047 0.000000
v -0.065457 -0.158026 0.000000
v -0.120949 -0.120948 0.000000
v -0.158026 -0.065457 0.000000
v -0.171046 0.000000 0.000000
v -0.158026 0.065457 0.000000
v -8.461225 -3.504754 0.000000
v -9.158363 -0.000000 0.000000
v -6.475941 -6.475942 0.000000
v -3.504755 -8.461225 0.000000
v 0.000000 -9.158363 0.000000
v 3.504755 -8.461225 0.000000
v 6.475941 -6.475942 0.000000
v 8.461224 -3.504754 0.000000
v 9.158364 0.000000 0.000000
v 8.461225 3.504754 0.000000
v 6.475941 6.475942 0.000000
v 3.504755 8.461225 0.000000
v 0.000000 9.158363 0.000000
v -3.504755 8.461225 0.000000
v -6.475941 6.475942 0.000000
v -8.461224 3.504754 0.000000
v 0.000000 -8.921613 -1.695278
v -2.993014 -8.449132 -1.497492
v 2.993015 -8.449132 -1.497491
v 5.530369 -6.501497 -2.344509
v 7.225776 -3.518584 -3.063248
v 7.821124 0.000000 -3.315636
v 7.225776 3.518584 -3.063248
v 5.530369 6.501497 -2.344508
v 2.993015 8.449132 -1.497491
v 0.000000 8.921613 -1.695278
v -2.993014 8.449132 -1.497491
v -5.530368 6.501497 -2.344509
v -7.225773 3.518584 -3.063248
v -7.821121 0.000000 -3.315636
v -7.225773 -3.518584 -3.063248
v -5.530368 -6.501497 -2.344509
v -1.466874 -8.449132 -3.010939
v -3.343190 -7.643512 -3.355933
v -2.298626 -6.501497 -5.549373
v 0.000000 -7.643512 -4.733263
v -4.897852 -7.643512 -0.505484
v -3.508299 -8.493724 -0.029306
v -5.098480 -7.636002 -0.009011
v -6.482490 -6.501497 -0.045883
v 3.508300 -8.493724 -0.029306
v 4.897853 -7.643512 -0.505484
v 6.482491 -6.501497 -0.045882
v 5.098481 -7.636001 -0.009011
v 1.466875 -8.449132 -3.010939
v 2.298626 -6.501497 -5.549374
v 3.343190 -7.643512 -3.355933
v -5.003437 -5.107233 -5.022508
v -3.003299 -3.518584 -7.250605
v 0.000000 -5.107233 -7.083828
v -7.330153 -5.107233 -0.756511
v -7.630414 -5.102213 -0.013486
v -8.469781 -3.518584 -0.059949
v 7.330154 -5.107233 -0.756510
v 8.469783 -3.518584 -0.059948
v 7.630415 -5.102214 -0.013485
v 3.003299 -3.518584 -7.250606
v 5.003438 -5.107233 -5.022508
v -5.901956 -1.793421 -5.924452
v -3.250748 0.000000 -7.847999
v 0.000000 -1.793421 -8.355945
v -8.646506 -1.793421 -0.892365
v -9.000688 -1.791659 -0.015907
v -9.167625 0.000000 -0.064888
v 8.646508 -1.793421 -0.892365
v 9.167627 0.000000 -0.064888
v 9.000689 -1.791659 -0.015907
v 3.250748 0.000000 -7.847999
v 5.901957 -1.793421 -5.924453
v -5.901956 1.793421 -5.924452
v -3.003299 3.518584 -7.250605
v 0.000000 1.793421 -8.355945
v -8.646506 1.793421 -0.892365
v -9.000687 1.791659 -0.015907
v -8.469782 3.518584 -0.059949
v 8.646508 1.793421 -0.892365
v 8.469783 3.518584 -0.059948
v 9.000690 1.791659 -0.015907
v 3.003299 3.518584 -7.250606
v 5.901957 1.793421 -5.924453
v -5.003437 5.107233 -5.022508
v -2.298626 6.501497 -5.549373
v 0.000000 5.107233 -7.083828
v -7.330153 5.107233 -0.756511
v -7.630414 5.102214 -0.013486
v -6.482490 6.501497 -0.045883
v 7.330154 5.107233 -0.756510
v 6.482491 6.501497 -0.045882
v 7.630415 5.102213 -0.013485
v 2.298626 6.501497 -5.549374
v 5.003438 5.107233 -5.022508
v -3.343190 7.643512 -3.355933
v -1.466874 8.449132 -3.010939
v 0.000000 7.643512 -4.733263
v -4.897853 7.643512 -0.505484
v -5.098480 7.636001 -0.009011
v -3.508299 8.493724 -0.029306
v 4.897853 7.643512 -0.505484
v 3.508299 8.493724 -0.029306
v 5.098480 7.636002 -0.009011
v 1.466875 8.449132 -3.010939
v 3.343190 7.643512 -3.355933
v -1.719898 -8.966205 -0.428529
v 0.000000 -9.189163 -0.033177
v -1.790348 -9.006386 -0.007639
v 1.719898 -8.966205 -0.428529
v 1.790349 -9.006387 -0.007639
v 0.000000 9.189163 -0.033177
v -1.719898 8.966205 -0.428529
v -1.790348 9.006387 -0.007639
v 1.790348 9.006386 -0.007639
v 1.719898 8.966205 -0.428529
v 4.457126 6.670560 0.000000
v 1.796197 4.336401 -0.000000
v 1.015174 1.519312 0.000000
v 3.318939 3.318938 0.000000
v -1.805679 -7.643512 -4.359294
v -5.092302 -7.643512 -0.036043
v 5.092302 -7.643512 -0.036043
v 1.805679 -7.643512 -4.359295
v -2.702389 -5.107232 -6.524145
v -7.621168 -5.107232 -0.053942
v 7.621169 -5.107232 -0.053942
v 2.702390 -5.107232 -6.524145
v -3.187685 -1.793421 -7.695754
v -8.989779 -1.793421 -0.063629
v 8.989781 -1.793421 -0.063629
v 3.187686 -1.793421 -7.695754
v -3.187685 1.793421 -7.695754
v -8.989779 1.793421 -0.063629
v 8.989780 1.793421 -0.063629
v 3.187686 1.793421 -7.695754
v -2.702389 5.107232 -6.524145
v -7.621167 5.107232 -0.053942
v 7.621169 5.107232 -0.053942
v 2.702390 5.107232 -6.524145
v -1.805679 7.643512 -4.359294
v -5.092302 7.643512 -0.036043
v 5.092303 7.643512 -0.036043
v 1.805679 7.643512 -4.359295
v -1.788179 -9.012577 -0.030556
v 1.788179 -9.012576 -0.030556
v -1.788179 9.012576 -0.030556
v 1.788179 9.012576 -0.030556
v 2.607183 3.901923 0.000000
v 4.602633 -0.915521 0.000000
v -4.602632 0.915521 0.000000
v -4.602632 -0.915521 0.000000
v -3.901924 -2.607182 0.000000
v 4.602633 0.915521 0.000000
v -0.915521 -4.602633 0.000000
v 3.901925 2.607182 0.000000
v -0.915521 4.602633 -0.000000
v -2.607183 -3.901923 0.000000
v 3.901925 -2.607182 0.000000
v 0.915521 4.602633 -0.000000
v -2.607183 3.901923 0.000000
v 0.915521 -4.602633 0.000000
v -3.901924 2.607182 0.000000
v 2.607183 -3.901923 0.000000
v -0.098189 0.146948 0.000000
v -0.034479 0.173339 -0.000000
v 0.034480 0.173339 -0.000000
v 0.098190 0.146948 0.000000
v 0.146951 0.098188 0.000000
v 0.173338 0.034479 0.000000
v 0.173338 -0.034479 0.000000
v 0.146951 -0.098188 0.000000
v 0.098190 -0.146948 0.000000
v 0.034480 -0.173339 0.000000
v -0.034479 -0.173339 0.000000
v -0.098189 -0.146948 0.000000
v -0.146950 -0.098188 0.000000
v -0.173337 -0.034479 0.000000
v -0.173337 0.034479 0.000000
v -0.146950 0.098188 0.000000
v -8.980698 -1.786372 0.000000
v -7.613468 -5.087157 0.000000
v -5.087157 -7.613468 0.000000
v -1.786372 -8.980698 0.000000
v 1.786372 -8.980698 0.000000
v 5.087157 -7.613468 0.000000
v 7.613468 -5.087157 0.000000
v 8.980698 -1.786372 0.000000
v 8.980699 1.786372 0.000000
v 7.613468 5.087157 0.000000
v 5.087157 7.613468 0.000000
v 1.786372 8.980698 0.000000
v -1.786372 8.980698 0.000000
v -5.087157 7.613468 0.000000
v -7.613468 5.087157 0.000000
v -8.980698 1.786372 0.000000
v -1.525538 -8.834209 -1.561337
v 1.525538 -8.834209 -1.561337
v 4.344366 -7.643512 -1.841722
v 6.501802 -5.107232 -2.756331
v 7.669399 -1.793421 -3.251315
v 7.669399 1.793421 -3.251315
v 6.501802 5.107232 -2.756331
v 4.344366 7.643512 -1.841722
v 1.525538 8.834209 -1.561337
v -1.525538 8.834209 -1.561337
v -4.344365 7.643512 -1.841722
v -6.501801 5.107232 -2.756331
v -7.669397 1.793421 -3.251315
v -7.669397 -1.793421 -3.251315
v -6.501801 -5.107232 -2.756331
v -4.344365 -7.643512 -1.841722
vt 0.305037 0.106000
vt 0.392490 0.122297
vt 0.469452 0.102666
vt 0.651858 0.532539
vt 0.140561 0.102666
vt 0.837033 0.532539
vt 0.217582 0.122297
vt 0.305048 0.203339
vt 0.418939 0.203339
vt 0.550660 0.203339
vt 0.573366 0.584985
vt 0.059519 0.203339
vt 0.915525 0.584985
vt 0.191177 0.203339
vt 0.305042 0.304013
vt 0.435872 0.304013
vt 0.594149 0.304013
vt 0.520919 0.663477
vt 0.015959 0.304013
vt 0.967972 0.663477
vt 0.174224 0.304013
vt 0.305025 0.404687
vt 0.440954 0.404687
vt 0.608081 0.404687
vt 0.502502 0.756065
vt 0.001969 0.404687
vt 0.986389 0.756065
vt 0.169096 0.404687
vt 0.305008 0.505360
vt 0.435826 0.505360
vt 0.594091 0.505360
vt 0.520919 0.848652
vt 0.015900 0.505360
vt 0.967972 0.848652
vt 0.174178 0.505360
vt 0.305001 0.606034
vt 0.418873 0.606034
vt 0.550531 0.606034
vt 0.573366 0.927144
vt 0.059390 0.606034
vt 0.915525 0.927144
vt 0.191110 0.606034
vt 0.305013 0.703373
vt 0.392468 0.687076
vt 0.469489 0.706708
vt 0.651858 0.979591
vt 0.140597 0.706708
vt 0.837033 0.979591
vt 0.217560 0.687076
vt 0.305026 0.001992
vt 0.744445 0.514122
vt 0.305024 0.807381
vt 0.744445 0.998008
vt 0.744446 0.756065
vt 0.607265 0.893245
vt 0.670204 0.935299
vt 0.744445 0.950067
vt 0.818687 0.935299
vt 0.881625 0.893245
vt 0.923680 0.830306
vt 0.938447 0.756065
vt 0.923680 0.681824
vt 0.881625 0.618885
vt 0.818687 0.576831
vt 0.744445 0.562063
vt 0.670204 0.576831
vt 0.607265 0.618885
vt 0.565211 0.681824
vt 0.550444 0.756065
vt 0.565211 0.830306
vt 0.511473 0.756065
vt 0.529207 0.666910
vt 0.579709 0.591328
vt 0.655291 0.540826
vt 0.744445 0.523092
vt 0.833600 0.540826
vt 0.909182 0.591328
vt 0.959684 0.666910
vt 0.977418 0.756065
vt 0.959684 0.845220
vt 0.909182 0.920802
vt 0.833600 0.971304
vt 0.744445 0.989038
vt 0.655290 0.971304
vt 0.579709 0.920802
vt 0.529207 0.845220
vt 0.448191 0.104427
vt 0.305023 0.037729
vt 0.161853 0.104427
vt 0.082222 0.203339
vt 0.041771 0.304013
vt 0.028932 0.404687
vt 0.041713 0.505360
vt 0.082128 0.606034
vt 0.161859 0.704946
vt 0.305027 0.771644
vt 0.448197 0.704946
vt 0.527827 0.606034
vt 0.568279 0.505360
vt 0.581118 0.404687
vt 0.568337 0.304013
vt 0.527922 0.203339
vt 0.354324 0.153003
vt 0.508994 0.153003
vt 0.101102 0.153003
vt 0.255767 0.153003
vt 0.365776 0.253676
vt 0.570948 0.253676
vt 0.039195 0.253676
vt 0.244324 0.253676
vt 0.370434 0.354350
vt 0.599465 0.354350
vt 0.010613 0.354350
vt 0.239636 0.354350
vt 0.370414 0.455023
vt 0.599437 0.455023
vt 0.010584 0.455023
vt 0.239615 0.455023
vt 0.365725 0.555697
vt 0.570855 0.555697
vt 0.039101 0.555697
vt 0.244274 0.555697
vt 0.354283 0.656371
vt 0.508947 0.656371
vt 0.101056 0.656371
vt 0.255726 0.656371
vt 0.386832 0.052831
vt 0.223200 0.052831
vt 0.386849 0.756542
vt 0.223217 0.756542
vt 0.869169 0.942727
vt 0.964629 0.712268
vt 0.524262 0.799862
vt 0.524262 0.712268
vt 0.557783 0.631341
vt 0.964629 0.799862
vt 0.700648 0.535882
vt 0.931108 0.880789
vt 0.700648 0.976248
vt 0.619722 0.569403
vt 0.931108 0.631341
vt 0.788243 0.976248
vt 0.619722 0.942727
vt 0.788243 0.535882
vt 0.557783 0.880789
vt 0.869169 0.569403
vt 0.665345 0.874447
vt 0.716669 0.895706
vt 0.772222 0.895706
vt 0.823546 0.874447
vt 0.862827 0.835165
vt 0.884086 0.783841
vt 0.884086 0.728289
vt 0.862827 0.676965
vt 0.823546 0.637683
vt 0.772222 0.616424
vt 0.716669 0.616424
vt 0.665345 0.637683
vt 0.626064 0.676965
vt 0.604805 0.728289
vt 0.604805 0.783841
vt 0.626064 0.835165
vt 0.512626 0.709953
vt 0.547918 0.624749
vt 0.613130 0.559537
vt 0.698334 0.524245
vt 0.790557 0.524245
vt 0.875761 0.559537
vt 0.940973 0.624750
vt 0.976265 0.709953
vt 0.976265 0.802177
vt 0.940973 0.887380
vt 0.875761 0.952592
vt 0.790557 0.987885
vt 0.698333 0.987885
vt 0.613130 0.952592
vt 0.547918 0.887380
vt 0.512626 0.802177
vt 0.366447 0.078000
vt 0.243604 0.078000
vt 0.154328 0.153003
vt 0.112128 0.253676
vt 0.093251 0.354350
vt 0.093224 0.455023
vt 0.112050 0.555697
vt 0.154282 0.656371
vt 0.243602 0.731374
vt 0.366445 0.731374
vt 0.455722 0.656371
vt 0.497922 0.555697
vt 0.516799 0.455023
vt 0.516826 0.354350
vt 0.498000 0.253676
vt 0.455768 0.153003
vt 0.353427 0.109083
vt 0.404325 0.153003
vt 0.361114 0.203339
vt 0.305044 0.153003
vt 0.495156 0.153003
vt 0.458276 0.102791
vt 0.510056 0.153003
vt 0.612612 0.558762
vt 0.544660 0.203339
vt 0.151763 0.102791
vt 0.114940 0.153003
vt 0.065489 0.203339
vt 0.100040 0.153003
vt 0.876279 0.558762
vt 0.256643 0.109083
vt 0.248989 0.203339
vt 0.205769 0.153003
vt 0.429198 0.253676
vt 0.368739 0.304013
vt 0.305047 0.253676
vt 0.551983 0.253676
vt 0.572404 0.253676
vt 0.547143 0.624231
vt 0.588877 0.304013
vt 0.058156 0.253676
vt 0.021232 0.304013
vt 0.037739 0.253676
vt 0.941748 0.624231
vt 0.241348 0.304013
vt 0.180915 0.253676
vt 0.439733 0.354350
vt 0.370959 0.404687
vt 0.305034 0.354350
vt 0.577981 0.354350
vt 0.601115 0.354350
vt 0.511711 0.709771
vt 0.602917 0.404687
vt 0.032097 0.354350
vt 0.007133 0.404687
vt 0.008964 0.354350
vt 0.977180 0.709771
vt 0.239090 0.404687
vt 0.170341 0.354350
vt 0.439709 0.455023
vt 0.368701 0.505360
vt 0.305016 0.455023
vt 0.577952 0.455023
vt 0.601086 0.455023
vt 0.511711 0.802359
vt 0.588818 0.505360
vt 0.032069 0.455023
vt 0.021172 0.505360
vt 0.008935 0.455023
vt 0.977180 0.802359
vt 0.241310 0.505360
vt 0.170317 0.455023
vt 0.429134 0.555697
vt 0.361061 0.606034
vt 0.305003 0.555697
vt 0.551894 0.555697
vt 0.572311 0.555697
vt 0.547143 0.887898
vt 0.544561 0.606034
vt 0.058066 0.555697
vt 0.065390 0.606034
vt 0.037645 0.555697
vt 0.941748 0.887898
vt 0.248936 0.606034
vt 0.180852 0.555697
vt 0.404281 0.656371
vt 0.353406 0.700290
vt 0.305006 0.656371
vt 0.495110 0.656371
vt 0.510010 0.656371
vt 0.612612 0.953368
vt 0.458287 0.706582
vt 0.114894 0.656371
vt 0.151774 0.706582
vt 0.099994 0.656371
vt 0.876279 0.953368
vt 0.256622 0.700290
vt 0.205725 0.656371
vt 0.381533 0.059375
vt 0.305021 0.027914
vt 0.387239 0.052329
vt 0.698152 0.523330
vt 0.228505 0.059375
vt 0.222793 0.052329
vt 0.790739 0.523330
vt 0.305029 0.781459
vt 0.381545 0.749999
vt 0.387257 0.757044
vt 0.698151 0.988800
vt 0.222811 0.757044
vt 0.790739 0.988800
vt 0.228517 0.749999
vt 0.873854 0.949738
vt 0.830373 0.963512
vt 0.851044 0.915601
vt 0.903219 0.914838
vt 0.932631 0.718632
vt 0.951893 0.670138
vt 0.972899 0.710623
vt 0.968984 0.756065
vt 0.556260 0.793497
vt 0.536999 0.841992
vt 0.515992 0.801507
vt 0.519906 0.756065
vt 0.515992 0.710623
vt 0.536998 0.670138
vt 0.556260 0.718632
vt 0.550772 0.626656
vt 0.585672 0.597292
vt 0.584909 0.649466
vt 0.972899 0.801507
vt 0.951892 0.841992
vt 0.932631 0.793497
vt 0.699003 0.527612
vt 0.744445 0.531526
vt 0.707013 0.567879
vt 0.658518 0.548618
vt 0.938119 0.885473
vt 0.903982 0.862664
vt 0.699003 0.984518
vt 0.658518 0.963512
vt 0.707013 0.944251
vt 0.744445 0.980604
vt 0.615037 0.562392
vt 0.637847 0.596529
vt 0.903982 0.649466
vt 0.903218 0.597292
vt 0.938119 0.626657
vt 0.789888 0.984518
vt 0.781878 0.944251
vt 0.615037 0.949738
vt 0.585672 0.914838
vt 0.637847 0.915601
vt 0.789888 0.527612
vt 0.830373 0.548618
vt 0.781878 0.567879
vt 0.584909 0.862664
vt 0.550772 0.885473
vt 0.873854 0.562392
vt 0.851044 0.596529
vt 0.647010 0.853500
vt 0.691714 0.883371
vt 0.744445 0.893860
vt 0.797177 0.883371
vt 0.841881 0.853500
vt 0.871751 0.808797
vt 0.882240 0.756065
vt 0.871751 0.703333
vt 0.841881 0.658629
vt 0.797177 0.628759
vt 0.744445 0.618270
vt 0.691714 0.628759
vt 0.647010 0.658629
vt 0.617140 0.703333
vt 0.606651 0.756065
vt 0.617140 0.808797
vt 0.526035 0.665596
vt 0.508039 0.756065
vt 0.577281 0.588901
vt 0.653977 0.537654
vt 0.744445 0.519659
vt 0.834914 0.537654
vt 0.911610 0.588901
vt 0.962856 0.665596
vt 0.980851 0.756065
vt 0.962856 0.846534
vt 0.911610 0.923229
vt 0.834914 0.974476
vt 0.744445 0.992471
vt 0.653977 0.974476
vt 0.577281 0.923229
vt 0.526035 0.846533
vt 0.305029 0.065667
vt 0.419485 0.109083
vt 0.190571 0.109083
vt 0.129853 0.203339
vt 0.100233 0.304013
vt 0.090981 0.404687
vt 0.100180 0.505360
vt 0.129771 0.606034
vt 0.190565 0.700290
vt 0.305021 0.743707
vt 0.419478 0.700290
vt 0.480197 0.606034
vt 0.509817 0.505360
vt 0.519069 0.404687
vt 0.509870 0.304013
vt 0.480278 0.203339
vn -0.000000 -0.915476 -0.402372
vn -0.161492 -0.912042 -0.376961
vn -0.225700 -0.794502 -0.563761
vn -0.000000 -0.799508 -0.600656
vn -0.328102 -0.884743 -0.331026
vn -0.433262 -0.788353 -0.436788
vn -0.524969 -0.666456 -0.529381
vn -0.284294 -0.665552 -0.690085
vn -0.000000 -0.666166 -0.745803
vn -0.688364 -0.666975 -0.285130
vn -0.557087 -0.797912 -0.230197
vn -0.565511 -0.795805 -0.216547
vn -0.696554 -0.662874 -0.274611
vn -0.386485 -0.906251 -0.171285
vn -0.396925 -0.904966 -0.153258
vn -0.292111 -0.672024 0.680482
vn -0.473266 -0.670859 0.570936
vn -0.655398 -0.627061 0.421009
vn 0.292112 -0.672026 0.680479
vn 0.396925 -0.904965 -0.153260
vn 0.565511 -0.795805 -0.216547
vn 0.473262 -0.670853 0.570946
vn 0.386485 -0.906251 -0.171284
vn 0.557087 -0.797912 -0.230196
vn 0.688364 -0.666975 -0.285130
vn 0.696554 -0.662874 -0.274610
vn 0.655394 -0.627058 0.421019
vn 0.328102 -0.884743 -0.331026
vn 0.161492 -0.912042 -0.376961
vn 0.225700 -0.794502 -0.563761
vn 0.433262 -0.788353 -0.436788
vn 0.284293 -0.665552 -0.690085
vn 0.524969 -0.666456 -0.529381
vn -0.326527 -0.514986 -0.792572
vn -0.000000 -0.515699 -0.856770
vn -0.603169 -0.515994 -0.608225
vn -0.659368 -0.350942 -0.664886
vn -0.356823 -0.350094 -0.866090
vn -0.000000 -0.350702 -0.936487
vn -0.865107 -0.350974 -0.358339
vn -0.791282 -0.516184 -0.327760
vn -0.797545 -0.512315 -0.318521
vn -0.869888 -0.347877 -0.349681
vn -0.802869 -0.518437 0.294321
vn -0.908054 -0.365099 0.205282
vn 0.797545 -0.512315 -0.318520
vn 0.802864 -0.518435 0.294338
vn 0.791282 -0.516184 -0.327760
vn 0.865107 -0.350974 -0.358339
vn 0.869888 -0.347877 -0.349681
vn 0.908048 -0.365097 0.205311
vn 0.326526 -0.514986 -0.792572
vn 0.603169 -0.515994 -0.608225
vn 0.356823 -0.350094 -0.866090
vn 0.659368 -0.350942 -0.664886
vn -0.374914 -0.177077 -0.909991
vn -0.000000 -0.177431 -0.984133
vn -0.692967 -0.177565 -0.698762
vn -0.704157 -0.000000 -0.710044
vn -0.380936 0.000000 -0.924602
vn 0.000000 -0.000000 -1.000000
vn -0.923880 0.000000 -0.382683
vn -0.909205 -0.177525 -0.376605
vn -0.912969 -0.175891 -0.368171
vn -0.927307 -0.000000 -0.374302
vn -0.970143 -0.187893 0.153361
vn -0.990687 0.000000 0.136158
vn 0.912969 -0.175891 -0.368171
vn 0.970138 -0.187892 0.153390
vn 0.909205 -0.177525 -0.376605
vn 0.923880 0.000000 -0.382683
vn 0.927307 0.000000 -0.374301
vn 0.990685 -0.000000 0.136172
vn 0.374914 -0.177077 -0.909991
vn 0.692967 -0.177565 -0.698762
vn 0.380936 -0.000000 -0.924602
vn 0.704157 -0.000000 -0.710044
vn -0.374914 0.177077 -0.909991
vn -0.000000 0.177431 -0.984133
vn -0.692967 0.177565 -0.698762
vn -0.659368 0.350942 -0.664886
vn -0.356823 0.350094 -0.866090
vn -0.000000 0.350702 -0.936487
vn -0.865107 0.350974 -0.358339
vn -0.909205 0.177525 -0.376605
vn -0.912969 0.175891 -0.368171
vn -0.869888 0.347877 -0.349681
vn -0.970141 0.187893 0.153369
vn -0.908051 0.365098 0.205295
vn 0.912969 0.175891 -0.368171
vn 0.970141 0.187892 0.153373
vn 0.909205 0.177525 -0.376605
vn 0.865107 0.350974 -0.358339
vn 0.869888 0.347877 -0.349681
vn 0.908050 0.365098 0.205300
vn 0.374914 0.177077 -0.909991
vn 0.692967 0.177565 -0.698762
vn 0.356823 0.350094 -0.866090
vn 0.659368 0.350942 -0.664886
vn -0.326526 0.514986 -0.792572
vn 0.000000 0.515699 -0.856770
vn -0.603169 0.515994 -0.608225
vn -0.524969 0.666455 -0.529381
vn -0.284293 0.665552 -0.690085
vn -0.000000 0.666166 -0.745804
vn -0.688364 0.666975 -0.285130
vn -0.791282 0.516184 -0.327760
vn -0.797545 0.512315 -0.318521
vn -0.696554 0.662874 -0.274611
vn -0.802868 0.518436 0.294325
vn -0.655399 0.627061 0.421006
vn 0.797545 0.512315 -0.318520
vn 0.802864 0.518434 0.294338
vn 0.791282 0.516184 -0.327760
vn 0.688364 0.666975 -0.285130
vn 0.696555 0.662873 -0.274610
vn 0.655394 0.627057 0.421020
vn 0.326526 0.514986 -0.792572
vn 0.603169 0.515994 -0.608225
vn 0.284293 0.665552 -0.690085
vn 0.524969 0.666456 -0.529381
vn -0.225700 0.794502 -0.563761
vn -0.000000 0.799508 -0.600655
vn -0.433262 0.788353 -0.436788
vn -0.328102 0.884743 -0.331026
vn -0.161492 0.912042 -0.376961
vn 0.000000 0.915476 -0.402372
vn -0.386485 0.906251 -0.171284
vn -0.557088 0.797912 -0.230196
vn -0.565511 0.795805 -0.216547
vn -0.396925 0.904965 -0.153260
vn -0.473267 0.670860 0.570934
vn -0.292114 0.672030 0.680475
vn 0.565511 0.795805 -0.216546
vn 0.473260 0.670852 0.570948
vn 0.557087 0.797912 -0.230197
vn 0.386485 0.906251 -0.171284
vn 0.396925 0.904966 -0.153258
vn 0.292113 0.672026 0.680479
vn 0.225700 0.794502 -0.563761
vn 0.433262 0.788353 -0.436788
vn 0.161492 0.912042 -0.376961
vn 0.328102 0.884744 -0.331026
vn -0.180616 -0.973004 -0.143668
vn -0.194819 -0.972944 -0.124197
vn 0.000000 -0.989409 -0.145155
vn 0.000000 -0.992076 -0.125637
vn -0.000000 -0.726959 0.686681
vn -0.140900 -0.699951 0.700155
vn 0.180616 -0.973005 -0.143667
vn 0.194819 -0.972944 -0.124199
vn 0.140901 -0.699957 0.700148
vn 0.000000 0.726965 0.686674
vn 0.000000 0.992076 -0.125639
vn -0.194819 0.972944 -0.124200
vn -0.140901 0.699958 0.700146
vn 0.000000 0.989409 -0.145155
vn -0.180616 0.973004 -0.143668
vn 0.140902 0.699964 0.700140
vn 0.194819 0.972944 -0.124197
vn 0.180616 0.973005 -0.143667
vn 0.000000 0.000000 1.000000
vn -0.000000 0.000000 1.000000
vn -0.000000 0.000000 1.000000
vn 0.000000 0.000000 1.000000
vn -0.000000 -0.000000 1.000000
vn -0.000000 0.000000 1.000000
vn -0.000000 0.000000 1.000000
vn -0.000000 0.000000 1.000000
vn 0.000000 0.000000 1.000000
vn 0.000000 0.000000 1.000000
vn 0.000000 0.000000 1.000000
vn 0.000000 0.000000 1.000000
vn 0.000000 0.000000 1.000000
vn 0.000000 0.000000 1.000000
vn 0.000000 0.000000 1.000000
vn 0.000000 0.000000 1.000000
vn 0.000000 0.000000 1.000000
vn 0.000000 0.000000 1.000000
vn 0.000000 0.000000 1.000000
vn 0.000000 0.000000 1.000000
vn 0.000000 0.000000 1.000000
vn 0.000000 0.000000 1.000000
vn 0.000000 0.000000 1.000000
vn 0.000000 0.000000 1.000000
vn 0.000000 0.000000 1.000000
vn 0.000000 0.000000 1.000000
vn 0.000000 0.000000 1.000000
vn 0.000000 0.000000 1.000000
vn 0.000000 0.000000 1.000000
vn 0.000000 0.000000 1.000000
vn 0.000000 0.000000 1.000000
vn 0.000000 0.000000 1.000000
vn 0.000000 0.000000 1.000000
vn 0.000000 0.000000 1.000000
vn 0.000000 0.000000 1.000000
vn 0.000000 0.000000 1.000000
vn 0.000000 0.000000 1.000000
vn 0.000000 0.000000 1.000000
vn 0.000000 0.000000 1.000000
vn 0.000000 0.000000 1.000000
vn 0.000000 0.000000 1.000000
vn 0.000000 0.000000 1.000000
vn 0.000000 0.000000 1.000000
vn 0.000000 0.000000 1.000000
vn 0.000000 0.000000 1.000000
vn -0.000000 -0.000000 1.000000
vn -0.000000 -0.000000 1.000000
vn -0.000000 -0.000000 1.000000
vn -0.000000 0.000000 1.000000
vn 0.000000 -0.000000 1.000000
vn -0.000000 -0.000000 1.000000
vn 0.000000 0.000000 1.000000
vn -0.000000 0.000000 1.000000
vn -0.000000 0.000000 1.000000
vn 0.000000 0.000000 1.000000
vn 0.000000 0.000000 1.000000
vn 0.000000 0.000000 1.000000
vn 0.000000 -0.000000 1.000000
vn 0.000000 -0.000000 1.000000
vn 0.000000 -0.000000 1.000000
vn 0.000000 -0.000000 1.000000
vn 0.000000 -0.000000 1.000000
vn 0.000000 0.000000 1.000000
vn 0.000000 0.000000 1.000000
vn 0.000000 0.000000 1.000000
vn 0.000000 0.000000 1.000000
vn -0.000000 0.000000 1.000000
vn -0.000000 0.000000 1.000000
vn -0.000000 0.000000 1.000000
vn 0.000000 0.000000 1.000000
vn 0.000000 0.000000 1.000000
vn 0.000000 0.000000 1.000000
vn 0.000000 0.000000 1.000000
vn 0.000000 0.000000 1.000000
vn 0.000000 0.000000 1.000000
vn -0.000000 -0.000000 1.000000
vn -0.000000 -0.000000 1.000000
vn -0.000000 0.000000 1.000000
vn 0.000000 0.000000 1.000000
vn 0.000000 0.000000 1.000000
vn 0.000000 0.000000 1.000000
vn 0.000000 0.000000 1.000000
vn 0.000000 0.000000 1.000000
vn 0.000000 0.000000 1.000000
vn 0.000000 -0.000000 1.000000
vn 0.000000 -0.000000 1.000000
vn 0.000000 -0.000000 1.000000
vn 0.000000 0.000000 1.000000
vn 0.000000 0.000000 1.000000
vn 0.000000 0.000000 1.000000
vn 0.000000 0.000000 1.000000
vn 0.000000 0.000000 1.000000
vn 0.000000 0.000000 1.000000
vn 0.000000 0.000000 1.000000
vn 0.000000 0.000000 1.000000
vn 0.000000 0.000000 1.000000
vn 0.000000 0.000000 1.000000
vn 0.000000 0.000000 1.000000
vn 0.000000 0.000000 1.000000
vn -0.000000 0.000000 1.000000
vn 0.000000 0.000000 1.000000
vn 0.000000 0.000000 1.000000
vn -0.000000 0.000000 1.000000
vn -0.000000 0.000000 1.000000
vn -0.000000 0.000000 1.000000
vn -0.000000 0.000000 1.000000
vn 0.000000 0.000000 1.000000
vn 0.000000 0.000000 1.000000
vn 0.000000 0.000000 1.000000
vn 0.000000 -0.000000 1.000000
vn 0.000000 -0.000000 1.000000
vn 0.000000 -0.000000 1.000000
vn 0.000000 0.000000 1.000000
vn 0.000000 -0.000000 1.000000
vn 0.000000 0.000000 1.000000
vn 0.000000 0.000000 1.000000
vn 0.000000 0.000000 1.000000
vn 0.000000 0.000000 1.000000
vn -0.000000 0.000000 1.000000
vn -0.000000 0.000000 1.000000
vn -0.000000 0.000000 1.000000
vn -0.000000 0.000000 1.000000
vn -0.000000 -0.000000 1.000000
vn -0.000000 -0.000000 1.000000
vn -0.000000 -0.000000 1.000000
vn -0.000000 0.000000 1.000000
vn -0.000000 0.000000 1.000000
vn -0.000000 0.000000 1.000000
vn -0.000000 0.000000 1.000000
vn -0.014256 -0.005737 0.999882
vn -0.015944 -0.003087 0.999868
vn -0.016576 -0.000000 0.999863
vn -0.008537 -0.008224 0.999930
vn -0.011627 -0.007531 0.999904
vn -0.003188 -0.007481 0.999967
vn -0.005486 -0.007876 0.999954
vn -0.000000 -0.008253 0.999966
vn -0.001548 -0.007830 0.999968
vn 0.003188 -0.007481 0.999967
vn 0.001548 -0.007830 0.999968
vn 0.005486 -0.007876 0.999954
vn 0.008537 -0.008224 0.999930
vn 0.011627 -0.007531 0.999904
vn 0.014256 -0.005737 0.999882
vn 0.015944 -0.003087 0.999868
vn 0.016576 -0.000000 0.999863
vn 0.014256 0.005737 0.999882
vn 0.015944 0.003087 0.999868
vn 0.008537 0.008224 0.999930
vn 0.011627 0.007531 0.999904
vn 0.003188 0.007481 0.999967
vn 0.005486 0.007876 0.999954
vn 0.000000 0.008254 0.999966
vn 0.001548 0.007830 0.999968
vn -0.003188 0.007481 0.999967
vn -0.001548 0.007830 0.999968
vn -0.005486 0.007876 0.999954
vn -0.008537 0.008224 0.999930
vn -0.011627 0.007531 0.999904
vn -0.014256 0.005737 0.999882
vn -0.015944 0.003087 0.999868
vn -0.158299 -0.965645 -0.206085
vn -0.361985 -0.906463 -0.217466
vn -0.000000 -0.976520 -0.215426
vn 0.361985 -0.906463 -0.217466
vn 0.158299 -0.965645 -0.206085
vn 0.535118 -0.793560 -0.289675
vn 0.654508 -0.666332 -0.357241
vn 0.752366 -0.515374 -0.410287
vn 0.822433 -0.350270 -0.448235
vn 0.864237 -0.177105 -0.470880
vn 0.878143 0.000000 -0.478398
vn 0.864237 0.177105 -0.470880
vn 0.822433 0.350270 -0.448235
vn 0.752366 0.515374 -0.410287
vn 0.654508 0.666332 -0.357241
vn 0.535118 0.793560 -0.289675
vn 0.361985 0.906463 -0.217466
vn 0.158299 0.965645 -0.206085
vn 0.000000 0.976520 -0.215426
vn -0.158299 0.965645 -0.206085
vn -0.361985 0.906463 -0.217466
vn -0.654508 0.666332 -0.357241
vn -0.535118 0.793560 -0.289675
vn -0.822433 0.350270 -0.448235
vn -0.752366 0.515374 -0.410287
vn -0.878143 -0.000000 -0.478398
vn -0.864237 0.177105 -0.470880
vn -0.822433 -0.350270 -0.448235
vn -0.864237 -0.177105 -0.470880
vn -0.654508 -0.666332 -0.357241
vn -0.752366 -0.515374 -0.410287
vn -0.535118 -0.793560 -0.289675
s 1
g cytoplasm
usemtl phong1SG
f 1/1/1 179/195/2 263/103/3 182/198/4
f 179/195/2 2/2/5 180/196/6 263/103/3
f 263/103/3 180/196/6 7/9/7 181/197/8
f 182/198/4 263/103/3 181/197/8 6/8/9
f 86/102/10 183/199/11 264/104/12 186/203/13
f 183/199/11 71/87/14 184/200/15 264/104/12
f 264/104/12 184/200/15 3/3/16 185/201/17
f 186/203/13 264/104/12 185/201/17 8/10/18
f 4/5/19 187/204/20 265/105/21 190/207/22
f 187/204/20 73/89/23 188/205/24 265/105/21
f 265/105/21 188/205/24 74/90/25 189/206/26
f 190/207/22 265/105/21 189/206/26 9/12/27
f 5/7/28 191/209/29 266/106/30 193/211/31
f 191/209/29 1/1/1 182/198/4 266/106/30
f 266/106/30 182/198/4 6/8/9 192/210/32
f 193/211/31 266/106/30 192/210/32 10/14/33
f 6/8/9 181/197/8 267/107/34 196/214/35
f 181/197/8 7/9/7 194/212/36 267/107/34
f 267/107/34 194/212/36 12/16/37 195/213/38
f 196/214/35 267/107/34 195/213/38 11/15/39
f 85/101/40 197/215/41 268/108/42 199/218/43
f 197/215/41 86/102/10 186/203/13 268/108/42
f 268/108/42 186/203/13 8/10/18 198/216/44
f 199/218/43 268/108/42 198/216/44 13/17/45
f 9/12/27 189/206/26 269/109/46 202/221/47
f 189/206/26 74/90/25 200/219/48 269/109/46
f 269/109/46 200/219/48 75/91/49 201/220/50
f 202/221/47 269/109/46 201/220/50 14/19/51
f 10/14/33 192/210/32 270/110/52 204/224/53
f 192/210/32 6/8/9 196/214/35 270/110/52
f 270/110/52 196/214/35 11/15/39 203/223/54
f 204/224/53 270/110/52 203/223/54 15/21/55
f 11/15/39 195/213/38 271/111/56 207/227/57
f 195/213/38 12/16/37 205/225/58 271/111/56
f 271/111/56 205/225/58 17/23/59 206/226/60
f 207/227/57 271/111/56 206/226/60 16/22/61
f 84/100/62 208/228/63 272/112/64 210/231/65
f 208/228/63 85/101/40 199/218/43 272/112/64
f 272/112/64 199/218/43 13/17/45 209/229/66
f 210/231/65 272/112/64 209/229/66 18/24/67
f 14/19/51 201/220/50 273/113/68 213/234/69
f 201/220/50 75/91/49 211/232/70 273/113/68
f 273/113/68 211/232/70 76/92/71 212/233/72
f 213/234/69 273/113/68 212/233/72 19/26/73
f 15/21/55 203/223/54 274/114/74 215/237/75
f 203/223/54 11/15/39 207/227/57 274/114/74
f 274/114/74 207/227/57 16/22/61 214/236/76
f 215/237/75 274/114/74 214/236/76 20/28/77
f 16/22/61 206/226/60 275/115/78 218/240/79
f 206/226/60 17/23/59 216/238/80 275/115/78
f 275/115/78 216/238/80 22/30/81 217/239/82
f 218/240/79 275/115/78 217/239/82 21/29/83
f 83/99/84 219/241/85 276/116/86 221/244/87
f 219/241/85 84/100/62 210/231/65 276/116/86
f 276/116/86 210/231/65 18/24/67 220/242/88
f 221/244/87 276/116/86 220/242/88 23/31/89
f 19/26/73 212/233/72 277/117/90 224/247/91
f 212/233/72 76/92/71 222/245/92 277/117/90
f 277/117/90 222/245/92 77/93/93 223/246/94
f 224/247/91 277/117/90 223/246/94 24/33/95
f 20/28/77 214/236/76 278/118/96 226/250/97
f 214/236/76 16/22/61 218/240/79 278/118/96
f 278/118/96 218/240/79 21/29/83 225/249/98
f 226/250/97 278/118/96 225/249/98 25/35/99
f 21/29/83 217/239/82 279/119/100 229/253/101
f 217/239/82 22/30/81 227/251/102 279/119/100
f 279/119/100 227/251/102 27/37/103 228/252/104
f 229/253/101 279/119/100 228/252/104 26/36/105
f 82/98/106 230/254/107 280/120/108 232/257/109
f 230/254/107 83/99/84 221/244/87 280/120/108
f 280/120/108 221/244/87 23/31/89 231/255/110
f 232/257/109 280/120/108 231/255/110 28/38/111
f 24/33/95 223/246/94 281/121/112 235/260/113
f 223/246/94 77/93/93 233/258/114 281/121/112
f 281/121/112 233/258/114 78/94/115 234/259/116
f 235/260/113 281/121/112 234/259/116 29/40/117
f 25/35/99 225/249/98 282/122/118 237/263/119
f 225/249/98 21/29/83 229/253/101 282/122/118
f 282/122/118 229/253/101 26/36/105 236/262/120
f 237/263/119 282/122/118 236/262/120 30/42/121
f 26/36/105 228/252/104 283/123/122 240/266/123
f 228/252/104 27/37/103 238/264/124 283/123/122
f 283/123/122 238/264/124 32/44/125 239/265/126
f 240/266/123 283/123/122 239/265/126 31/43/127
f 81/97/128 241/267/129 284/124/130 243/270/131
f 241/267/129 82/98/106 232/257/109 284/124/130
f 284/124/130 232/257/109 28/38/111 242/268/132
f 243/270/131 284/124/130 242/268/132 33/45/133
f 29/40/117 234/259/116 285/125/134 246/273/135
f 234/259/116 78/94/115 244/271/136 285/125/134
f 285/125/134 244/271/136 79/95/137 245/272/138
f 246/273/135 285/125/134 245/272/138 34/47/139
f 30/42/121 236/262/120 286/126/140 248/276/141
f 236/262/120 26/36/105 240/266/123 286/126/140
f 286/126/140 240/266/123 31/43/127 247/275/142
f 248/276/141 286/126/140 247/275/142 35/49/143
f 71/87/14 249/277/144 287/127/145 184/200/15
f 249/277/144 72/88/146 250/278/147 287/127/145
f 287/127/145 250/278/147 36/50/148 251/279/149
f 184/200/15 287/127/145 251/279/149 3/3/16
f 72/88/146 252/281/150 288/128/151 250/278/147
f 252/281/150 73/89/23 187/204/20 288/128/151
f 288/128/151 187/204/20 4/5/19 253/282/152
f 250/278/147 288/128/151 253/282/152 36/50/148
f 37/52/153 254/284/154 289/129/155 256/286/156
f 254/284/154 80/96/157 255/285/158 289/129/155
f 289/129/155 255/285/158 81/97/128 243/270/131
f 256/286/156 289/129/155 243/270/131 33/45/133
f 37/52/153 257/288/159 290/130/160 254/284/154
f 257/288/159 34/47/139 245/272/138 290/130/160
f 290/130/160 245/272/138 79/95/137 258/290/161
f 254/284/154 290/130/160 258/290/161 80/96/157
f 65/81/162 259/291/163 291/131/164 262/294/165
f 259/291/163 66/82/166 260/292/167 291/131/164
f 291/131/164 260/292/167 42/58/168 261/293/169
f 262/294/165 291/131/164 261/293/169 43/59/170
f 45/61/171 87/295/172 292/132/173 90/298/174
f 87/295/172 46/62/175 88/296/176 292/132/173
f 292/132/173 88/296/176 62/78/177 89/297/178
f 90/298/174 292/132/173 89/297/178 63/79/179
f 53/69/180 91/299/181 293/133/182 94/302/183
f 91/299/181 54/70/184 92/300/185 293/133/182
f 293/133/182 92/300/185 70/86/186 93/301/187
f 94/302/183 293/133/182 93/301/187 55/71/188
f 55/71/188 95/303/189 294/134/190 94/302/183
f 95/303/189 56/72/191 96/304/192 294/134/190
f 294/134/190 96/304/192 52/68/193 97/305/194
f 94/302/183 294/134/190 97/305/194 53/69/180
f 56/72/191 98/306/195 295/135/196 96/304/192
f 98/306/195 57/73/197 99/307/198 295/135/196
f 295/135/196 99/307/198 51/67/199 100/308/200
f 96/304/192 295/135/196 100/308/200 52/68/193
f 63/79/179 101/309/201 296/136/202 90/298/174
f 101/309/201 64/80/203 102/310/204 296/136/202
f 296/136/202 102/310/204 44/60/205 103/311/206
f 90/298/174 296/136/202 103/311/206 45/61/171
f 58/74/207 104/312/208 297/137/209 107/315/210
f 104/312/208 59/75/211 105/313/212 297/137/209
f 297/137/209 105/313/212 49/65/213 106/314/214
f 107/315/210 297/137/209 106/314/214 50/66/215
f 64/80/203 108/316/216 298/138/217 102/310/204
f 108/316/216 65/81/162 262/294/165 298/138/217
f 298/138/217 262/294/165 43/59/170 109/317/218
f 102/310/204 298/138/217 109/317/218 44/60/205
f 67/83/219 110/318/220 299/139/221 113/321/222
f 110/318/220 68/84/223 111/319/224 299/139/221
f 299/139/221 111/319/224 40/56/225 112/320/226
f 113/321/222 299/139/221 112/320/226 41/57/227
f 57/73/197 114/322/228 300/140/229 99/307/198
f 114/322/228 58/74/207 107/315/210 300/140/229
f 300/140/229 107/315/210 50/66/215 115/323/230
f 99/307/198 300/140/229 115/323/230 51/67/199
f 46/62/175 116/324/231 301/141/232 88/296/176
f 116/324/231 47/63/233 117/325/234 301/141/232
f 301/141/232 117/325/234 61/77/235 118/326/236
f 88/296/176 301/141/232 118/326/236 62/78/177
f 66/82/166 119/327/237 302/142/238 260/292/167
f 119/327/237 67/83/219 113/321/222 302/142/238
f 302/142/238 113/321/222 41/57/227 120/328/239
f 260/292/167 302/142/238 120/328/239 42/58/168
f 68/84/223 121/329/240 303/143/241 111/319/224
f 121/329/240 69/85/242 122/330/243 303/143/241
f 303/143/241 122/330/243 39/55/244 123/331/245
f 111/319/224 303/143/241 123/331/245 40/56/225
f 59/75/211 124/332/246 304/144/247 105/313/212
f 124/332/246 60/76/248 125/333/249 304/144/247
f 304/144/247 125/333/249 48/64/250 126/334/251
f 105/313/212 304/144/247 126/334/251 49/65/213
f 54/70/184 127/335/252 305/145/253 92/300/185
f 127/335/252 39/55/244 122/330/243 305/145/253
f 305/145/253 122/330/243 69/85/242 128/336/254
f 92/300/185 305/145/253 128/336/254 70/86/186
f 60/76/248 129/337/255 306/146/256 125/333/249
f 129/337/255 61/77/235 117/325/234 306/146/256
f 306/146/256 117/325/234 47/63/233 130/338/257
f 125/333/249 306/146/256 130/338/257 48/64/250
f 40/56/225 123/331/245 307/147/258 132/340/259
f 39/55/244 131/339/260 307/147/258 123/331/245
f 38/54/261 132/340/259 307/147/258 131/339/260
f 41/57/227 112/320/226 308/148/262 133/341/263
f 40/56/225 132/340/259 308/148/262 112/320/226
f 38/54/261 133/341/263 308/148/262 132/340/259
f 42/58/168 120/328/239 309/149/264 134/342/265
f 41/57/227 133/341/263 309/149/264 120/328/239
f 38/54/261 134/342/265 309/149/264 133/341/263
f 43/59/170 261/293/169 310/150/266 135/343/267
f 42/58/168 134/342/265 310/150/266 261/293/169
f 38/54/261 135/343/267 310/150/266 134/342/265
f 44/60/205 109/317/218 311/151/268 136/344/269
f 43/59/170 135/343/267 311/151/268 109/317/218
f 38/54/261 136/344/269 311/151/268 135/343/267
f 45/61/171 103/311/206 312/152/270 137/345/271
f 44/60/205 136/344/269 312/152/270 103/311/206
f 38/54/261 137/345/271 312/152/270 136/344/269
f 38/54/261 138/346/272 313/153/273 137/345/271
f 46/62/175 87/295/172 313/153/273 138/346/272
f 45/61/171 137/345/271 313/153/273 87/295/172
f 38/54/261 139/347/274 314/154/275 138/346/272
f 47/63/233 116/324/231 314/154/275 139/347/274
f 46/62/175 138/346/272 314/154/275 116/324/231
f 48/64/250 130/338/257 315/155/276 140/348/277
f 47/63/233 139/347/274 315/155/276 130/338/257
f 38/54/261 140/348/277 315/155/276 139/347/274
f 49/65/213 126/334/251 316/156/278 141/349/279
f 48/64/250 140/348/277 316/156/278 126/334/251
f 38/54/261 141/349/279 316/156/278 140/348/277
f 50/66/215 106/314/214 317/157/280 142/350/281
f 49/65/213 141/349/279 317/157/280 106/314/214
f 38/54/261 142/350/281 317/157/280 141/349/279
f 51/67/199 115/323/230 318/158/282 143/351/283
f 50/66/215 142/350/281 318/158/282 115/323/230
f 38/54/261 143/351/283 318/158/282 142/350/281
f 52/68/193 100/308/200 319/159/284 144/352/285
f 51/67/199 143/351/283 319/159/284 100/308/200
f 38/54/261 144/352/285 319/159/284 143/351/283
f 53/69/180 97/305/194 320/160/286 145/353/287
f 52/68/193 144/352/285 320/160/286 97/305/194
f 38/54/261 145/353/287 320/160/286 144/352/285
f 38/54/261 146/354/288 321/161/289 145/353/287
f 54/70/184 91/299/181 321/161/289 146/354/288
f 53/69/180 145/353/287 321/161/289 91/299/181
f 38/54/261 131/339/260 322/162/290 146/354/288
f 39/55/244 127/335/252 322/162/290 131/339/260
f 54/70/184 146/354/288 322/162/290 127/335/252
f 13/18/45 147/355/291 323/163/292 209/230/66
f 147/355/291 56/72/191 95/303/189 323/163/292
f 323/163/292 95/303/189 55/71/188 148/356/293
f 209/230/66 323/163/292 148/356/293 18/25/67
f 8/11/18 149/357/294 324/164/295 198/217/44
f 149/357/294 57/73/197 98/306/195 324/164/295
f 324/164/295 98/306/195 56/72/191 147/355/291
f 198/217/44 324/164/295 147/355/291 13/18/45
f 3/4/16 150/358/296 325/165/297 185/202/17
f 150/358/296 58/74/207 114/322/228 325/165/297
f 325/165/297 114/322/228 57/73/197 149/357/294
f 185/202/17 325/165/297 149/357/294 8/11/18
f 36/51/148 151/359/298 326/166/299 251/280/149
f 151/359/298 59/75/211 104/312/208 326/166/299
f 326/166/299 104/312/208 58/74/207 150/358/296
f 251/280/149 326/166/299 150/358/296 3/4/16
f 4/6/19 152/360/300 327/167/301 253/283/152
f 152/360/300 60/76/248 124/332/246 327/167/301
f 327/167/301 124/332/246 59/75/211 151/359/298
f 253/283/152 327/167/301 151/359/298 36/51/148
f 4/6/19 190/208/22 328/168/302 152/360/300
f 190/208/22 9/13/27 153/361/303 328/168/302
f 328/168/302 153/361/303 61/77/235 129/337/255
f 152/360/300 328/168/302 129/337/255 60/76/248
f 62/78/177 118/326/236 329/169/304 154/362/305
f 118/326/236 61/77/235 153/361/303 329/169/304
f 329/169/304 153/361/303 9/13/27 202/222/47
f 154/362/305 329/169/304 202/222/47 14/20/51
f 63/79/179 89/297/178 330/170/306 155/363/307
f 89/297/178 62/78/177 154/362/305 330/170/306
f 330/170/306 154/362/305 14/20/51 213/235/69
f 155/363/307 330/170/306 213/235/69 19/27/73
f 24/34/95 156/364/308 331/171/309 224/248/91
f 156/364/308 64/80/203 101/309/201 331/171/309
f 331/171/309 101/309/201 63/79/179 155/363/307
f 224/248/91 331/171/309 155/363/307 19/27/73
f 29/41/117 157/365/310 332/172/311 235/261/113
f 157/365/310 65/81/162 108/316/216 332/172/311
f 332/172/311 108/316/216 64/80/203 156/364/308
f 235/261/113 332/172/311 156/364/308 24/34/95
f 34/48/139 158/366/312 333/173/313 246/274/135
f 158/366/312 66/82/166 259/291/163 333/173/313
f 333/173/313 259/291/163 65/81/162 157/365/310
f 246/274/135 333/173/313 157/365/310 29/41/117
f 37/53/153 159/367/314 334/174/315 257/289/159
f 159/367/314 67/83/219 119/327/237 334/174/315
f 334/174/315 119/327/237 66/82/166 158/366/312
f 257/289/159 334/174/315 158/366/312 34/48/139
f 33/46/133 160/368/316 335/175/317 256/287/156
f 160/368/316 68/84/223 110/318/220 335/175/317
f 335/175/317 110/318/220 67/83/219 159/367/314
f 256/287/156 335/175/317 159/367/314 37/53/153
f 33/46/133 242/269/132 336/176/318 160/368/316
f 242/269/132 28/39/111 161/369/319 336/176/318
f 336/176/318 161/369/319 69/85/242 121/329/240
f 160/368/316 336/176/318 121/329/240 68/84/223
f 70/86/186 128/336/254 337/177/320 162/370/321
f 128/336/254 69/85/242 161/369/319 337/177/320
f 337/177/320 161/369/319 28/39/111 231/256/110
f 162/370/321 337/177/320 231/256/110 23/32/89
f 55/71/188 93/301/187 338/178/322 148/356/293
f 93/301/187 70/86/186 162/370/321 338/178/322
f 338/178/322 162/370/321 23/32/89 220/243/88
f 148/356/293 338/178/322 220/243/88 18/25/67
f 2/2/5 179/195/2 339/179/323 164/372/324
f 179/195/2 1/1/1 163/371/325 339/179/323
f 339/179/323 163/371/325 72/88/146 249/277/144
f 164/372/324 339/179/323 249/277/144 71/87/14
f 5/7/28 165/373/326 340/180/327 191/209/29
f 165/373/326 73/89/23 252/281/150 340/180/327
f 340/180/327 252/281/150 72/88/146 163/371/325
f 191/209/29 340/180/327 163/371/325 1/1/1
f 74/90/25 188/205/24 341/181/328 166/374/329
f 188/205/24 73/89/23 165/373/326 341/181/328
f 341/181/328 165/373/326 5/7/28 193/211/31
f 166/374/329 341/181/328 193/211/31 10/14/33
f 75/91/49 200/219/48 342/182/330 167/375/331
f 200/219/48 74/90/25 166/374/329 342/182/330
f 342/182/330 166/374/329 10/14/33 204/224/53
f 167/375/331 342/182/330 204/224/53 15/21/55
f 76/92/71 211/232/70 343/183/332 168/376/333
f 211/232/70 75/91/49 167/375/331 343/183/332
f 343/183/332 167/375/331 15/21/55 215/237/75
f 168/376/333 343/183/332 215/237/75 20/28/77
f 77/93/93 222/245/92 344/184/334 169/377/335
f 222/245/92 76/92/71 168/376/333 344/184/334
f 344/184/334 168/376/333 20/28/77 226/250/97
f 169/377/335 344/184/334 226/250/97 25/35/99
f 78/94/115 233/258/114 345/185/336 170/378/337
f 233/258/114 77/93/93 169/377/335 345/185/336
f 345/185/336 169/377/335 25/35/99 237/263/119
f 170/378/337 345/185/336 237/263/119 30/42/121
f 79/95/137 244/271/136 346/186/338 171/379/339
f 244/271/136 78/94/115 170/378/337 346/186/338
f 346/186/338 170/378/337 30/42/121 248/276/141
f 171/379/339 346/186/338 248/276/141 35/49/143
f 80/96/157 258/290/161 347/187/340 172/380/341
f 258/290/161 79/95/137 171/379/339 347/187/340
f 347/187/340 171/379/339 35/49/143 247/275/142
f 172/380/341 347/187/340 247/275/142 31/43/127
f 81/97/128 255/285/158 348/188/342 173/381/343
f 255/285/158 80/96/157 172/380/341 348/188/342
f 348/188/342 172/380/341 31/43/127 239/265/126
f 173/381/343 348/188/342 239/265/126 32/44/125
f 27/37/103 174/382/344 349/189/345 238/264/124
f 174/382/344 82/98/106 241/267/129 349/189/345
f 349/189/345 241/267/129 81/97/128 173/381/343
f 238/264/124 349/189/345 173/381/343 32/44/125
f 22/30/81 175/383/346 350/190/347 227/251/102
f 175/383/346 83/99/84 230/254/107 350/190/347
f 350/190/347 230/254/107 82/98/106 174/382/344
f 227/251/102 350/190/347 174/382/344 27/37/103
f 17/23/59 176/384/348 351/191/349 216/238/80
f 176/384/348 84/100/62 219/241/85 351/191/349
f 351/191/349 219/241/85 83/99/84 175/383/346
f 216/238/80 351/191/349 175/383/346 22/30/81
f 12/16/37 177/385/350 352/192/351 205/225/58
f 177/385/350 85/101/40 208/228/63 352/192/351
f 352/192/351 208/228/63 84/100/62 176/384/348
f 205/225/58 352/192/351 176/384/348 17/23/59
f 7/9/7 178/386/352 353/193/353 194/212/36
f 178/386/352 86/102/10 197/215/41 353/193/353
f 353/193/353 197/215/41 85/101/40 177/385/350
f 194/212/36 353/193/353 177/385/350 12/16/37
f 2/2/5 164/372/324 354/194/354 180/196/6
f 164/372/324 71/87/14 183/199/11 354/194/354
f 354/194/354 183/199/11 86/102/10 178/386/352
f 180/196/6 354/194/354 178/386/352 7/9/7
